<?xml version="1.0" encoding="UTF-8" standalone="no"?>
<!-- Created with Inkscape (http://www.inkscape.org/) -->

<svg
   xmlns:dc="http://purl.org/dc/elements/1.1/"
   xmlns:cc="http://creativecommons.org/ns#"
   xmlns:rdf="http://www.w3.org/1999/02/22-rdf-syntax-ns#"
   xmlns:svg="http://www.w3.org/2000/svg"
   xmlns="http://www.w3.org/2000/svg"
   xmlns:xlink="http://www.w3.org/1999/xlink"
   xmlns:sodipodi="http://sodipodi.sourceforge.net/DTD/sodipodi-0.dtd"
   xmlns:inkscape="http://www.inkscape.org/namespaces/inkscape"
   width="1280pt"
   height="720pt"
   viewBox="0 0 451.55557 254"
   version="1.1"
   id="svg8"
   inkscape:version="0.92.2 (5c3e80d, 2017-08-06)"
   sodipodi:docname="thumbnail_13.svg"
   inkscape:export-filename="/home/nokomprendo/depots/github/tuto_fonctionnel/tuto_fonctionnel_13/thumbnail_13.png"
   inkscape:export-xdpi="72"
   inkscape:export-ydpi="72">
  <defs
     id="defs2">
    <path
       sodipodi:nodetypes="czzc"
       inkscape:connector-curvature="0"
       id="path5167-5-3-6"
       d="m 165.68141,140.85891 c 8.75775,2.20625 -7.63349,52.69351 2.40542,59.60111 10.03891,6.9076 10.02941,-24.36935 19.24342,-17.6398 9.21401,6.72955 15.82865,43.17979 14.69981,64.9465"
       style="fill:none;stroke:#000000;stroke-width:1;stroke-linecap:butt;stroke-linejoin:miter;stroke-miterlimit:4;stroke-dasharray:none;stroke-opacity:1" />
    <linearGradient
       id="linearGradient2795">
      <stop
         id="stop2797"
         offset="0"
         style="stop-color:#b8b8b8;stop-opacity:0.49803922" />
      <stop
         id="stop2799"
         offset="1"
         style="stop-color:#7f7f7f;stop-opacity:0" />
    </linearGradient>
    <linearGradient
       id="linearGradient2787">
      <stop
         id="stop2789"
         offset="0"
         style="stop-color:#7f7f7f;stop-opacity:0.5" />
      <stop
         id="stop2791"
         offset="1"
         style="stop-color:#7f7f7f;stop-opacity:0" />
    </linearGradient>
    <linearGradient
       id="linearGradient3676">
      <stop
         id="stop3678"
         offset="0"
         style="stop-color:#b2b2b2;stop-opacity:0.5" />
      <stop
         id="stop3680"
         offset="1"
         style="stop-color:#b3b3b3;stop-opacity:0" />
    </linearGradient>
    <linearGradient
       id="linearGradient3236">
      <stop
         id="stop3244"
         offset="0"
         style="stop-color:#f4f4f4;stop-opacity:1" />
      <stop
         id="stop3240"
         offset="1"
         style="stop-color:#ffffff;stop-opacity:1" />
    </linearGradient>
    <linearGradient
       id="linearGradient4671">
      <stop
         id="stop4673"
         offset="0"
         style="stop-color:#ffd43b;stop-opacity:1" />
      <stop
         id="stop4675"
         offset="1"
         style="stop-color:#ffe873;stop-opacity:1" />
    </linearGradient>
    <linearGradient
       id="linearGradient4689">
      <stop
         id="stop4691"
         offset="0"
         style="stop-color:#5a9fd4;stop-opacity:1" />
      <stop
         id="stop4693"
         offset="1"
         style="stop-color:#306998;stop-opacity:1" />
    </linearGradient>
    <linearGradient
       gradientTransform="translate(100.2702,99.61116)"
       gradientUnits="userSpaceOnUse"
       xlink:href="#linearGradient4671"
       id="linearGradient2987"
       y2="144.75717"
       x2="-65.308502"
       y1="144.75717"
       x1="224.23996" />
    <linearGradient
       gradientTransform="translate(100.2702,99.61116)"
       gradientUnits="userSpaceOnUse"
       xlink:href="#linearGradient4689"
       id="linearGradient2990"
       y2="76.313133"
       x2="26.670298"
       y1="77.475983"
       x1="172.94208" />
    <linearGradient
       gradientTransform="matrix(0.562541,0,0,0.567972,-11.5974,-7.60954)"
       gradientUnits="userSpaceOnUse"
       xlink:href="#linearGradient4671"
       id="linearGradient2255"
       y2="144.75717"
       x2="-65.308502"
       y1="144.75717"
       x1="224.23996" />
    <linearGradient
       gradientTransform="matrix(0.562541,0,0,0.567972,-11.5974,-7.60954)"
       gradientUnits="userSpaceOnUse"
       xlink:href="#linearGradient4689"
       id="linearGradient2258"
       y2="76.313133"
       x2="26.670298"
       y1="76.176224"
       x1="172.94208" />
    <radialGradient
       gradientTransform="matrix(1,0,0,0.177966,0,108.7434)"
       gradientUnits="userSpaceOnUse"
       xlink:href="#linearGradient2795"
       id="radialGradient2801"
       fy="132.28575"
       fx="61.518883"
       r="29.036913"
       cy="132.28575"
       cx="61.518883" />
    <linearGradient
       gradientTransform="matrix(0.562541,0,0,0.567972,-4.5183288,-1.6222213)"
       gradientUnits="userSpaceOnUse"
       xlink:href="#linearGradient4671"
       id="linearGradient1475"
       y2="137.27299"
       x2="112.03144"
       y1="192.35176"
       x1="150.96111" />
    <linearGradient
       gradientTransform="matrix(0.562541,0,0,0.567972,-4.5183288,-1.6222213)"
       gradientUnits="userSpaceOnUse"
       xlink:href="#linearGradient4689"
       id="linearGradient1478"
       y2="114.39767"
       x2="135.66525"
       y1="20.603781"
       x1="26.648937" />
    <radialGradient
       gradientTransform="matrix(1.7490565e-8,-0.23994696,1.054668,3.7915457e-7,-78.109429,148.85906)"
       gradientUnits="userSpaceOnUse"
       xlink:href="#linearGradient2795"
       id="radialGradient1480"
       fy="132.28575"
       fx="61.518883"
       r="29.036913"
       cy="132.28575"
       cx="61.518883" />
  </defs>
  <sodipodi:namedview
     id="base"
     pagecolor="#ffffff"
     bordercolor="#666666"
     borderopacity="1.0"
     inkscape:pageopacity="0"
     inkscape:pageshadow="2"
     inkscape:zoom="0.7"
     inkscape:cx="940.89992"
     inkscape:cy="443.25933"
     inkscape:document-units="mm"
     inkscape:current-layer="layer1"
     showgrid="false"
     units="pt"
     showguides="true"
     inkscape:guide-bbox="true"
     inkscape:window-width="1916"
     inkscape:window-height="1035"
     inkscape:window-x="0"
     inkscape:window-y="31"
     inkscape:window-maximized="0"
     inkscape:pagecheckerboard="true" />
  <metadata
     id="metadata5">
    <rdf:RDF>
      <cc:Work
         rdf:about="">
        <dc:format>image/svg+xml</dc:format>
        <dc:type
           rdf:resource="http://purl.org/dc/dcmitype/StillImage" />
        <dc:title />
      </cc:Work>
    </rdf:RDF>
  </metadata>
  <g
     inkscape:label="Calque 1"
     inkscape:groupmode="layer"
     id="layer1"
     transform="translate(0,-43.000005)">
    <rect
       style="fill:#fafdff;fill-opacity:1;stroke-width:0.26458332;stroke:none"
       id="rect4610"
       width="457.98138"
       height="262.22153"
       x="-3.5583487"
       y="40.070145" />
    <text
       xml:space="preserve"
       style="font-style:normal;font-weight:normal;font-size:10.58333302px;line-height:1.25;font-family:sans-serif;letter-spacing:0px;word-spacing:0px;fill:#000000;fill-opacity:1;stroke:none;stroke-width:0.26458332"
       x="9.0871811"
       y="70.889969"
       id="text230"><tspan
         sodipodi:role="line"
         id="tspan228"
         x="9.0871811"
         y="70.889969"
         style="font-style:italic;font-variant:normal;font-weight:normal;font-stretch:normal;font-size:22.57777786px;font-family:'DejaVu Sans';-inkscape-font-specification:'DejaVu Sans';stroke-width:0.26458332">tuto fonctionnel 13</tspan></text>
    <text
       xml:space="preserve"
       style="font-style:normal;font-weight:normal;font-size:10.58333302px;line-height:1.25;font-family:sans-serif;text-align:center;letter-spacing:0px;word-spacing:0px;text-anchor:middle;fill:#000000;fill-opacity:1;stroke:none;stroke-width:0.26458332"
       x="292.17734"
       y="112.58406"
       id="text234"><tspan
         sodipodi:role="line"
         x="292.17734"
         y="112.58406"
         style="font-style:normal;font-variant:normal;font-weight:bold;font-stretch:normal;font-size:25.39999962px;font-family:'DejaVu Sans';-inkscape-font-specification:'DejaVu Sans Bold';text-align:center;text-anchor:middle;stroke-width:0.26458332"
         id="tspan896">Curryfication et</tspan><tspan
         sodipodi:role="line"
         x="292.17734"
         y="144.33406"
         style="font-style:normal;font-variant:normal;font-weight:bold;font-stretch:normal;font-size:25.39999962px;font-family:'DejaVu Sans';-inkscape-font-specification:'DejaVu Sans Bold';text-align:center;text-anchor:middle;stroke-width:0.26458332"
         id="tspan926">évaluation partielle</tspan><tspan
         sodipodi:role="line"
         x="292.17734"
         y="176.08406"
         style="font-style:normal;font-variant:normal;font-weight:bold;font-stretch:normal;font-size:25.39999962px;font-family:'DejaVu Sans';-inkscape-font-specification:'DejaVu Sans Bold';text-align:center;text-anchor:middle;stroke-width:0.26458332"
         id="tspan928">(javascript/haskell)</tspan></text>
    <g
       transform="translate(3.3265185,22.356119)"
       id="layer1-6"
       inkscape:label="Calque 1">
      <g
         id="g1005"
         transform="rotate(-1.4139041,-2772.7956,-22.807463)">
        <ellipse
           id="path618"
           style="fill:#188a17;fill-opacity:1;stroke:#000000;stroke-width:1.03158987;stroke-miterlimit:4;stroke-dasharray:none;stroke-opacity:1"
           cy="204.13069"
           cx="60.581951"
           rx="44.654301"
           ry="41.961315"
           transform="matrix(0.93969262,-0.34202014,0,1,0,0)" />
        <path
           style="fill:none;stroke:#000000;stroke-width:1;stroke-linecap:butt;stroke-linejoin:miter;stroke-miterlimit:4;stroke-dasharray:none;stroke-opacity:1"
           d="m 83.655359,181.27231 c 8.01809,12.56167 -7.834319,53.36705 2.40543,57.46295 10.239741,4.0959 17.434311,-20.06297 24.856081,-15.76891 7.42176,4.29407 19.73209,31.75136 23.74112,68.36729"
           id="path5167"
           inkscape:connector-curvature="0"
           sodipodi:nodetypes="czzc" />
        <path
           style="fill:#e4b037;fill-opacity:1;stroke:none;stroke-width:0.26458332px;stroke-linecap:butt;stroke-linejoin:miter;stroke-opacity:1"
           d="m 83.655359,181.27231 c 5.329557,10.80172 -2.256648,34.96266 -1.164362,51.45181 2.355187,-3.99293 4.229975,-9.91384 8.543604,-12.27473 l 18.400639,1.52534 c 11.92386,7.83973 20.70982,38.87213 25.22275,69.35891 l -27.46963,-0.3864 c -1.44141,-18.06646 -1.10305,-41.22541 -8.23526,-59.62662 -5.546631,6.50744 -8.635629,7.68954 -11.297355,8.07228 l -12.662203,-0.28348 c -13.536594,-3.57681 3.267304,-40.90184 -4.153828,-60.26716 z"
           id="path5184"
           inkscape:connector-curvature="0"
           sodipodi:nodetypes="ccccccccccc" />
        <path
           style="fill:none;stroke:#000000;stroke-width:1;stroke-linecap:butt;stroke-linejoin:miter;stroke-miterlimit:4;stroke-dasharray:none;stroke-opacity:1"
           d="m 70.839714,178.84226 c 8.018085,12.56167 -7.834325,55.50521 2.405425,59.60111 10.23975,4.0959 11.77188,-20.01319 19.24342,-17.6398 7.471541,2.37339 15.768891,48.22756 14.699801,70.14367"
           id="path5167-5"
           inkscape:connector-curvature="0"
           sodipodi:nodetypes="czzc" />
        <text
           xml:space="preserve"
           style="font-style:normal;font-weight:normal;font-size:10.58333302px;line-height:1.25;font-family:sans-serif;letter-spacing:0px;word-spacing:0px;fill:#000000;fill-opacity:1;stroke:none;stroke-width:0.26458332"
           id="text5228"
           x="-90.336311"
           y="29.104166"
           transform="translate(-128.04817,17.497611)"><textPath
             xlink:href="#path5167-5-3"
             id="textPath5230"
             style="font-style:normal;font-variant:normal;font-weight:normal;font-stretch:normal;font-size:8.46666622px;font-family:'DejaVu Sans Mono';-inkscape-font-specification:'DejaVu Sans Mono'"><tspan
   style="font-style:normal;font-variant:normal;font-weight:normal;font-stretch:normal;font-size:8.46666622px;font-family:'DejaVu Sans Mono';-inkscape-font-specification:'DejaVu Sans Mono';stroke-width:0.26458332"
   id="tspan5224"
   y="149.50342"
   x="22.300737">  = getLine  &gt;&gt;=   print.toUpper</tspan></textPath></text>
        <ellipse
           transform="matrix(0.93969262,-0.34202014,0,1,0,0)"
           ry="41.961315"
           rx="44.654301"
           cx="48.920635"
           cy="194.79691"
           style="fill:#188a17;fill-opacity:1;stroke:#000000;stroke-width:1.03158987;stroke-miterlimit:4;stroke-dasharray:none;stroke-opacity:1"
           id="ellipse5142" />
        <path
           style="fill:#55beff;fill-opacity:1;stroke:#000000;stroke-width:1;stroke-linecap:butt;stroke-linejoin:miter;stroke-miterlimit:4;stroke-dasharray:none;stroke-opacity:1"
           d="m 46.580184,169.20253 c 0,0 3.584168,-16.07383 -1.037477,-16.31343 -4.620296,-0.23951 -11.822284,8.6561 -11.822284,8.6561 0,0 7.181228,-13.61669 14.521908,-13.48354 9.176684,0.16646 4.66429,15.51714 4.269441,22.97196 -0.510268,9.63391 -2.059249,24.30368 2.465125,24.30369 4.524376,-1e-5 10.240251,-4.82745 10.240251,-4.82745 0,0 -5.641599,10.32074 -13.431335,10.48722 -7.789729,0.16646 -5.111095,-24.80308 -5.111095,-24.80308 l -21.46961,24.80306 -7.668561,-0.16645 z"
           id="path5115"
           inkscape:connector-curvature="0"
           sodipodi:nodetypes="cscssscccccc" />
      </g>
      <path
         sodipodi:nodetypes="czcc"
         inkscape:connector-curvature="0"
         id="path5167-5-3"
         d="m 201.09531,164.64129 c 10.64763,20.34911 -5.34664,41.15968 3.09652,54.1149 8.44316,12.95522 26.33325,-16.78101 26.33325,-16.78101 0.35282,8.71659 15.43326,38.10492 14.27598,71.73107"
         style="display:none;fill:none;stroke:#000000;stroke-width:1;stroke-linecap:butt;stroke-linejoin:miter;stroke-miterlimit:4;stroke-dasharray:none;stroke-opacity:1" />
    </g>
    <flowRoot
       xml:space="preserve"
       id="flowRoot1086"
       style="fill:black;fill-opacity:1;stroke:none;font-family:sans-serif;font-style:normal;font-weight:normal;font-size:40px;line-height:1.25;letter-spacing:0px;word-spacing:0px"><flowRegion
         id="flowRegion1088"><rect
           id="rect1090"
           width="29.226282"
           height="44.835529"
           x="1146.4677"
           y="512.46112" /></flowRegion><flowPara
         id="flowPara1092" /></flowRoot>    <flowRoot
       xml:space="preserve"
       id="flowRoot1130"
       style="fill:black;fill-opacity:1;stroke:none;font-family:sans-serif;font-style:normal;font-weight:normal;font-size:40px;line-height:1.25;letter-spacing:0px;word-spacing:0px"><flowRegion
         id="flowRegion1132"><rect
           id="rect1134"
           width="737.41138"
           height="939.44183"
           x="-30.304577"
           y="101.37035" /></flowRegion><flowPara
         id="flowPara1136" /></flowRoot>    <text
       xml:space="preserve"
       style="font-style:normal;font-weight:normal;font-size:10.58333302px;line-height:1.25;font-family:sans-serif;letter-spacing:0px;word-spacing:0px;fill:#000000;fill-opacity:1;stroke:none;stroke-width:0.26458332"
       x="204.19391"
       y="0.86537212"
       id="text1144"><tspan
         sodipodi:role="line"
         id="tspan1142"
         x="204.19391"
         y="0.86537212"
         style="stroke-width:0.26458332" /></text>
    <image
       width="67.88842"
       height="67.88842"
       preserveAspectRatio="none"
       xlink:href="data:image/png;base64,iVBORw0KGgoAAAANSUhEUgAAAnwAAAJ8CAYAAABk7XxWAAAABGdBTUEAALGPC/xhBQAAACBjSFJN AAB6JgAAgIQAAPoAAACA6AAAdTAAAOpgAAA6mAAAF3CculE8AAAABmJLR0QA/wD/AP+gvaeTAAAA CXBIWXMAAA7pAAAO6QEOM0IcAAA9hElEQVR42u3deZyW8/7H8fe9zL4vTVNSkqKkooRkS3ZS1uJE CgflHEv9rEd0Ch27si/ZTtlFREW0WSMk7VJo9n3mnpl7/f0RTscRs9xzX/f9vV7Pf/xxzoPP1Nxz veZ7Xdf366jf0jkkAAAAGMtp9QAAAABoWwQfAACA4Qg+AAAAwxF8AAAAhiP4AAAADEfwAQAAGI7g AwAAMBzBBwAAYDiCDwAAwHAEHwAAgOEIPgAAAMMRfAAAAIYj+AAAAAxH8AEAABiO4AMAADAcwQcA AGA4gg8AAMBwBB8AAIDhCD4AAADDEXwAAACGI/gAAAAMR/ABAAAYjuADAAAwHMEHAABgOIIPAADA cAQfAACA4Qg+AAAAwxF8AAAAhiP4AAAADEfwAQAAGI7gAwAAMBzBBwAAYDiCDwAAwHAEHwAAgOEI PgAAAMMRfAAAAIYj+AAAAAxH8AEAABiO4AMAADAcwQcAAGA4gg8AAMBwBB8AAIDhCD4AAADDEXwA AACGI/gAAAAMR/ABAAAYjuADAAAwHMEHAABgOIIPAADAcAQfAACA4Qg+AAAAwxF8AAAAhiP4AAAA DEfwAQAAGI7gAwAAMBzBBwAAYDiCDwAAwHAEHwAAgOEIPgAAAMMRfAAAAIYj+AAAAAxH8AEAABiO 4AMAADAcwQcAAGA4gg8AAMBwBB8AAIDhCD4AAADDEXwAAACGI/gAAAAMR/ABAAAYjuADAAAwHMEH AABgOIIPAADAcAQfAACA4Qg+AAAAwxF8AAAAhiP4AAAADEfwAQAAGI7gAwAAMBzBBwAAYDiCDwAA wHAEHwAAgOEIPgAAAMMRfAAAAIYj+AAAAAxH8AEAABiO4AMAADAcwQcAAGA4gg8AAMBwBB8AAIDh CD4AAADDEXwAAACGI/gAAAAMR/ABAAAYjuADAAAwHMEHAABgOIIPAADAcAQfAACA4Qg+AAAAwxF8 AAAAhiP4AAAADEfwAQAAGI7gAwAAMBzBBwAAYDiCDwAAwHAEHwAAgOEIPgAAAMMRfAAAAIYj+AAA AAxH8AEAABiO4AMAADAcwQcAAGA4gg8AAMBwBB8AAIDhCD4AAADDEXwAAACGI/gAAAAMR/ABAAAY juADAAAwHMEHAABgOIIPAADAcAQfAACA4Qg+AAAAwxF8AAAAhiP4AAAADEfwAQAAGI7gAwAAMBzB BwAAYDiCDwAAwHAEHwAAgOEIPgAAAMMRfAAAAIYj+AAAAAxH8AEAABiO4AMAADAcwQcAAGA4gg8A AMBwBB8AAIDhCD4AAADDEXwAAACGI/gAAAAMR/ABAAAYjuADAAAwHMEHAABgOIIPAADAcAQfAACA 4Qg+AAAAwxF8AAAAhiP4AAAADEfwAQAAGI7gAwAAMBzBBwAAYDiCDwAAwHAEHwAAgOEIPgAAAMMR fAAAAIYj+AAAAAxH8AEAABiO4AMAADAcwQcAAGA4gg8AAMBwBB8AAIDhCD4AAADDEXwAAACGI/gA AAAMR/ABAAAYjuADAAAwHMEHAABgOIIPAADAcAQfAACA4Qg+AAAAwxF8AAAAhiP4AAAADEfwAQAA GI7gAwAAMBzBBwAAYDiCDwAAwHAEHwAAgOEIPgAAAMMRfAAAAIYj+AAAAAxH8AEAABiO4AMAADAc wQcAAGA4gg8AAMBwBB8AAIDhCD4AAADDEXwAAACGI/gAAAAMR/ABAAAYjuADAAAwHMEHAABgOIIP AADAcAQfAACA4Qg+AAAAwxF8AAAAhiP4AAAADEfwAQAAGI7gAwAAMBzBBwAAYDiCDwAAwHAEHwAA gOEIPgAAAMMRfAAAAIYj+AAAAAxH8AEAABiO4AMAADAcwQcAAGA4gg8AAMBwBB8AAIDhCD4AAADD EXwAAACGI/gAAAAMR/ABAAAYjuADAAAwHMEHAABgOIIPAADAcAQfAACA4Qg+AAAAwxF8AAAAhiP4 AAAADEfwAQAAGI7gAwAAMBzBBwAAYDiCDwAAwHAEHwAAgOEIPgAAAMMRfAAAAIYj+AAAAAxH8AEA ABiO4AMAADAcwQcAAGA4gg8AAMBwBB8AAIDhCD4AAADDEXwAAACGI/gAAAAMR/ABAAAYjuADAAAw HMEHAABgOIIPAADAcAQfAACA4Qg+AAAAwxF8AAAAhiP4AAAADEfwAQAAGI7gAwAAMBzBBwAAYDiC DwAAwHAEHwAAgOEIPgAAAMMRfAAAAIYj+AAAAAxH8AEAABiO4AMAADAcwQcAAGA4gg8AAMBwBB8A AIDhCD4AAADDEXwAAACGI/gAAAAMR/ABAAAYjuADAAAwHMEHAABgOIIPAADAcAQfAACA4Qg+AAAA wxF8AAAAhiP4AAAADEfwAQAAGI7gAwAAMBzBBwAAYDiCDwAAwHAEHwAAgOEIPgAAAMMRfAAAAIYj +AAAAAxH8AEAABiO4AMAADAcwQcAAGA4gg8AAMBwBB8AAIDhCD4AAADDEXwAAACGI/gAAAAMR/AB AAAYjuADAAAwnNvqAQAAMFl1bVBV1UFV1YRUXRNUZXVQDQ0hBQI7/rffcjqljLT/rMdkZjgVH+dQ VqZT2RlOZWU6lZjgsPrLQowh+AAAaIUfCwLatMWnjVv82vS9TwVFAW0vDKiwOKDtRQHVN4TC/t9M TnIoO9Op7EyXOnVwqXMnt7p0cqlLJ7c67+ZWl05u5WZzEw//4ajf0jn834kAABimzhPSN+u8+upb n75a49WXa7xat8knT310XkYz0pzar2ec+vSMV++ecerbK169esSxOmhTBB8AAL+jtDyoj1Y2atmn Dfrws0Z9tcYrf8DqqVrH7ZJ6dIvT4IEJOvzgRB12UILycl1Wj4UIIPgARNzoy0v18pseq8eImE0f 7abd8rmoRju/X/pkVaMWfFCvBR80aPVar0I2uEL27B6nww9O0BGHJOqYI5KUmswKoIl4hg8AYFuN 3pAWLW3QK2959PbielVVB1v/L40xazf6tHajT488W6vEBIeOOTxRpx6frJOGJikznecATUHwAQBs JRiU3v+wQc/PrdO8RfaMvF1paAxp3qJ6zVtUr/g4h44clKDTT0rR6SclK4WVv5hG8AEAbKGgKKDZ r9XpiTm12rLNb/U4Uc/rC2nhkgYtXNKgSVMqdOYpybp4dKr69Iy3ejS0AMEHADDa8k8bdf/j1Zq/ uF6BGH/pwirVtUE9MadWT8yp1aABCbro3FSddlKy4uNY9YsV3JwHABgnEJBemufRocMKdczZRZq3 iNgLlw9XNuqCK8vU+8gCPfJsrRq9NnizxQAEHwDAGMGg9Op8jw44tkDn/a1UX6z2Wj2SsX7Y7tcV N5Wrx6HbddfD1W2ywTTCh+ADAMS8UGhH6A04vkDnji/Vhu98Vo9kG8WlAd04vVL7Hrldjz5Xy0pq lCL4AAAxbdVqr445u0jnji/V2o2EnlUKigL6+z/KNeiUQn24stHqcfAbBB8AICYVlQR00cQyDR5e qBWfERjR4uu1Xg09q0jjripTYTHLfdGC4AMAxJRQSJr1Qq36HVOg516pU5Bt9KJOKCTNfq1OfY8u 0MxZNfwdRQGCDwAQMzZ979fx5xTrsmvLVVlFRUS76tqgJk2p0Emji/VTIat9ViL4AAAx4d+v1ung kwq09OMGq0dBM33wYYP6H1ug5+fWWT2KbRF8AICoVlkd1OjLS3Xh1WWq87D1R6yqqgnqgivLdO74 UlZnLUDwAQCi1idfNKr/cQV6+U2P1aMgTF6d79Fhwwu1bhNvVEcSwQcAiEpPzKnVsSOLtZ1nv4yz 6Xu/Dh9epDffrbd6FNsg+AAAUcXrC+mya8s14fpyeX3cwjVVTV1QIy8p0X2PVVs9ii0QfACAqFFd G9SIC0o064Vaq0dBBAQC0rW3VuriSWWcydvGCD4AQFQoLA7o2JHFWryCt3Dt5tmX6zTs/BLV8lJO myH4AACW+26rX0ecVqSv1nitHgUWWfpxg4aPKVZ1LW/wtgWCDwBgqY1b/Dp2ZJG2/eS3ehRYbMVn jTr+nGKVVxB94UbwAQAss3ajT8ecXcQpDPjVqtVenXBusUrK+J4IJ4IPAGCJLdv8OvEvxSoq4cKO //b1Wq+OG8VKXzgRfACAiCspC+jUMcUqLCb28PvWbvRp2JhiXuQIE4IPABBRVTVBnTy6RBu38Mwe /tjnX3t13uWl8vOt0moEHwAgYgIB6YIryvT1Wt7GRdO8vbheF00qU4iFvlYh+AAAEXPtrRV6ezHH aaF5np9bp5vuqLR6jJhG8AEAIuLpF2s188kaq8dAjLrzoWo9xQksLUbwAQDa3JoNPl05ucLqMRDj rripQp9/zeMALUHwAQDaVJ0npL+ML1V9Aw9hoXUavSGNvKREpeVs19JcBB8AoE39/R/lWrfJZ/UY MMSPBQGd97dSBdjRp1kIPgBAm3nz3Xr9+9U6q8eAYd5f0aDJd1ZaPUZMIfgAAG2ivCKo8deVWz0G DHX3I9V6813e+G4qgg8A0CauvLlcxaXcd0PbCIWkS/6vjO+xJiL4AABht2hpg158w2P1GDBcWUVQ E65nFbkpCD4AQFh5fSFNmsIWLIiMeYvq9cxLPCf6Zwg+AEBYPTCrRus381YuImfSlApt+4kDd/8I wQcACJvS8qBun1Ft9RiwmeraoC6aWK4g2/PtEsEHAAibOx6qUnUtV11E3tKPG/T4bI5e2xWCDwAQ FgVFAT32HBdcWGfynZUqKeOt3d9D8AEAwuK2GVUcnwZLVVYFdcPtlVaPEZUIPgBAqxWXBvTsy7wp Ces990qdln3SaPUYUYfgAwC02sxZNWpoZHUP1guFpCtvKpfPz/fjzgg+AECr1HlCemIOz+4heqzZ 4NMjz/A9uTOCDwDQKs+9UqfyCt7MRXT5YrXX6hGiitvqAQAAsW3WC6ykIHrk5bp063WZOve0FKtH iSoEHwCgxT7/2quv1rCSguhw2onJun9qtnKyuIH5WwQfAKDFnuTZPUSBPbu4NXNato46NNHqUaIW wQcAaBGvL6RX5nusHiMmZaQ51amDS7k5LsW5pfS0HStSPn9IdXUh1TeGVFoWUGFxUDV1PB+5K26X NGFsuv5xZYaSkxxWjxPVCD4AQIu8u6xBVdXEyJ/ZvaNbhx2UoAH94nVg3wTttYdbmRlNv+VYXRvU xu/82vCdT1+u8eqTL7xatdorr8/e24706RWvh2/P1v77xVs9Skwg+AAALfLqW6zu7UqXTm6dMyJF w45NUr/erQuS9FSn+veJV/8+8Ro1fMeLCPUNIb3/YYPeWlSveYvqbXWcWGKCQzf8PUNXXJQuNxXT ZPxRAQCazesL6c1F9VaPEXWOHJSoCWPTdPyRSXK52u6/k5To0IlDknTikCTd+8+Q5r9bryfm1Ord ZQ0KGbzwd9hBCXrw9hzttQf50lz8iQEAmu2jlY2qquF27i/23y9eU6/J1BALXhqIczt06vHJOvX4 ZK1e59Ot91fp9Xc8RoVfRrpT067N1NiRqXLwqF6L8N4yAKDZFi1tsHqEqJCU6NC/bszS8rn5lsTe b+23T5zmPJirD9/I14H9zHi2bdhxyVq1sIPGjSL2WoPgAwA026IlBF+vHnH6+K18XT4uTc4ou5r2 6x2vD17J14xp2UpLibLhmig/z6U5D+bqhYdz1aF9G94ft4nY/C4AAFimpCyg1evsvdnycUcm6f1X 2qvHnnFWj7JLTqd04Tmp+uitfPXvEzurfQ6HdMHZqVq1qIOGn5Bs9TjGIPgAAM3y8edeo54Pa67T T0rWy4+1U3pqbFxCu3Vx6/1X2uviv6RaPUqTZn3733l68PZsZabHxp9vrOBPEwDQLB9/0Wj1CJYZ dlyyZt2bE3PbgcS5Hbrvn9m646asNn17uKXcLumqv6brs3c66IhDrH8W0kQx9i0LALDaJzYNvj69 4vXUvTmKc8fumwMTLkjTbvkunf+3Mvn80bFM26/3jg2U++4bO7edYxErfACAJgsGpVXf2O/5vYx0 p55/KFdJibEbe78YcUKyZj+Uq4R4a7+WpESHpl2bqWWv5RN7EUDwAQCa7Lttfnnqo2NlKJJuuz5T XTubc1Ps5KFJenZGrmW3d484JFGfvdNBV/2V0zIiheADADTZt+vtt7o3eGCCxpwV/S88NNcpxybp 3inZEf1vZmY49dDt2Xr733nq1oXSiySCDwDQZGs2+KweIeKmXZtp7Ia/F56TqmsmpEfkvzX8hB0b KI85mw2UrUDwAQCabP1mv9UjRNTRgxM1cP8Eq8doUzddmakThyS12b+/Q3uXXnykneY8mKv8vCh8 RdgmCD4AQJNt+8lewXf5uDSrR2hzTqf0xD052muP8N5idTikcaN2bKB8yrFtF5RoGoIPANBk2360 T/Dl57l09GB7hEpmulP/fjB8b+527+rWgjntNfPWbGWkkRrRgL8FAECTeH0hFRQHrB4jYs44KdlW b5D26RmvKZMyW/XviHM7NOmydH36dgcddpDZt8JjDcEHAGiSwuKAgkGrp4icowbb78SHy8el6egW ft0H7Bev5W+015RJmUpM4K2MaEPwAQCapKzcPrXnckmDBthvhcrhkB6anq20lKbnQVKiQ1OvydTS 1/LVpycbKEcrgg8A0CTlVfYJvm5d4pSZbs9L5O4d3Zo8MaNJ/9/BAxP0yfwOuvqS9Kg8oxf/Yc/v ZgBAs1VU2if4une10cN7v+PS89J00AG7XuHMynTq0TtytPD59rb/s4oVBB8AoEkqq+0TfF1tfgqE 0ynd/8+s3121O/2kZH25qINGn5HCBsoxhOADADRJo9c+Z+ja9Xbuzvr0itfYkf85Ui4/z6U5D+bq uZm5ysvl/m2s4TsaANAkPp99gi81maUrSbplYqZys506Z0SKvljQQcNPSLZ6JLSQvdesAQBN5rPR MbpxYdqAONZlZTr15bsdlZPF+lCs428QANAkPr99VvgaGuzztf4ZYs8M/C0CAJrEaaMrhqee4INZ bPTxBQC0RnycfW5z1tTZ541k2APBBwBoErfLPsH3w0/2OTMY9kDwAQCaxGWj1/y2/OC3egQgrAg+ AECTJCfZZ4Vvy1a/QjzGB4MQfACAJklPtc8lo6omqLUbbbQPDYxnn08vAKBV0tPsdcn4cGWj1SMA YWOvTy8AoMXSU+1zS1eSFi9vsHoEIGwIPgBAk2Rm2OuS8c779aqqYXsWmMFen14AQIu1b+eyeoSI qm8I6bX5HqvHAMKC4AMANElmutNWb+pK0ownaxRkkQ8GIPgAAE2Wl2uvVb5vN/g0byGrfIh9BB8A oMk6tLdX8EnSlHuq5POzKR9iG8EHAGiyrrvb6LiNn327wac7H6q2egygVQg+AECTddvDfsEnSdNn Vuub9WzEjNhF8AEAmmzPzvYMvkZvSGdeVKKyCt7gQGwi+AAATdZ9zzirR7DM9z/4NfryUvn9Vk8C NB/BBwBosp7d4+Sy33sbv3p/RYNG/62UlzgQcwg+AECTJSc5bHtb9xdz3/bovL+VEX2IKQQfAKBZ +vSKt3oEy81926PhY0pUWcUzfYgNBB8AoFn6EnySpMUrGnTEaUXa9D0P9SH6EXwAgGY56ACC7xcb vvPp0FMK9fzcOqtHAf4QwQcAaJYBfRMUH2evM3X/SHVtUBdcWaa//l+Zaj0814foRPABAJolOcmh fr1Z5futZ16qU9+jt+uNBZy9i+hD8AEAmm3wwASrR4hK2wsDOvuSUp3/91IVlwasHgf4FcEHAGi2 oYclWj1CVHvxDY96HbFdU++tUkMjt3lhPYIPANBshw5MUGoyz/H9kTpPSNPuq9IBxxbotbc9CtF9 sBDBBwBotvg4h44cxCpfU2zZ5tc5l5XqwOML9Op8wg/WIPgAAC1y0tAkq0eIKWs2+HTu+FINPIHw Q+QRfACAFhl+fDLbs7TAN+sJP0QewQcAaJHMDKeOHMTbui31S/gdemqh3ljgUZBT2tCGCD4AQIud cXKK1SPEvFWrvTr7klL1GbJdDz9Tozo2b0YbIPgAAC024sRkpaVwKQmHzVv9unJyhfY86CdNvKVC PxWyjx/Ch08pAKDFUpMdOv3kZKvHMEp1bVAPPFWjXodv17iryvTNep/VI8EABB8AoFXGnMVt3bbg 9YU0+7U6DTyhQKecV6yFSxp4wQMtRvABAFrloAMS1L8PZ+u2lVBIendZg04dU6z9jtquux6uVmUV b3igeQg+AECrjb8gzeoRbGHzVr9unF6pHodu14Try7V2I7d70TQEHwCg1c44OVmdOrisHsM2auqC emJOrfofV6CT/lKsV+d7FOAdD/wBgg8A0GpxbocmsMoXcaGQtHhFg84dX6oDji3QQ8/UqKaO2734 XwQfACAsLh6dpg7tWeWzyobvfLpqcoW6HcTtXvwvgg8AEBZJiQ5deVG61WPY3i+3ewccX6ARY0u0 aClv94LgAwCE0YXnpqpjPqt80SAYlN55v17Dzi/WAccW6PHZtfLUU352RfABAMImKdGhKZMyrR4D v7Fuk0+X31D+6ykePxbwhofdEHwAgLA6Z0SKBvRlX75oVFWz4xSPfY/YrnPHl+rTVY1Wj4QIIfgA AGHlcEj/ujFLDofVk2BXvL6QXp3v0RGnFenYkUWat6heQV7uNRrBBwAIu0MGJGjMWalWj4EmWPZJ o866uER9j96up16oldfHc34mIvgAAG3ithsy2aYlhmz63q9Lry1X90HbNfXeKlXVsORnEoIPANAm MtKcuvOmLKvHQDMVlwY07b4q7XvEdt02o4pzew1B8AEA2sxpJyZr5PAUq8dAC5RVBDXl7ip1H7Tj zd7thbzZG8sIPgBAm7rnlizt3tFt9RhooVpPaMebvUdu19U3V6iwmPCLRQQfAKBNZaY79eQ9OXLz OF9Ma2gM6cGnd4Tf9bdVqqyCW72xhOADALS5wQMTdAsbMhvBUx/SPY9Wa+/BP+nG6ZWqrCb8YgHB BwCIiCsvTtfwE5KtHgNhUucJ6a6Hq9Vj0HbdOL1S1bWEXzQj+AAAEeFwSA9Pz1bP7nFWj4IwqqkL 6q6Hq9X7yAI9+HSNfH728YtGBB8AIGIy0px67cl2apfDA32mKSkL6OqbK9T/2AK9Ot9j9Tj4DYIP ABBRXTq59eIjuUpM4Ow1E23c4te540t16phirdvks3oc/IzgAwBE3MH9E/TCI+2UEE/0mWrhkgYd eHyBJlxfrpIytnKxGsEHALDEsUck6sl7cuTi7q6x/AHpiTm16ju0QDNn1cjvt3oi+yL4AACWOe3E ZD16R46cXI2MVlEZ1KQpFRp0SoE+/9pr9Ti2xEcMAGCpc0ak6KHbiT47WL3OpyNPK9TEWypU6+Ft 3kji4wUAsNx5Z6bozslZVo+BCPAHpAeeqtGBxxfo3WUNVo9jGwQfACAqXHpemmZMy+aZPpv4/ge/ hp1frIsmlqmcY9raHMEHAIgaF56TqhcfbaeUZN7etYNQSHrulTr1O6ZAb75bb/U4RiP4AABR5cQh SVowpz2bM9tISVlAZ15UonFXlclTz7N9bYHgAwBEnf594rX0tfbqsSfHsNnJ7NfqNPjUQn2zng2b w43gAwBEpT12d+u9l9pr4P4JVo+CCFq70acjRhRq1gu1Vo9iFIIPABC1crOdWvh8nsaPSbN6FESQ pz6ky64t18hLS1VRyQsd4UDwAQCiWkK8Q3dOztKT9+TwMofNvP6OR4OHF3ImbxgQfACAmDBqeIpW vJGvfXvwXJ+dfLfVr8OHF2n+Yt7ibQ2CDwAQM/buFqcPXsvXWcOSrR4FEVRTF9RZF5foroerrR4l ZhF8AICYkprs0NP35er+qdlK5RavbQQC0o3TK3Xl5Ar5/VZPE3sIPgBATLro3FStXNBBRw5KtHoU RNDDz9Ro+AXFqqzmZY7mIPgAADGrSye35j+Xp7tuzuKFDht5b3mDjjmrSEUlAatHiRkEHwAgpjkc 0mXnp2nlOx10xCGs9tnFN+t9OvL0Im3Zxv3dpiD4AABG2GP3Hat9d9yUxbN9NvH9D34dO7JIm74n +v4MwQcAMIbTKU24IE2r3++oc0akyEH3Ge/HgoCOH1Wk77YSfX+E4AMAGCc/z6Un7s7Rwufba799 2LfPdD8VBnTcqCJt/ZHo2xWCDwBgrMEDE/ThvA66+5YsZWZwyTPZjwUBnfSXYhWX8iLH7+G7HwBg NLdbuvS8NK1e3FEXnJ0ql8vqidBWNm/1a8TYEtV6QlaPEnUIPgCALeRmO/Xg7dn6fEEHnXZiMs/3 GeqL1V6ddXGJvD6ib2cEHwDAVvbuFqd/P5CrJa/ms42Lod5f0aBJUyqsHiOqEHwAAFs6sF+83pmd p7eey9P++8VbPQ7C7NHnavX47Fqrx4gaBB8AwNaGHJqoFa/n69kZuerVgzd6TXL1zRX6aGWj1WNE BYIPAGB7Dod0xsnJWvlOB738eDsN6MuKnwm8vpBGXlrKm7si+AAA+JXDIZ10dJKWzc3Xey+111GH 8oxfrCsuDejiSeUK2fwdDoIPAIDfMWhAguY/l6eFz7fX0YMJv1i24IN6PTCrxuoxLEXwAQDwBw47 KEFvPpunFW/k6+xTUxTnZj+XWPSPf1Vq3Saf1WNYhuADAKAJDtgvXk/dm6ONH3bUDX/PUHYWl9BY 0tAY0sWTyhSw6eN8fLcCANAM7du5dOMVGdqwfDfdc0uW9trDbfVIaKLPvvTa9tYuwQcAQAukJDt0 yXlp+uq9jnrpsXZs4hwjptxTqR8L7LfMR/ABANAKTqd08tAkvTM7T1+910Hjx6QpJZnn/KJVnSek 62+z3ykcBB8AAGHSY8843Tk5S5s/3k133JSlLp243RuNXprn0dKPG6weI6IIPgAAwiwjzakJF6Rp zQcd9fxDuTr8YG73RptrplXaam8+gg8AgDbickmnHp+sBXO43RttvvzGq9ff8Vg9RsQQfAAARAC3 e6PP5Dur5PdbPUVkEHwAAEQQt3ujx4bvfHr5zTqrx4gIgg8AAAvsfLv3k/n5Gn1GihLiud0bafc8 WmOLZ/kIPgAALNanZ7wevWPHKR5Tr8lUh/Yuq0eyja/XevXecvPf2CX4AACIEu1yXLr6knR9u6Sj HrgtW716xFk9ki3c+2i11SO0OYIPAIAok5jg0NiRqfp8QQe991J7nTgkSQ7u9raZxSsatHGL2W9v EHwAAESxQQMS9MoT7fT5gg4afUaK4tyUX7iFQtKs52utHqNNEXwAAMSAnt3jfn3O7+pL0tnPL8ye ealWjV5z394g+AAAiCHt27k09ZpMrV++m667PEOZGVzKw6GsIqgF79dbPUab4bsEAIAYlJPl1E1X ZWjjhzs2ct4tnzd7W+ulN809eYPgAwAghqUmO3Zs5Lyko2ZMy1anDoRfS729uF6eejNv6xJ8AAAY ICHeoQvPSdXq9zvqjpuylJdL+DVXnSekdwy9rUvwAQBgkMSEHSt+3y7pqJuvzlQqL3c0y1vvEnwA ACBGpCQ7dM2EdK1bvpvGj0mTiwW/Jlm4pF7BoNVThB/BBwCAwXKynLpzcpaWz83Xgf3irR4n6pWW B7XqG6/VY4QdwQcAgA306x2vD17J152Ts7jN+ycWLTXvti7BBwCATTid0vgxafpiUQcNPSzR6nGi 1opPG60eIewIPgAAbGb3jm698XSe7rgpS/FxrPb91sefN8pv2NG6BB8AADbkcEgTLkjT4pfbq0sn t9XjRJVaT0jfrDPrOT6CDwAAG+vfJ17L5rbXQQckWD1KVPn4C7Nu6xJ8AADYXLscl96ZnaczTk62 epSo8fW3PqtHCCuCDwAAKDHBoWfuz9XYkalWjxIVvvqWW7oAAMBADod0/9RsjRyeYvUolluz3mfU ixsEHwAA+JXLJT12R46OOdze27Y0ekPa9L05t3UJPgAA8F/cbumZ+3PVtbO93979bps5S3wEHwAA +B+ZGU7NfiBXiQn23afvu+8JPgAAYLh+veN19SXpVo9hme+2EnwAAMAGJl6arj272PPWLrd0AQCA LSQmOHT7DVlWj2GJ7YUEHwAAsImThyZpn73irB4j4gqKA1aPEDYEHwAA+EMOhzT+gjSrx4i4soqg fP6Q1WOEBcEHAAD+1DkjUpSeaq9sCIWk4tKg1WOEhb3+5gAAQIskJzl09GH224y5vJLgA4AWCZjz WAxgKycMSbJ6hIirqSX4AKBFvF4znolpKqd9960Nm6AZ19yYd9yR9lvhq6o245uP4AMQcY02C774 eIqvpX4qDGjcVWUaf3251aNAUl6uS/l5LqvHiKjaOjN+XtlzJ0UAlrJb8Ln5SdtsnvqQ7nyoWvc+ Vq36hpAcDmnU8GQdfrD9VpiiTc/ucSo0aLuSP1PrYYUPAFqkodFewRfnZoWvOd56r177H1Og22ZU qb5hx/dKKCSNv67cdt870ainzfbj8/msniA8CD4AEdfYaPUEkcUKX9OsWu3VkDOLdMaFJdr20/+e cLDpe79un1ll9Zi2t/tu9rql6/WZ8UsGwQcg4kor7HM7SGKF78+UVwQ18ZYKHTaiUB+t/OPfBu56 qFqffem1emRbS0m2VzoE2HgZwK5s3urX6eNK9PVaLky/FQpJJYZsZNoUKckOOei93+X1hXTvY9Xq efh2PfBUTZO26/EHpIsmlv16qxeRl55qr29onyHH6RJ8QBjVN4Q09d4qDTiuQPMX1+v//llp9UhR p7LKnKOKmiI9jR+zv2f+4nr1P7ZA191aqepm7nO2frNP/5heafWXYFspKfb6nnYa8uUa8mUA1nvr vXodcGyBpt1X9euD5Us+atAbCzxWjxZVikrtdTs3g+D7L+s3+3TqmGKdPq5Em75v+dLJg0/X6L3l DVZ/ObbUaLMXZ+LjzFjR5CcR0Epbtu24fXvGhSX6/of/vYBde2ul7bYh+SN22s5BktJsdvtrVyqr g7pxeqUGnlCohUtaH2qhkHTBFWUqKLLX91M0qDRkI+KmMmUfTYIPaCGfP6SZs2o08IQdt293Zcs2 v2Y+WWP1uFFj/WZDHohpIruv8AUC0uOza7XfUdt118PVYX3jsaQsoDFXlHFUX4SZctRYU8UbsguN vX8SAS20cEmDDjimQJOmVKjW8+cXsOkzq1VUwlVJktZvMmRTqybKzLDvj9llnzRq0LBCXX5DuUrL 2yYSln7coGn3sVVLJG3ZZq9f2hISWOEDbOfHgoBGXVaqU8cUN+v5o5q6oK6/rdLq8aPCus32Cj67 HUMl/ec4tONGFenrb9v+TfXpD1Rp3qL61v+L0CRfr7XXZzgj3YxUMuOrANqYzx/SXQ9Xq9/Q7Zr7 dstewpgzt07vr+Ah87Ub7XWx6GCj4PPUhzTl7irtd9R2zX6tTqEIPboaDErjrizTN+vt9b1lhVBI +tZmf87ZhqzSm/FVAG1o2SeNOvikQt04vVJ1Tbh9uyuhkPS3G+19NNTWH/22e2mjQ3t7BN/vHYcW STV1QZ0+rkQlZfb6/oq0L1Z7m72NTqzLyTbjM0zwAbtQVPKf21LfbgjPb7Sbvvfrjgerrf7SLLPs E5udqSYpv50ZF4td+bPj0CJp209+jbyklE2Z29C8RfbbZio704xUMuOrAMLI75dmPlmjPkMK2uS2 1F0PV2u9zZ5j+8XyT20YfIbe0i0uDejSa8s1ePifH4cWSR+ubNToCaXy2+u9goiZt9Bez0q6XFIm z/AB5vloZaMGnVKgSf+saLPbFo3ekC6/oTxizzdFk6Uf2+sZRqdT2mN3t9VjhNUv2xH1GVKgp16o VTAK7+699V69LppUFpWzxbIVnzWG7W5HrNgt3y2XIb+zEXyApIrKHYe3Dz27SKvXtf0PtGWfNOqh Z+y1N9+q1V7bbefQsb1LSYlmbOkg7TgO7ZftiKpqorumnp9bp2umVtjyF6u2cv8T9vqZJUldOhlS eyL4YHPBoPTvV+u035Adh7dHckXghtsqtcZGvy3Peb3O6hEirtseZuzYun6zT8POb/1xaJE2c1aN rrqZ6AuH9Zt9eutd+z2/17WzOSv0BB9sa+VXXg0eXqgLry5TWUXkVysaGkO6aGKZLY5dCwSkl9+0 38Vizxi/WOx8HNqipbF5O/7hZ2p02XXl3N5tpWumVtryRBOTHskg+GA7FZVBXX5DuY44rVCrVrf9 prB/ZNVqr66bVmn1H0mbm7+43pZnnnbbIzYvFm15HJoVnnqhVuOuLov5r8Mqr873aMEH9npZ4xfd upixSi8RfLCRUGjH7du+Qwv0+Ozoedj8oWdqNGeu2bc7p8+059FXvfeJvYtFJI5Ds8Lzc+t0ynkl qqg052uKhMLigK66ucLqMSwTi5/hXSH4YAtff+vVUWcU6cKry6JyY9a/3VCur9ZYu9rYVt5d1qDP vzbza/szfXrGWz1Ck0X6ODQrLP24QYOHF9p2W6Tm8vul0ZeX2vYc8IR4h3rsSfABMaGqJqirb67Q oGGF+uSL6Nkr7LdqPSGddmGJthea9YM1EJAm31Fp9RiWaJfjiolTNqw6Ds0q323166gzimx7i7I5 rplaYcu9M3/Rs0ec3LH5VMbvIvhgpFBox9m1fY8u0INP18TEw8bbCwM67cISVVabc8tpxpPV+sLi 5ySt0rdXdK8MhELSi2941GfIdsuOQ7NKRWVQI8aW6LpbK+Xz2+frbo6b76rUg0/bbxuWnfXpGd2f 4eYi+GCcbzf4dNyoIo29sizmbkV8tcarU8eUqKYu9qNv81a//nmPPZ/dk6Q+vaL3du6q1V4dfVaR zv97qX4ybFW5qUIh6d7HqnX0mUX6/ofY2WomEqbdV6XpM+17BOQvBu6fYPUIYUXwwRi1npCuu7VS B59UGNNntn66qlHDx5TE9AHlNXVBjbqkRJ56+66eHNw/+i4W5RU7Nhg/bER0HYdmpc++9Kr/cQW6 6+HqmLgT0Jb8funKyRWaeq99f1Hb2eCB0fcZbg1H/ZbO9v2JDGO89V69rrypQj9sN+c39X17xGnu U3nq1CH6nwPbWSAgnf3XEr31nn2fkXI4pG0rOyk3Ozp+p/b6QnpgVo1un1Ed079ItLX994vXg7dm q1/v6F2dbSslZQGNurRUKz7jFwFpxzO4Wz/bTQ5zDsphhQ+xbeMWv04eXawzLiwxKvYkac0Gn446 vVBfr42dZ+C8vpAunFhm69iTpL27xUVN7EnSt+t9uuH2SmLvT6xa7dVhw3dsSWOnfSPnvu1R/+MK ib2dDB6YYFTsSQQfYlR9Q0hT763SgccX6L3lsXkCQFP8WBDQESOKNHNW9D88XesJ6cyLSvS84XsK NsWhB0bXraB+veN1xsnJVo8RE/w/bzrd+6jtuuH2SqP37SssDugvE0o16rLSqNyuykpHHJJo9Qhh xy1dxJx5i+o1aUqFtv5o1orenzn1+GTdc3NWVG718dmXXl00sYz9zX42654cjRyeYvUY/+X7H/zq N7TAFkf5hVNGulMXnpOqv45O1e4dzdijo7o2qHseqdGMJ6tV5+H74bccDmn98o7G/H3/+nURfIgV W7b5NfGWCs1fbN/bhempTt14RYYuPT8tKvaHqvOEdNuMKt37GA+8/8LplLZ+Fj3P7+3s/6ZWaMYT 0b9aHI3cLmnYcckaf0GaBg2IrhXcpiotD+rJObW6/4lqS84PjxV9esXrk7fyrR4j7Ag+RD2fP6RH nq3VzXdW8tvoz7p0cmvC2DSNG5WqpMTIP2hS5wlp1gu1uuvhahUWU3o7G7h/gpa82t7qMX5XeUVQ vY7criqD9nq0Qo8943TmKck64+Rk7bNX9O/VtvIrrx59rkYvzfOooZGfoX/musszdNNVGVaPEXYE H6LawiUNumpyuTZvtdft26bKz3Pp/LNSdPawFPXs3rYXnlBI+vjzRs2ZW6eX3vSosopo+D3/uDJD 1/8tei8Wdz9SrRtur7R6DGP06RmvU49P0lGDEjWgX7zi3NHxpP+q1V69Mt+jV+d7tGUbPz+bY8Ub +TpgP/Pe1Cb4ELWm3F2l22awH1RT9ekVrxOGJOrQAxN1cP94paW07pZiMCh9t82vj1Y2aunHDVry UaNxb0K3heWv56t/n+i9WDQ0hrT/MQVsNtwGUpMdGnRggo4clKgD9ovXfvvEKzur7W/tB4PSuk0+ LfukUcs/bdCyTxpjbtP5aLF3tzh9+W4Hq8doEwQfotYHHzbohHOLrR4jJrldUo9ucerWxa2uXdzq 0smtrAynkhIcSk//zwXI5wupzhNSbV1IxaUBFZcFVFgc0PrNfm3Y7OP2TzPt3tGt9cs7Rv12DouW NmjY+Xy2IqFDe5d67x2n3vvEq1NHlzrlu9S+nUudOrqVl+ts8opgQ2NIhcUBFRQFVFwa0Oatfq3d 6NOaDT6t3+Sz9Sbn4XTLxEz93/h0q8doEwQfotqxI4ti+tQM2MtVf03XtGszrR6jScZeWaY5bKFj udRkh9xxDqUmOxT38z/dcY5fH5morA4q4Bd7KEaA0ymtW2be27m/IPgQ1T5c2aijzyyyegygST6a lx8zpzSUVQTV9+jtvK0J/OyoQxM1/7k8q8doM9G3bwCwk0EDEozcABPm2bOLO2ZiT5Jyspz61z+y rB4DiBqXnpdm9QhtiuBD1DPx9XiYZ1SUbbTcFOeMSNHQw/iFCui8m1snHp1k9RhtiuBD1Bs0IEEn DzX7g4jY5nJJ558Ve8EnSTOmZSs1OcrfMgHa2GXnp8oVfYcYhRXBh5gw/cYsJcRzUUJ0OnFIUsw+ 6L3H7m7d+89sq8cALJOW4tT5Z6daPUabI/gQE/bssuNkCSAajTsnti8W556WonNPi80VSqC1xl+Q psx083OIt3QRM2rqguozpICjvBBV9uzi1urFHeWM8etFnSekQ4cVav1mn9WjABGTkebU2qUdlZUZ 4x/gJjD/K4Qx0lKcmnpNptVjAP/lyovTYz72JCkl2aHnHsi15GxmwCoTxqbZIvYkgg8x5pwRKTpk QILVYwCSpPbtXPrL6ebcCu29d5ymXZdp9RhARORkOXX5OPs8KkTwIaY4HNIj/8phFQJR4fKxaUpM MOt78ZLRaRp+QrLVYwBt7uaJmcpIs08G2ecrhTG6d3Xr5qszrR4DNpeV6dSF58b2yxq/x+GQnrw7 RwP6xs4m0kBz9ekVrwts8Gbuzgg+xKQJY9N06IHc2oV1rrks3djVgaREh156tJ06dTB8YzLY1p03 ZRm/795vmfnTCsZzOqWHpnNrF9bomO/SxaPNfvYnP8+lVx5vx6bMMM75Z6XqsIPst2BA8CFmde/q 1i0TM60eAzY0+apMW/yy0adXvJ6dmWu7lRCYq0N7l26/PtPqMSxB8CGmTRibxrFriKh+veNttUnx 8UclaRrbIcEQ9/0zW5kZ9kwfe37VMIbDIT12V466do7NY60QW5xO6b4p9nv25+8Xpdtq+wqY6fyz UnXKMfZdICD4EPMy0516/mE2jEXbGzcqVQP3t9+zP5I0/YYsXXIe0YfY1L2rW3fclGn1GJYi+GCE Pj3jdfsNWVaPAYPl5bo0ZVKm1WNYxuGQ7r45Sxf/xV5bWSD2JSbsOEUmLcXeyWPvrx5GufgvqTpn hH2erUJkPXCbfZ/9+YXDId1zS7ZGn8HnDLHj/qnZ6tOTfSXt/dMLxnloeraOOjTR6jFgmLEjU3k5 6GdOp/Tw9ByNGk70IfpNuCCNX1B+5qjf0jlk9RBAOFXVBDX0zCJ9s95n9SgwQNfObn0yP9/2t4N+ KxCQxl1dphder7N6FOB3nTAkSS892s52L1ntCj/BYJyMNKdefryd2rfjU47WSYh36NkZPPvze1wu adY9Obrh7xlWjwL8j1494jTr3hxibyf8FIORunRya+6TnBKA1rlnSpb69+HZn11xOKQbr8jQnZOz 5ORqgijRtbNb857OM/bow5biTwPG6tc7Xv9+sJ0S4ok+NN+Ys1Ntd7h6S40fk6bnH2rH1kiwXMd8 l956Nk8d81na+y2e4YPxFnxQr5GXlKqhkW91NM1BByTondl5SkwgYJrj01WNOm1cicoqglaPAhvK zXZq4fPt1bN7nNWjRCVW+GC8445M0kuPsfqApunWxa2XHs0l9lpg4P4JevfF9tqzCyffILLat3Pp 7dnE3h8h+GALQw9L1IuPEn34Y7nZTr3+dJ7a5XA7qKX22StOH72Zr9NOTLZ6FNhE593cevfF9uq9 N7H3Rwg+2MbQwxJZ6cMuZaQ7Ne/pPHVjdarV0lOdem5mrm6/PlNu2hltqMeecXrvpfbaaw8+t3+G 4IOtHD04UQvmtFdeLlch/EdGmlNvPpOnfr15IzdcHA7p7xel64NX89V5Ny7GCL9DBiTovZfaq1MH fp43BcEH2zmwX7w+nJevPr24uOPn2Hs2TwP68v3QFvr32fF5G3oYJ+AgfM4alqz5z+UpN5uMaSr+ pGBLu+W7tPD5PA3hGDZba5fj0tv/JvbaWk6WU3Nn5WnKpEy2SUKruFzS1Gsy9fR9vFjVXGzLAlvz +6WJU8r1yLO1Vo+CCOva2a03ns7j2Z8I27zVr0uvKdOyTxqtHgUxJjfbqVn35rJa3EIEHyDp0edq dc3UCvbqs4mB+yfolcfbcTvIIsGgNOuFWl07tUK1Hj5z+HOHH5yop+/LUX4ez+u1FMEH/GztRp/O u7xU36z3WT0K2tDI4Sl64NZsJSdxO8hq323169Jry7X04warR0GUSoh36Ia/Z+iqv6ZzLm4rEXzA TuobQvrH9Eo98FSN1aMgzNwu6eaJmbr6knSrR8FOQiHp8dm1uvmuSpVzQgd20nffeD1+Vw7764UJ wQf8jpfmeTTh+nJV13IBMkHn3dx6+r4cHdw/wepRsAuVVUFNf6BaDz1do0YvlyU7S4h3aOKl6bpm Qrri3KzEhwvBB+xCQVFAN06v1OzX6qweBa1w2onJeuDWbGVm8LxeLPixIKDJd1Rqztw6hbg62c4R hyTqnluyOCKtDRB8wJ+Yt6heV00u148FAatHQTPkZDk1Y1q2RpzAEV+x6LMvvbpmWoU+WsnbvHaw W75L//pHFkfytSGCD2gCT31Idz9SrTserJbXx0cmmjkc0qjhKZp+YxZv4Rrg9Xc8mnpvFS9TGSoj 3amJl6TrsjFpvEjVxgg+oBm+/tariVMq2EMsSu2zV5zun5qtww7iWT2ThELS/MX1uu3+Kn3+tdfq cRAG8XEOjT4jRZOvzlC7HF6/jQSCD2iBD1c2avIdlVr+KeEXDbKznLrq4nRNGJvGSQ4GC4WkhUvq df/jNXr/wwae8YtBKckOjR2VqisuTFfHfEIvkgg+oBXefLdeU+6q1Op13G6yQmqyQ3+7MF1XXJym tBRu39rJN+t9mvlkjV54vY4N02NARrpTl56Xpglj05STxWfVCgQf0ErBoPTqfI9un1GlNRsIv0jg 4oFfVFYH9cpbHj38dA3P+UWh7l3dunh0msacnarUZFbfrUTwAWG05KMGPfRMrd5a5JGfl3rDLj/P pcvOT9Nfz0tVeiqhh/8IhaTlnzbqqRdq9cYCD0e2WSgh3qETj07SX0en6ohDOPc2WhB8QBsoLA7o 8dm1euTZGpWWs3lza+2/X7zGj0nTWcOS2YgVf8pTH9K8hR7NmevRe8vq+eUrQgb0jde5p6Xo7GEp ysrkF7JoQ/ABbajRG9Irb3n0/Nw6vb+igQtPM3Ro79JZw1J03hkp6tWDTVjRMuUVQb35br3eWODR e8sbeN4vzHrvHafhJyTr9JOStc9efE6jGcEHREh5RVCvL/To1bc8+uBD4u/3ZKQ7dfLQJI0akaIj D0nksHSEVa0npEVL6rVwSYMWLqnX9kI+hM3ldEoH7BevU45J1vATktRjTyIvVhB8gAV2jr8VnzWq vsG+H8M9dnfrpKOTdNLQJA0+KIFbtoiY1et8em9ZvZZ+3KgPP2tUVQ2PX/yeDu1dGnpYoo45PElH D05UNi9KxSSCD7CY3y+tXuvV4hUNWry8QR99bnYA5mQ5ddD+CRp0YIKGHJqofr3j5aDxYLFAYMfn cPmnjfpkVaNWfuXV9z/4rR7LEt27unXIgAQdemCiBh2YoL32cFs9EsKA4AOiTENjSJ996dXSjxv0 6apGfbvBF7Pn+Ma5Hdp3nzgd2DdeA/omqH/fePXcK05OFggQA0rLg1r5VaNWfePVN+t8+madT5u3 +hSIzY/j/3A4pK6d3eq3b7z27x2vvj//kyMJzUTwATGgsjqobzf4tGa9T9+s82rNep/WbPCpsio6 bkElJjjUpZNb3bu61bNHnPbtEaee3eO0915xnHwBozQ0hrR2g08bt/i1eatPm7b4tel7v7Zs86uk LDpLMCPdqc4dXerWNU499nSr515x2rtbnLp3i2NvPBsh+IAYVlkdVEFRQAXFgR3/LAqosDign37+ Z3FpQMHgjv+fpGYFYlqKUykpDqUmO5SR7lS7HJdys51q386l/HYu5eW61KWTS106uZWfx9sVQENj SNsLd3wef/jJr6KSgErKgyqrCKqsPKCyiqAqqoKqbwipsjqo+vqQGr3NvwSnpTiVnOxQys+fzax0 p9rlutQu26mcbKfycl3Kz9vx2dy9o4s9KyGJ4ANs6Zfwq/j5n0mJDiUm7PhN3+GUMtK4QACREAxK 1Tu9LFJXH5J3pwhMSXYoPo7PJlqP4AMAADAcvyoAAAAYjuADAAAwHMEHAABgOIIPAADAcAQfAACA 4Qg+AAAAwxF8AAAAhiP4AAAADEfwAQAAGI7gAwAAMBzBBwAAYDiCDwAAwHAEHwAAgOEIPgAAAMMR fAAAAIYj+AAAAAxH8AEAABiO4AMAADAcwQcAAGA4gg8AAMBwBB8AAIDhCD4AAADDEXwAAACGI/gA AAAMR/ABAAAYjuADAAAwHMEHAABgOIIPAADAcAQfAACA4Qg+AAAAwxF8AAAAhiP4AAAADEfwAQAA GI7gAwAAMBzBBwAAYDiCDwAAwHAEHwAAgOEIPgAAAMMRfAAAAIYj+AAAAAxH8AEAABiO4AMAADAc wQcAAGA4gg8AAMBwBB8AAIDhCD4AAADDEXwAAACGI/gAAAAM9/9TjHybzLivtAAAACV0RVh0ZGF0 ZTpjcmVhdGUAMjAxOC0wMi0yNVQxMDozMDo0MiswMTowMLZvzS4AAAAldEVYdGRhdGU6bW9kaWZ5 ADIwMTgtMDItMjVUMTA6MzA6NDIrMDE6MDDHMnWSAAAAGXRFWHRTb2Z0d2FyZQB3d3cuaW5rc2Nh cGUub3Jnm+48GgAAAABJRU5ErkJggg== "
       id="image5503"
       x="202.73167"
       y="205.21439" />
    <image
       width="96.210869"
       height="67.897949"
       preserveAspectRatio="none"
       xlink:href="data:image/png;base64,iVBORw0KGgoAAAANSUhEUgAABasAAAQACAYAAADvKwVlAAAABHNCSVQICAgIfAhkiAAAAAlwSFlz AAAhVwAAIVcBXlH7hwAAABl0RVh0U29mdHdhcmUAd3d3Lmlua3NjYXBlLm9yZ5vuPBoAACAASURB VHic7N1t2Kd1fd/573nNDCMMYNvkye520xw1jZqkArqtCmY33uHRJ91oS58JA0RMm0hEQGC4u1Dx HtPIbrOZCMwMTe8QSKUphyMmtAsY7KJm22QTW21jm2RvQAXDDHN3nfsAtGRkZq6b7+//+//P7+v1 6Jp5Mt8ncx3H+Tn/1/sa3nzORf8sYjwvgIre8bmH7/hU7yOm5Py33fz6IYbPR8TQ+xZg5r689Qd/ 4NU7d77zUO9DAAAAFtHSoS2b/15E/D+9DwG6uOVNrzv/h3ofMSV77rn2t4YYf7n3HUAXZx14/JtX 9D4CAABgUS09+ODOx8cx3tn7EKCL04eVzbeHTwGnOrLtpPdGxNd63wH0MN749rfe/BO9rwAAAFhE SxERDzxyxz+PGO7qfQzQwTC+8c3nXHhx7zOm5M47r3x6jPEdETH2vgWYua1Lw7Dnkkt+ZUvvQwAA ABbN0ne/kAOB0uRAksmBQGlyIAAAAOvwvbFaDgRKkwNpQA4EKpMDAQAAWKul5/9BDgQKkwNJJwcC pcmBAAAArNHS0X8hBwKlyYEkkwOB0uRAAAAA1uD7xmo5EChNDqQBORCoTA4EAABgtb5vrI6QA4HS 5EDSyYFAaXIgAAAAq/SCY3WEHAgUJweSTA4ESpMDAQAAWIVjjtVyIFCaHEgDciBQmRwIAADAiRxz rI6QA4HS5EDSyYFAaXIgAAAAJ3DcsTpCDgSKkwNJJgcCpcmBAAAAHMcJx2o5EChNDqSB53Ig/6H3 HUAP443b/+cP/9XeVwAAAMyjE47VEd/NgcQ/a3wLMI+G8Y1vOnv7z/Q+Y0ruvPPKp4elQQ4Eato6 blrZLQcCAADw/VY1VkdEHNqy5edCDgRKGobh43IguXZ9+poH5UCgLDkQAACAF7DqsVoOBEqTA2lA DgQqkwMBAAA42qrH6gg5EChNDiSdHAiUJgcCAABwlDWN1RFyIFCZHEg+ORAoTQ4EAADgedY8VsuB QGlyIA3IgUBlciAAAADfteaxOkIOBEqTA0knBwKlyYEAAAA8Z11jdYQcCFQmB5Jv16eveTCG+Ae9 7wC6kAMBAACIDYzVciBQmhxIAyunbLkq5ECgKDkQAACAdY/VEXIgUJocSDo5EChNDgQAAChvQ2N1 hBwIVCYHkk8OBEo765nHn7iy9xEAAAC9bHislgOB0uRAGpADgbqGiBvkQAAAgKo2PFZHyIFAaXIg 6eRAoDQ5EAAAoKyUsTpCDgQqkwPJJwcCpcmBAAAAJaWN1XIgUNrpw7jpjpADSbX14MH3hhwIlCQH AgAAVJQ2VkfIgUBxb5ADybXzvuV9ciBQlhwIAABQTupYHSEHApXJgeSTA4HS5EAAAIBS0sdqORAo TQ6kATkQqGuIuFEOBAAAqCJ9rI6QA4Hi5ECSyYFAaSfJgQAAAFU0Gasj5ECgMjmQfHIgUJocCAAA UEKzsVoOBEqTA2lADgTqkgMBAAAqaDZWR8iBQHFyIMnkQKA0ORAAAGDymo7VEXIgUJkcSD45EChN DgQAAJi05mO1HAiUJgfSgBwI1CUHAgAATFnzsTri2RzIGPFPZ/FvAXPnDee+7qJ39D5iSnbet7wv IrZHxErnU4DZkwMBAAAmayZjdUTE4S1bfj7kQKCkcRw/8abXXfSXe98xJbvv2fFwDPHLve8AupAD AQAAJmlmY7UcCJS2bRjHXw05kFRyIFCXHAgAADBFMxurI+RAoDg5kGRyIFCaHAgAADA5Mx2rI+RA oDI5kHxyIFCaHAgAADApMx+r5UCgNDmQBuRAoC45EAAAYEpmPlZHyIFAcXIgyeRAoDQ5EAAAYDK6 jNUREeOhIz8XciBQkhxIvt337Hg4Iv5B7zuALuRAAACASeg2Vn/+i3uekAOBsuRAGth66OBVIQcC JcmBAAAAU9BtrI6QA4Hi5ECSyYFAaXIgAADAwus6VkfIgUBlciD55ECgtLMOPPHN9/Y+AgAAYL26 j9VyIFCaHEgDciBQ2DjeIAcCAAAsqu5jdYQcCBQnB5JMDgRKkwMBAAAW1lyM1RFyIFCZHEg+ORAo TQ4EAABYSHMzVsuBQGlyIA3IgUBhciAAAMACmpuxOkIOBIqTA0kmBwKlyYEAAAALZ67G6gg5EKhM DiSfHAiUJgcCAAAslLkbqz//xT1PRAyX9L4D6EIOpAE5EChMDgQAAFggczdWR0R87uHbPyMHAmXJ gSSTA4HS5EAAAICFMZdjdYQcCFQmB5JPDgRKkwMBAAAWwtyO1XIgUJocSANyIFCYHAgAALAA5nas jpADgeLkQJLJgUBpciAAAMDcm+uxOkIOBCqTA8knBwKlyYEAAABzbe7HajkQKE0OpAE5EChMDgQA AJhjcz9WRzybA4lh+Ce97wC6eMObz7nQC6tEciBQmhwIAAAwtxZirI6IWDl4+OdDDgSqukUOJJcc CJQmBwIAAMylhRmr5UCgNDmQBuRAoDA5EAAAYA4tzFgdIQcCxcmBJJMDgdLkQAAAgLmzUGN1hBwI FCcHkkwOBEqTAwEAAObKwo3VciBQmhxIA3IgUJgcCAAAMEcWbqyOkAOB4uRAksmBQGknjZtX9siB AAAA82Ahx+oIORAoTg4kmRwIFDbGmXIgAADAPFjYsVoOBEqTA2lADgQKkwMBAADmwMKO1RFyIFCc HEgyORAoTQ4EAADobqHH6gg5EChODiTZ7nt2PDxG/K+97wA6kAMBAAA6W/ixWg4ESpMDaeBFhw5e HXIgUJMcCAAA0NHCj9URciBQnBxIMjkQKE0OBAAA6GYSY3WEHAgUJweSTA4EChvjzAOPP3FV7zMA AIB6JjNWy4FAaXIgDciBQGnXy4EAAACzNpmxOkIOBIqTA0kmBwKlyYEAAAAzN6mxOuLZHMgQ8X/3 vgPo4pY3nH3BS3ofMSVyIFCYHAgAADBjkxurP//FPU+MMbyz9x1AF9s2DUs7Qw4klRwIlCYHAgAA zMzkxuoIORAoTg4kmRwIlCYHAgAAzMwkx+oIORAoTg4kmRwIFCYHAgAAzMhkx2o5EChNDqQBORAo TQ4EAABobrJjdYQcCBQnB5JMDgRKkwMBAACam/RYHSEHAsXJgSSTA4HC5EAAAIDGJj9Wy4FAaXIg DTybAxn+fe87gC7kQAAAgGYmP1ZHPJcDGeMf974D6OINbz7nIi+sEu28b3nf0tKR7SEHAhXJgQAA AM2UGKsjIlYOH3mXHAhUNX5cDiTXHZ++7hE5EChKDgQAAGikzFgtBwKlyYE0IAcCpcmBAAAA6cqM 1RFyIFCcHEgyORAoTQ4EAABIV2qsjpADgdrkQLLJgUBhciAAAECycmO1HAiUJgfSgBwIlCYHAgAA pCk3VkfIgUBxciDJ5ECgNDkQAAAgTcmxOkIOBGqTA8kmBwKFyYEAAABJyo7VciBQmhxIA3IgUNr1 5/+tm1/R+wgAAGCxlR2rI+RAoDg5kGRyIFDaSUMMu+VAAACAjSg9VkfIgUBtciDZ7vj0dY/EEP9L 7zuADuRAAACADSo/VsuBQGlyIA1sPXjwGjkQKOuGC9928yt7HwEAACym8mN1hBwIFCcHkkwOBErb sjIMt8mBAAAA62Gsfo4cCFQmB5JNDgQKkwMBAADWyVj9HDkQKE0OpAE5EChNDgQAAFgzY/XzyIFA aXIgyeRAoDQ5EAAAYM2M1UeRA4HK5ECyyYFAYWOcefDxb17d+wwAAGBxGKuP8vkv7nkihvGS3ncA XWxbGpZ+NeRAUsmBQF1jjNfLgQAAAKtlrH4Bex/adZ8cCNQ0RLxeDiSXHAiUJgcCAACsmrH6GORA oDI5kGxyIFCYHAgAALBKxupjkAOB0uRAGpADgbrkQAAAgNUwVh+HHAjUJQeSTw4ESpMDAQAATshY fQJyIFCZHEg2ORAoTA4EAAA4AWP1CciBQGlyIA3IgUBdciAAAMDxGKtXQQ4E6pIDyScHAqXJgQAA AMdkrF4lORCoTA4kmxwIFCYHAgAAHIOxepXkQKA0OZAG5ECgrjHGG+RAAACAoxmr12DvQ7vuGyL+ Ue87gNkbIl7/prMv/Nned0yJHAiUtlkOBAAAOJqxeo2OHDpyqRwI1DQM8TE5kFxyIFCYHAgAAHAU Y/UayYFAaXIgDciBQF1yIAAAwPMZq9dBDgTqkgPJJwcCpcmBAAAA32OsXic5EKhLDiSfHAgUJgcC AAA8x1i9TnIgUJocSANyIFCXHAgAABBhrN4QORCoSw4k3/NyIEd63wLMnBwIAABgrN4oORCoSw4k 3x2fvu6RYRzkQKAiORAAACjPWL1BciBQmhxIAycdPrBDDgRqkgMBAIDajNUJ5ECgLjmQfHIgUNrm IzHcLgcCAAA1GauTyIFAXXIg+eRAoK4h4gw5EAAAqMlYnUQOBEqTA2lADgTqkgMBAICajNWJ5ECg LjmQfHIgUJocCAAAFGSsTiYHAnXJgeSTA4G65EAAAKAeY3UyORAoTQ6kATkQqEsOBAAAajFWNyAH AnXJgeSTA4HS5EAAAKAQY3UjB7eMPxcRf9T7DmD25EDyyYFAXUPEGQeeeOKa3ncAAADtGasbefDB Xd8ehvHv9r4D6EIOpAE5EChsjOvlQAAAYPqM1Q3JgUBdciD55ECgNDkQAAAowFjdmBwI1CUHkk8O BOqSAwEAgOkzVjcmBwKlyYE0IAcChcmBAADApBmrZ0AOBOqSA8knBwKlyYEAAMCEGatnRA4E6pID yScHAnXJgQAAwHQZq2dEDgRKkwNpQA4ECpMDAQCASTJWz9Deh3bdN8b4a73vAGZviHj9ua/b7oVV op33Le8bx/GCkAOBiuRAAABggozVM3Z4S/x8yIFASeM4fFQOJNeee3d8QQ4EapIDAQCA6TFWz5gc CJQmB9KAHAgUJgcCAACTYqzuQA4E6pIDyScHAqXJgQAAwIQYqzuRA4G65EDyyYFAXXIgAAAwHcbq TuRAoDQ5kAbkQKAwORAAAJgEY3VHciBQlxxIPjkQKE0OBAAAJsBY3ZkcCNQlB5Jvz707vhARt/a+ A5g9ORAAAFh8xurO5ECgNDmQBrYeOnitHAgUNcb1F/z0h17V+wwAAGB9jNVzQA4E6pIDyScHAqVt HpfG2+RAAABgMRmr54QcCNQlB5JPDgTqkgMBAIDFZayeE3IgUJocSANyIFCYHAgAACwkY/UckQOB uuRA8smBQGlyIAAAsICM1XNGDgTqkgPJJwcCdcmBAADA4jFWzxk5EChNDqQBORAoTA4EAAAWirF6 DsmBQF1yIPnkQKA0ORAAAFggxuo5JQcCdY3j8NG3vPbiH+l9x5TIgUBdciAAALA4jNVz6tkcSPxs 7zuALratLK3IgSSTA4HC5EAAAGAhbOp9AMf2tW985at/+YfO/CtDDK/ofQswcz/8I3/pzP/3a9/4 yr/pfchUPPbVBw+d8bI3/h/DENvDy1qoZmkc4tU/+hM/efvv/d6DkkAAADCnPKzPOTkQqEsOJJ8c CNQ1RJxx8pGtciAAADDHjNVzTg4ESpMDaUAOBOoaYrxODgQAAOaXDMgCkAOB0uRAksmBQGlyIAAA MMc8pC8IORCoSw4knxwI1CUHAgAA88tYvSDkQKA0OZAGns2BxFd73wHMnhwIAADMJxmQBfK1b3zl qy/5obN+JCLkQKCeH37JX3rl//f1b3xZDiTJczmQx+RAoCQ5EAAAmEMezhfMoS3ju0IOBGoax4/I geSSA4G65EAAAGD+GKsXjBwIlCYH0oAcCNQlBwIAAPNFBmQByYFAaXIgyeRAoDQ5EAAAmCMeyheU HAgUJgeSTg4E6pIDAQCA+WGsXlByIFCaHEgDciBQlxwIAADMBxmQBSYHAqXJgSSTA4HS5EAAAGAO eBhfcHIgUJgcSDo5EKhLDgQAAPozVi84ORAoTQ6kATkQqEsOBAAA+pIBmQA5EChNDiSZHAiUJgcC AAAdeQifCDkQKGwcPyoHkmvPvTu+EMPwyd53ALMnBwIAAP0YqydCDgRKO0UOJN/WgweuCzkQKEkO BAAA+pABmRA5EChNDiSZHAiUJgcCAAAdePieGDkQKEwOJJ0cCNQlBwIAALNnrJ4YORAoTQ6kATkQ qEsOBAAAZksGZILkQKA0OZBkciBQmhwIAADMkIfuiTq0ZXxXDPFfet8BdCAHkk4OBOqSAwEAgNkx Vk/Ugw/u+vYQ8Xd73wF0ccrK0rhrOZZ9j0+0b2nrtSEHAiXJgQAAwGwYMiZs70N3/IuI+Ie97wB6 GM95+HXf8MIq0V13vWf/OMb2iJACgHo2j0vjbeedt3xS70MAAGDKjNUTJwcChcmBpJMDgbrkQAAA oD1j9cTJgUBpciANDKcd2BEx/l+97wBmTw4EAADaMmAUIAcClcmBZNu1a/mZcRwuDjkQqEgOBAAA GjJWFyEHAoXJgaSTA4G6hogzth3ZsqP3HQAAMEXG6iLkQKA0OZAGhtMO7Igxfq/3HcDsjTFcKwcC AAD5DBeF7H3ojn8R43Bn7zuAHsZzHjrnD/9e7yumZNeu5WfGiJ8JORCoSA4EAAAaMFYXc+iklUvl QKCmIeIjciC55ECgLjkQAADIZ6wuRg4ESpMDaUAOBOqSAwEAgFwGi4LkQKAyOZBsciBQmhwIAAAk MlYXJQcCdcmB5JMDgbrkQAAAII+xuig5EChNDqQBORCoSw4EAAByGCoKkwOByuRAssmBQGlyIAAA kMBYXZwcCNQlB5JPDgTqkgMBAICNM1YXJwcCpcmBNCAHAnXJgQAAwMYYKJADgdLkQLLJgUBpciAA ALABxmoiImI8sPldciBQkxxIvj337vjCMMYv9b4DmD05EAAAWD9jNRER8cBjO5+UA4Gy5EBaePHB a+VAoCY5EAAAWB/DBN8jBwKVyYFkkwOB0uRAAABgHYzV/BlyIFCXHEg+ORCoSw4EAADWzljNnyEH AqXJgbQgBwJlyYEAAMDaGCT4PnIgUJkcSDY5EChtcyyNt8uBAADA6hireUFyIFCXHEg+ORAo7RVy IAAAsDrGal7QA4/tfHJcWfrZ3ncAXciBNHDaM6fukAOBmuRAAABgdQwRHNMDj9z2G3IgUJUcSLZb 77/0gBwIlCUHAgAAq2Cs5rjkQKAuOZB8ciBQmhwIAACcgLGa45IDgdLkQBqQA4G65EAAAOD4DBCc kBwIVCYHkk0OBEqTAwEAgOMwVrMqciBQlxxIPjkQKE0OBAAAjsFYzarIgUBpciANyIFAXXIgAADw wgwPrJocCFQmB5JNDgRKkwMBAIAXYKxmTeRAoC45kHxyIFCaHAgAABzFWM2ayIFAaXIgDciBQF1y IAAA8GcZHFizBx657TeGiD297wB6GM956Oz/9HO9r5iSW++/9MAwrFwcciBQkRwIAAA8j7GadVl5 ZsulciBQ0zAMH5YDybXrnut+Ww4EypIDAQCA5xirWRc5EChNDqQBORCoSw4EAACeZWhg3eRAoDI5 kGxyIFCaHAgAAISxmg2SA4G65EDyyYFAaXIgAACUZ6xmQ+RAoDQ5kAbkQKAuORAAAKozMLBhciBQ mRxINjkQKE0OBACA0ozVpJADgbrkQPLtuue6344Y/n7vO4AuXnHK4ZOu7X0EAAD0YKwmhRwIlCYH 0sDp+7ddKwcCRQ2xQw4EAICKDAukkQOByuRAssmBQGlyIAAAlGSsJpUcCNQlB5JPDgRKkwMBAKAc YzWp5ECgNDmQBuRAoDA5EAAAijEokE4OBCqTA8kmBwKlyYEAAFCKsZom5ECgLjmQfHIgUJocCAAA ZRiraUIOBEqTA2lADgQKG2LH2//WB/6H3mcAAEBrhgSakQOByuRAssmBQGmbl8al2+RAAACYOmM1 TcmBQF3DMHz4zf/j9r/S+44pkQOB0uRAAACYPGM1TcmBQGmnxMogB5JMDgQKkwMBAGDiDAg0JwcC hY1xthxILjkQKE0OBACASTNWMxNyIFCXHEg+ORAoTQ4EAIDJMlYzE3IgUJocSANyIFCYHAgAABNl OGBm5ECgMDmQdHIgUJocCAAAk2SsZqbkQKAuOZB8ciBQmhwIAACTY6xmpuRAoDQ5kAbkQKAwORAA ACbGYMDMPfDIbb8REbt73wF0MMbZj5z9hz/f+4wpkQOB0uRAAACYFGM1XYzPbPkFORCoaRziQ3Ig ueRAoDQ5EAAAJsNYTRdyIFCaHEgDciBQmBwIAAATYSigGzkQKEwOJJ0cCJQmBwIAwCQYq+lKDgTq kgPJJwcCpcmBAACw8IzVdCUHAqXJgTQgBwKFyYEAALDgDAR0JwcChcmBpJMDgdLkQAAAWGjGauaC HAjUJQeSb9c91/12DPGLve8AunjFyUe2XNf7CAAAWA9jNXNBDgRKkwNp4PR9p14nBwI1DTFcIwcC AMAiMgwwN+RAoDA5kHRyIFCaHAgAAAvJWM1ckQOBuuRA8smBQGlyIAAALBxjNXNFDgRKkwNpQA4E 6pIDAQBg0RgEmDtyIFCYHEg6ORAobfPSytLud/2NT27tfQgAAKyGsZq5JAcCdcmB5JMDgcKG+LEn T/7Otb3PAACA1TBWM5fkQKA0OZAG5ECgLjkQAAAWhSGAuSUHAoXJgaSTA4HS5EAAAFgIxmrm2vjM ll+IiP/c+w5g9uRA8smBQGFyIAAALABjNXPtgcd2PhkxyoFATXIgDciBQF1yIAAAzDsDAHPvcw/v +pchBwI1yYGkkwOB0uRAAACYa8ZqFoIcCNQlB5JPDgQKkwMBAGCOGatZCHIgUJocSANyIFCXHAgA APPKgz8LQw4ECpMDSScHAqXJgQAAMJeM1SwUORCoSw4knxwIFCYHAgDAHDJWs1DkQKC0U2Jl2HXe eedt6n3IlJy+79TrIuJ3e98BzJ4cCAAA88ZYzcJ5Ngcy7up9B9DBGGd/+0+2yYEkuvX+Sw+sDCEH AjXJgQAAMFeM1Syk8ZmT3h1yIFDTOHxQDiTXnXfveFQOBIqSAwEAYI4Yq1lIciBQmhxIA3IgUJcc CAAA88JYzcKSA4HC5EDSyYFAaZuXVpZ2b9++/KLehwAAUJuxmoUmBwKFyYGkkwOBwob4sZWntuzo fQYAALUZq1lociBQmhxIA3IgUJccCAAAvRmrWXhyIFCYHEg6ORAoTQ4EAICujNVMghwIFCYHkk4O BAqTAwEAoCNjNZPwwGM7nxxivDgixt63ADMnB9KAHAjUJQcCAEAvxmomY+/Duz4XMe7ufQfQgRxI OjkQKE0OBACALozVTIocCBQmB5Luzrt3PDqOwyd63wF0MMSPjU+ddG3vMwAAqMVYzaTIgUBpciAN vPiZbdeHHAhUdbUcCAAAs2SsZnLkQKAwOZB0ciBQmhwIAAAzZaxmkuRAoDA5kHRyIFCYHAgAADNk rGaS5ECgNDmQBuRAoDQ5EAAAZsJYzWTJgUBhciDp5ECgNDkQAABmwljNpMmBQGFyIOnkQKAwORAA AGbAWM2kyYFAaacMR4bdciC55ECgNDkQAACaMlYzeXIgUNcY8Vo5kFxyIFCaHAgAAE0ZqylBDgQK kwNJJwcChcmBAADQkLGaEuRAoDQ5kAbkQKC0q7e/7UN/rfcRAABMj7GaMuRAoC45kHxyIFDa5jFW 5EAAAEhnrKYUORAoTA4knRwIVDa8XA4EAIBsxmpKkQOB0uRAGpADgdLkQAAASGWsppy9D+/6XAyx q/cdwOyNEa/91h+f9q7ed0yJHAiUJgcCAEAqYzUljfu3XBZyIFDSEOPNciC55ECgMjkQAADyGKsp SQ4ESpMDaUAOBEqTAwEAIIWxmrLkQKAuOZB8ciBQmhwIAAApjNWUJgcCdcmB5JMDgcrkQAAA2Dhj NaXJgUBpciANyIFAaXIgAABsiLGa8uRAoC45kHxyIFCaHAgAABtirIaQA4HK5EDyyYFAZXIgAACs n7EaQg4EipMDaUAOBEqTAwEAYF2M1fAcORCoSw4knxwIlCYHAgDAuhir4XnkQKAuOZB8d96949GI uKX3HUAPciAAAKydsRqeRw4ESpMDaeD0/afeEHIgUJUcCAAAa2KshqPIgUBdciD55ECgNDkQAADW ZOh9AMyjN73qkhcPLzr0byPiv+99CzBz+2LTeObn/vWuf9/7kCm54G0f/EhEvLf3HUAH43jz7nuv va73GVNzy9/8yN+MTcPW3ncAAGQyVsMxnHvO9jePMXw2/D+BcoaIL7z4v/3Tn7zrrrt8GjjJu/7G J7c+dfKfPhYRP977FmDmDg8xnL3rnmv+Te9DpuQTb/3o1THGh3rfAQCQSQYEjkEOBOqSA8knBwKl yYE08Bc3//DHIuKLve8AAMhkrIbjGPdvuSwi/nPvO4DZG2K8+Y2vO/9He98xJXfevePRiLil9x1A D8PLxye3SIEk+jt3/Z0jK5uWLogxnul9CwBAFmM1HMcDj+18chyGiyJi7H0LMHOnbBo37TrvvPM2 9T5kSk7ff+oNEfG7ve8AOhiGq7a/7UN/rfcZU3LF3Vf8fizFTb3vAADIYqyGE3jgodsfkAOBmuRA 8smBQGlyIA3IgQAAU2KshlWQA4G65EDyyYFAZXIg2eRAAIApMVbDKsiBQGlyIA3IgUBhciDp5EAA gKkwVsMqyYFAXXIg+eRAoDQ5kAaeOmPfR2OMh3vfAQCwEcZqWAM5EKhLDiSfHAhUJgeSbXl5eWVl 89LPyIEAAIvMWA1rIAcCpcmBNCAHAoXJgaS74u4rfn+Mcbn3HQAA62WshjWSA4G65EDyyYFAaXIg DXznrP0fkwMBABaVsRrWQQ4E6pIDyScHApXJgWSTAwEAFpmxGtZBDgRKkwNpQA4ECpMDSScHAgAs KmM1rNMDD93+wDjGHb3vAGZvjHjtk3986qW975gSORAoTQ6kATkQAGARGathIw5seU/IgUBJY8QH 5EByyYFAZXIg2eRAAIBFZKyGDZADgdLkQBqQA4HC5EDSyYEAAIvGWA0b77H4bQAAIABJREFUJAcC dcmB5JMDgdLkQBqQAwEAFomxGjLIgUBZciD55ECgMjmQbHIgAMAiMVZDAjkQKE0OpAE5EChMDiSd HAgAsCiM1ZBEDgTqkgPJJwcCpcmBNCAHAgAsAmM1JNpy5OBlIQcCJY0RN8uB5Lrz7h2PDsP48d53 AD3IgWSTAwEAFoGxGhLd/+ivPSUHAmWdLAeS77R9p90YciBQkxxIOjkQAGDeGashmRwI1CUHku/W +y89sBTj+RFxqPctwMzJgTQgBwIAzDNjNTQgBwJ1jREffNNrfublve+YkjvuufZLwzB+ovcdQA9y INm+lwOJ2N/7FgCAoxmroQE5ECjtRUubjtwmB5JLDgQKkwNJd8XdV/z+OI439b4DAOBoxmpoRA4E 6pIDyScHAqXJgTQgBwIAzCNjNTQkBwJ1yYHkkwOByoaXx1MnXd/7iimRAwEA5pGxGhqSA4HS5EAa kAOBusaI98qB5JIDAQDmjbEaGpMDgbrkQPLJgUBpciANyIEAAPPEWA0z8FwO5Bu97wBmb4z44Bt/ 8sIf633HlMiBQGVyINnkQACAeWKshhl4LgdycciBQEUv2rQSn5IDySUHAnXJgeS74u4rfn+IWO59 BwCAsRpmRA4E6pIDyScHAqXJgTTw5Jn7Pi4HAgD0ZqyGGZIDgbrkQPLJgUBlciDZ5EAAgHlgrIYZ kgOB0uRAGpADgbrkQPLJgQAAvRmrYcbkQKAuOZB8ciBQmhxIA0+eue/jQwwP9b4DAKjJWA0dyIFA XXIg+eRAoDI5kGzLy8srw8qKHAgA0IWxGjqQA4HS5EAaeC4H8u963wHMnhxIvnd/5qo/kAMBAHow VkMnDzx0+wMR4+297wBmb4x47bf/aNsv9L5jSp7LgVwQciBQkRxIA3IgAEAPxmroaPPhQ+8JORCo aRhulgPJJQcClcmBZJMDAQB6MFZDR3IgUJocSANyIFCXHEg+ORAAYNaM1dCZHAjUJQeSTw4ESpMD aUAOBACYJWM1zAE5EChMDiSdHAhUJgeSTQ4EAJglYzXMATkQKE0OpAE5EKhLDiSfHAgAMCvGapgT ciBQlxxIPjkQKE0OpAE5EABgFozVMEfkQKCwYfigHEiuO+659kvjGLf0vgPoQQ4kmxwIADALxmqY I3IgUNpWOZB8L37m1OWQA4GS5EDyyYEAAK0Zq2HOyIFAXXIg+eRAoDQ5kAbkQACAlozVMIfkQKAw OZB0ciBQmRxINjkQAKAlYzXMITkQKE0OpAE5EKhLDiTfuz9z1R/EMN7Y+w4AYHqM1TCn5ECgLjmQ fHIgUJocSANPnbH/FjkQACCbsRrmmBwIFCYHkk4OBCqTA8kmBwIAtGCshjkmBwKlyYE0IAcCdcmB 5JMDAQCyGathzsmBQF1yIPnkQKA0OZAG5EAAgEzGalgAciBQmBxIOjkQqGx4+fjUlht6XzElciAA QCZjNSyA+x/9tadiZeWikAOBirYurcRtciC55ECgsuFKOZBcciAAQBZjNSyIz31h9+flQKCs18iB 5JIDgdLkQBqQAwEAMhirYYHIgUBhciDp5ECgMjmQbHIgAEAGYzUsEDkQKE0OpAE5EKhMDiSbHAgA sFHGalgwciBQmhxIMjkQKE0OpAE5EABgI4zVsIDkQKAwOZB0ciBQmRxINjkQAGAjjNWwgORAoDQ5 kAbkQKAyOZBsciAAwHoZq2FBPZsDidt63wF08Zpv/8lp7+59xJTcev+lB8ZhOD/kQKAiOZAG5EAA gPUwVsMC23z44OUhBwI1jePNciC59tx9zZflQKAqOZBsciAAwHoYq2GByYFAaXIgDciBQGXDlef/ 9Af+eu8rpkQOBABYK2M1LDg5EChNDiSZHAiUtnlYWpIDSSYHAgCshbEaJkAOBAqTA0knBwKlvUwO JJccCACwFsZqmAA5EChNDqQBORCoTA4k27s/c9UfDGN4CQAAnJCxGiZCDgRKkwNJJgcCpcmBNPDk Wfs+IQcCAJyIsRomRA4ECpMDSScHAqXJgSSTAwEAVsNYDRMiBwKlyYE0IAcClcmBZJMDAQBOxFgN EyMHAqXJgSSTA4HS5EAakAMBAI7HWA0TJAcChcmBpNtz9zVfjhg/3vsOoAs5kGRyIADA8RirYYLk QKA0OZAGTt9/2k0hBwJFyYFkkwMBAI7FWA0TJQcCpcmBJJMDgdLkQBqQAwEAXoixGiZMDgQKkwNJ JwcCpcmBJJMDAQBeiLEaJkwOBEqTA2lADgQqkwPJJgcCABzNWA0TJwcCpcmBJJMDgdLkQBqQAwEA ns9YDQXIgUBhciDp5ECgNDmQZHIgAMDzGauhADkQKE0OpAE5EKhMDiSbHAgA8F3GaihCDgRKkwNJ JgcCpcmBNCAHAgBEGKuhFDkQKEwOJJ0cCJT2spUnT7qx9xFTIgcCAEQYq6EUORAoTQ6kATkQqGsY Qg4kmRwIAGCshmLkQKA0OZBkciBQ2iY5kHxyIABQm7EaCpIDgcLkQNLJgUBpciDJ5EAAoDZjNRQk BwKlyYE0cPr+026KIf5t7zuA2ZMDyScHAgB1GauhqM99Yffnh2H4VO87gC5e860/PvWy3kdMya33 X3pgjOGCkAOBiuRAGpADAYCajNVQ2KZDB64IORAoaYj4gBxILjkQKE0OJJkcCADUZKyGwuRAoDQ5 kAbkQKAuOZB87/7MVX8QMV7f+w4AYHaM1VCcHAiUJgeSTA4ESpMDaeCpM/f/ohwIANRhrAbkQKAw OZB8ciBQmhxIMjkQAKjFWA3IgUBtciANyIFAXXIg+eRAAKAOYzUQEXIgUJwcSDI5EChNDqSBp87c /4sR8b/3vgMAaMtYDXyPHAjUJQeSTw4ESpMDSba8vLwyDpvkQABg4ozVwPfIgUBpciANyIFAXXIg +S6/9/KvyoEAwLQZq4E/Qw4ESpMDSSYHAqXJgTQgBwIA02asBr6PHAjUJQeSb8/d13x5iPhY7zuA LuRAksmBAMC0GauB7yMHAqXJgTRw2v5T3ycHAjXJgeSTAwGA6TJWAy9IDgRKkwNJJgcCpcmBNCAH AgDTZKwGjkkOBOqSA8knBwKlyYEkkwMBgGkyVgPHJAcCpcmBNCAHAnXJgeSTAwGA6TFWA8clBwKl yYEkkwOB0uRAGpADAYBpMVYDJyQHAnUNER94yzkX/HjvO6ZEDgRKkwNJJgcCANNirAZO6P5Hf+2p YYwLQw4EKtq6EktyIMme3nTwJjkQqEkOJJ8cCABMh7EaWJW9j9zxm3IgUNar5UBy3XXX8kE5EChL DqQBORAAmAZjNbBqciBQlxxIPjkQKE0OJJkcCABMg7EaWDU5EChNDqQBORCoaxjivRe87YPn9L5j Si6/9/KvjsNwXe87AID1M1YDayIHAqXJgSSTA4HSliLiU3Igub5zxtN/P+RAAGBhGauBNZMDgbrk QPLJgUBpL4vvbFnufcSUyIEAwGIzVgNrJgcCpcmBNCAHAnWN43ClHEguORAAWFzGamBd5ECgNDmQ ZHIgUJocSANyIACwmIzVwLrJgUBdciD55ECgNDmQZHIgALCYjNXAusmBQGlyIA3IgUBdciD55EAA YPEYq4EN2fvIHb85jvGrve8Aunj1k3982nt6HzElciBQmhxIA3IgALBYjNXAhi2devg9EfH13ncA szfG+H45kFxyIFCaHEgyORAAWCzGamDD9u698+lhjHeEHAhUJAfSgBwI1CUHkk8OBAAWh7EaSCEH AqXJgSSTA4HS5EAakAMBgMVgrAbSyIFAXXIg+eRAoDQ5kGTLy8srw6Yj2yPi6d63AADHZqwG0siB QGlyIA3IgUBdciD5Lrv7mq+Pw3BD7zsAgGMzVgOp5ECgNDmQZHIgUJocSANyIAAw34zVQDo5EKhL DiTfnruv+XKM40d73wF0IQeSTA4EAOabsRpIJwcCpcmBNLBv86H3yYFATXIg+eRAAGB+GauBJuRA oDQ5kGRyIFCaHEgDciAAMJ+M1UAzciBQlxxIPjkQKE0OJJkcCADMJ2M10IwcCJQmB9KAHAjUJQeS 77K7r/l6jHF97zsAgP/KWA00JQcCpcmBJJMDgdKWIuJT5533iZN7HzIlT52175dCDgQA5oaxGmhO DgTqkgPJJwcCpb1s28r+G3sfMSVyIAAwX4zVQHNyIFCaHEgDciBQlxxIPjkQAJgfxmpgJuRAoDQ5 kGRyIFCaHEgDciAAMB+M1cDMyIFAXXIg+eRAoDQ5kGRyIAAwH4zVwMzIgUBpciANyIFAXXIg+eRA AKA/YzUwU3IgUJocSDI5EChNDqSBp87a90vjMP7r3ncAQFXGamDm5ECgLjmQfHIgUJocSLLl5eWV paWVC0MOBAC6MFYDMycHAqXJgTQgBwJ1yYHkkwMBgH6M1UAXciBQmhxIMjkQKE0OpAE5EADow1gN dCMHAnXJgeSTA4HSXnbKkWeWex8xJXIgANCHsRroRg4ESpMDaUAOBEq7Qg4klxwIAMyesRroau8j d/xmROzsfQfQxau//UenXt77iCm5667lg8OR8fyQA4GK5EAakAMBgNkyVgPdDdsOXx5yIFDTEO+T A8m169ev/YocCJQlB5Lsv+ZAhj/tfQsAVGCsBrqTA4HS5EAakAOB0uRAkj2bAxlv6H0HAFRgrAbm ghwIlCYHkkwOBEqTA2lADgQAZsNYDcwNORAoTA4knRwIlCYHkkwOBABmw1gNzA05EChNDqQBORAo 7Yrz3/rh1/U+Ykouu/uar48R1/e+AwCmzFgNzBU5EChNDiSZHAiUthQxyoEk+86ZT39SDgQA2jFW A3NHDgQKkwNJt+vXr/1KRHyk9x3A7A3D+FI5kFxyIADQlrEamDtyIFCaHEgD+zYdfL8cCJQlB5JM DgQA2jFWA3NJDgRKkwNJJgcCpcmBNCAHAgBtGKuBuSUHAoXJgaSTA4G65EDyyYEAQBvGamBuyYFA aXIgDciBQGlyIMnkQAAgn7EamGtyIFCaHEgyORAoTQ6kATkQAMhlrAbmnhwIFCYHkk4OBOqSA8m3 vLy8snJ4abscCADkMFYDc08OBEqTA2lADgRKkwNJduV9V/5HORAAyGGsBhaCHAiUJgeSTA4ESpMD aUAOBAByGKuBhTFsO3z5EPG13ncAHciBpJMDgbrkQPLJgQBADmM1sDD27r3z6RjjkpADgYrkQBqQ A4HS5ECSyYEAwMYZq4GFIgcCpcmBJJMDgdLkQBqQAwGAjTFWAwtHDgQKkwNJJwcCdcmB5JMDAYCN MVYDC0cOBEqTA2lADgRKkwNJJgcCAOtnrAYWkhwIlCYHkkwOBEqTA2lADgQA1sdYDSwsORAoTA4k nRwI1CUHkk8OBADWx1gNLCw5EChNDqSBfZsOvj8i/s/edwBdyIEkkwMBgLUzVgML7dkcyPgrve8A unj1t/9k2xW9j5iSu+5aPjisjBeEHAhUJAfSgBwIAKyNsRpYeMO2I1fIgUBR43CTHEguORCoaxjG l558+MBNve+YEjkQAFgbYzWw8ORAoLStR8alPa961SVbeh8yJXIgUNcwjJfLgeS68r4r/2PEeF3v OwBgERirgUmQA4G6hiFe+RdOPvie3ndMiRwIlCYH0sBTZ+67VQ4EAE7MWA1MhhwIFCYHkk4OBOqS A8knBwIAq2OsBiZDDgRKkwNpYOsP/sD7IuJLve8AZk8OJJ8cCACcmLEamBQ5EKhLDiTfzp3vPDSs jBeHHAhUJAfSgBwIAByfsRqYHDkQKEwOJJ0cCNQlB5JPDgQAjs9YDUyOHAiUJgfSgBwI1CUHkk8O BACOzVgNTJIcCNQlB5JPDgRKkwNp4Kkz990aEf+q9x0AMG+G3gcAtHLuuW/fFk9v/p0x4iW9bwFm 7sBSrLzqsw/v/t3eh0zJ+W+7+X1DDNf3vgOYvXEcPrbn3mve2/uOKfnk2z7yFw+Nw2t73wEA88RY DUzauWdf+IZxiAfC9zsoZxzjS986sOU1jz2206eBk1xyya9sOfD4E78dEa/sfQswcyvjuPQ/7bn3 6od6HwIATJcMCDBpciBQlxxIPjkQKE0OBABozlgNTN6w7cgVQ8TXet8BdDAON73lnAt+vPcZU7Lr 16/9yhjjh3vfAczeMIwvPfnwgZt63wEATJexGpi8vXvvfDrGuCQixt63ADO39ci4tOdVr7pkS+9D puRFP/iD74+IL/W+A5i9YRgvP/+tH35d7zsAgGkyVgMlyIFAXXIg+eRAoDQ5EACgGWM1UIYcCBQ2 Djede/bFP9H7jCmRA4G65EAAgFaM1UAZe/fe+fQQwztCDgQq2roSK7vlQHJ945uH3hdyIFCSHAgA 0IKxGijlsw/f/ltyIFCTHEi+Bx9cPiwHAmXJgQAA6YzVQDlyIFCYHEg6ORCoSw4EAMhmrAbKkQOB 0uRAGpADgbrkQACATMZqoCQ5EKhLDiSfHAiUJgcCAKQxVgNlyYFAYXIg6eRAoC45EAAgi7EaKEsO BEqTA2lADgTqkgMBADIYq4HS5ECgLjmQfHIgUJocCACwYcZqoDw5EChMDiSdHAjUJQcCAGyUsRoo Tw4ESpMDaUAOBOqSAwEANsJYDRDP5kCGIf633ncAszcM8co/f/Lhy3vfMSUPPrh8eNO4dFHIgUBF ciAAwLoZqwG+65TDV8qBQE3DOC7LgeS6/d6rf0cOBGoahvGlp6w8877edwAAi8dYDfAcORAoTQ6k ATkQKGyM98iBAABrZawGeB45EKhLDiSfHAiUJgcCAKyZsRrgaHIgUJYcSD45EKhLDgQAWCtjNcBR 5ECgNDmQBuRAoDA5EABgDYzVAC9ADgTqkgPJJwcCpcmBAACrZqwGOBY5EChLDiTf7fde/Tsxxod6 3wHMnhwIALBaxmqAY5ADgdLkQBr4w28dfH/IgUBNciAAwCoYqwGOQw4E6pIDyScHAqXJgQAAJ2Ss BjgRORAoSw4knxwI1CUHAgCciLEa4ATkQKA0OZAG5ECgMDkQAOA4jNUAqyAHAnXJgeSTA4HS5EAA gGMyVgOslhwIlCUHkk8OBOqSAwEAjsVYDbBKciBQ2tZxWNkjB5JLDgQKkwMBAF6AsRpgDeRAoLSz 5EByyYFAaXIgAMD3MVYDrJUcCJQlB5JPDgTqkgMBAI5mrAZYIzkQKE0OpAE5EChMDgQAeB5jNcA6 yIFAaXIgyeRAoDQ5EADge4zVAOslBwJlyYHkkwOBuuRAAIDvMlYDrJMcCJQmB9KAHAgUJgcCAISx GmBD5ECgNDmQZHIgUJocCABgrAbYMDkQKEsOJJ8cCNQlBwIAGKsBNkgOBEqTA2ngD7918P0xxGO9 7wA6kAMBgNKM1QAJPvvw7b81jsMv974D6OKsH3jRoSt6HzElDz64fHjTytLFIQcCFcmBAEBhxmqA JEunHnqvHAjUNEbcKAeSSw4E6hqG8aWnHDnw/t53AACzZ6wGAGAujcM49L4B6GW8TA4EAOoxVgNk 2bf5Y2PES3qfAczeOAzLex+57d/1vmNKLnrrh88YYri69x1AN3IgAFCQsRogwVvOuej14xg/2/sO YPbGMb70rf2bb+l9x5T81E8tbz4yrNweEX5xJRQmBwIA9RirATbo3HPfvm2M8Vcjwo+rQz0HlmLp gsce2+kXASb6ob+w5YaIeGXvO4B5IAcCAJUYqwE2aHx608flP6CoYbxR/iPX9p+++Uz5D+B55EAA oBBjNcAGvOWci14fMbyz9x3A7I1jfOmb+0/6RO87puSnfmp587g03BbyH8DzyIEAQB3GaoB1kv+A 0uQ/GpD/AI5NDgQAKjBWA6yT/AcUJv+RTv4DOAE5EAAowFgNsA7yH1CX/Ec++Q9gNeRAAGD6jNUA ayT/AaXJfzQg/wGs3njZ9r/9wZ/sfQUA0IaxGmCN5D+gMPmPdPIfwBotjSshBwIAE2WsBlgD+Q+o S/4jn/wHsE4/KgcCANNkrAZYJfkPKE3+owH5D2D95EAAYIqM1QCrJP8Bhcl/pJP/ADZIDgQAJshY DbAK55594RvkP6Am+Y98l1zyK1vkP4AEciAAMDHGaoATOPfct2+LIXaG/AdUdGDTsHK+/EeuZx5/ /PqQ/wBSyIEAwJQYqwFOQP4DChvGGz/78O7f7X3GlMh/AMnkQABgQozVAMch/wF1yX/kk/8AGpED AYCJMFYDHIP8B5Qm/9GA/AfQjhwIAEyBsRrgGOQ/oDD5j3TyH0BjciAAMAHGaoAXIP8Bdcl/5JP/ AGZEDgQAFpyxGuAo8h9QmvxHAwcef+KGkP8AZkIOBAAWmbEa4CjyH1CY/Ee67T9985kRcVXvO4Ay 5EAAYIEZqwGeR/4D6pL/yCf/AXQiBwIAC8pYDfAc+Q8oTf6jAfkPoB85EABYRMZqgOfIf0Bh8h/p 5D+AzuRAAGABGasBQv4Dinv0z/03T3+89xFTct55yyeNS8PukP8A+vrRbYef+UDvIwCA1TNWA+XJ f0BpB5Zi5eK77rrrSO9DpuSUIyddHxGv6H0HwDjEu+VAAGBxGKuB8sanN98i/wFFjXGD/Ecu+Q9g zsiBAMACMVYDpT2b/4hLet8BdPHon/vv/vSW3kdMyXnnLZ80bhr2hPwHMF/kQABgQRirgbLkP6A0 +Y8GTjly0vUxxl/tfQfA0eRAAGAxGKuBsuQ/oDD5j3TyH8CckwOB/7+9ewvWrLzv/P6s3ScOMchG lWSkZATKJFWTieSDaowFJGFGDRNGlixAcpJRuukGCY3twRaIgwEhbQm6EWCd0MESSNASlwSBU6lK bCRZNQbkmUl80KSM7SQaaapymamYk0Qf9soFbQwbunsfnvU+a63f53PZffH+77reXz3vtwEmwFgN RJL/gGjyH5XJfwATIQcCACNnrAbiyH9ANPmPAch/AFMhBwIA42asBuLIf0Aw+Y/q5D+AiZEDAYAR M1YDUeQ/IJr8R2XyH8BEyYEAwEgZq4EY8h8QTf5jAPIfwFTJgQDAOBmrgRjyHxBM/qM6+Q9g4uRA AGCEjNVABPkPiCb/UZn8BzATciAAMDLGamD2Lrxw16l9V+4t8h+QSP5jAPIfwFzIgQDAuBirgdnr n936yVLKG1vfATQg/1Gd/AcwM3IgADAixmpg1uQ/IJr8R2XyH8BMyYEAwEj4STwwWxdeuOvU/tmt 3yteVUOi55fKylu8qq7rskv231pK+XDrOwAGsNItlfMP/I83/UHrQ+bk9rff/pPbt2/Z2foOAKbD WA3M1gXn7v1SKeUDre8AGujLDY8+cf+drc+Ykz3v2vcz/VL3L4tX1cB8fX/l1G1vfuCB655tfchc 9KXvPvOuu363L+WC1rcAMA0yIMAsyX9ANPmPyuQ/gBBv3PLMoY+3PmJOutL1pRy5spTydOtbAJgG YzUwOxdeuOvUviv3Fr8egUTPL5WVKx588MEjrQ+Zk1MOb/tI6cubWt8BMLS+Kx/c8+79/2XrO+bk 6kdu/EEp/U2t7wBgGozVwOz0z279ZNGphkx9+YhOdV173rXvZ0rXXd/6DoAFWepXyoFdu+46tfUh c3L1I9d/oSvl0dZ3ADB+xmpgVuQ/IJr8R2XyH0AoOZDK5EAAWCtjNTAb8h8QTf5jAPIfQCo5kPqu fuTGH3RdubH1HQCMm7EamA35Dwgm/1Gd/AcQTg5kAB98+LovyoEAcDzGamAW5D8gmvxHZfIfAKUU OZDq5EAAOBFjNTB58h8QTf5jAPIfAC+QA6lPDgSA4zFWA5Mn/wHB5D+qk/8AeBk5kAHIgQBwLMZq YNLkPyCa/Edl8h8Ar+qNS88dvrX1EXMiBwLAsRirgcmS/4Bo8h8DkP8AOIa+/w05kLrkQAB4NcZq YLJWntn6qSL/AZG60t0i/1HX7ktv/1n5D4BjkgMZgBwIAKsZq4FJuvCcvf+w68r7W98BNPEvTn/d 059qfcScvOc9y9u70n+tyH8AHI8cSGVyIACsZqwGJkf+A6LJfwxA/gNgjeRAqpMDAeCljNXA5Mh/ QC75j/rkPwDWRQ5kAHIgAPw1YzUwKfIfEE3+ozL5D4ANkQOpTA4EgL9mrAYmQ/4Dosl/DED+A2CD 5ECqkwMBoBRjNTAh8h+QS/6jPvkPgE2RAxmAHAgAxmpgEuQ/IJr8R2XyHwBVyIFUJgcCgLEaGD35 D4gm/zEA+Q+ASvr+Ny675BP/Vesz5kQOBCCbsRoYPfkPyCX/UZ/8B0BVS6Ws3C8HUpccCEAuYzUw avIfEE3+ozL5D4BByIFUJgcCkMtYDYyW/AdEk/8YgPwHwEDkQKqTAwHIZKwGRkv+A3LJf9Qn/wEw KDmQAciBAOQxVgOjJP8B0eQ/KpP/AFgIOZDK5EAA8hirgdGR/4Bo8h8DkP8AWBA5kOrkQACyGKuB 0ZH/gFzyH/XJfwAslBzIAORAAHIYq4FRkf+AaPIflcl/ADQhB1KZHAhADmM1MBryHxBN/mMApx7Z /lH5D4AG5ECqkwMByGCsBkZD/gNyyX/Ut/vS23+2L+W61ncAhFoqZeX+97xn+d9rfcicyIEAzJ+x GhgF+Q+IJv9RmfwHwCi88ZSVHR9vfcScyIEAzJ+xGmhO/gOiyX8MQP4DYCTkQKq7+pEbf1D6/jdb 3wHAMIzVQHPyH5BL/qM++Q+AUZEDGcDVv3P9b8uBAMyTsRpoSv4Dosl/VCb/ATBKciCVyYEAzJex GmjmorPfe1rflfuL/Ackkv8YgPwHwEjJgVQnBwIwT8ZqoJkj23b8Vinlb7e+A1i8vpQPy3/UJf8B MGpyIAOQAwGYH2M10MSF5+z9h33fv6/1HUAT/+InX/fMp1sfMSfyHwCT8MZTjmy/tfURcyIHAjA/ xmpg4eQ/IJr8xwDkPwAm49flQOqSAwGYF2M1sHDyH5BL/qM++Q+ASZEDGYAcCMB8GKuBhZL/gGjy H5XJfwBMkhxIZXIgAPNhrAYWRv4Dosl/DED+A2Cy5EAqkwMBmAfC4VI5AAAgAElEQVRjNbAw8h+Q S/6jPvkPgEmTAxnA1b9z/W+XUn6v9R0AbJyxGliIC9562dvkPyDWH8p/1HXVRXfvkP8AmDw5kMq6 0vVdOfKBIgcCMFnGamBwF5393tPK0tJ9Rf4DEj2/slTkPyp7+uRnPiL/ATALciCVyYEATJuxGhic /Afk6kv58Lf+4P4/a33HnMh/AMyKHMgA5EAApstYDQxK/gOiyX9UJv8BMEtyIJXJgQBMl7EaGIz8 B0ST/xiA/AfAbMmBVCYHAjBNxmpgMPIfkEv+oz75D4BZWypl5YAcSF1yIADTY6wGBiH/AdHkPyqT /wCIcJYcSF1yIADTY6wGqpP/gGjyHwOQ/wCIIQdSmRwIwLQYq4Hq5D8gl/xHffIfAFHkQAYgBwIw HcZqoCr5D4gm/1GZ/AdAJDmQyuRAAKbDWA1UI/8B0eQ/BvDUyU9/VP4DIJIcSGVyIADTYKwGqpH/ gFzyH/XtvvT2ny2lu7b1HQA0IQcyADkQgPEzVgNVyH9ANPmPyuQ/AChyINXJgQCMn7Ea2DT5D4gm /zEA+Q8AjpIDqUwOBGDcjNXApsl/QC75j/rkPwB4CTmQAciBAIyXsRrYFPkPiCb/UZn8BwCvQg6k MjkQgPEyVgMbJv8B0eQ/BiD/AcAxyIFUJgcCME7GamDDDm/d/ski/wGZuu5m+Y+65D8AOA45kAHI gQCMj7Ea2JAL3nrZ20opV7S+A2jiD1/zt57+TOsj5uSqi+7e0fX914v8BwDHJgdSmRwIwPgYq4F1 k/+AaPIfA3jq5Kc/Wkr5L1rfAcDoyYFUdvUjN/6gL+WG1ncA8AJjNbBu8h8QTP6jOvkPANZBDmQA 1zxy3ZeKHAjAKBirgXWR/4Bo8h+VyX8AsAFnnXp4x22tj5gTORCA8TBWA2sm/wHR5D8GIP8BwEb0 XX+VHEhdciAA42CsBtZM/gOCyX9UJ/8BwCbIgQxADgSgPWM1sCbyHxBN/qMy+Q8AKpADqUwOBKA9 YzVwQvIfEE3+YwDyHwDUIAdSnxwIQFvGauCE5D8gmPxHdfIfAFQkBzIAORCAdozVwHHJf0A0+Y/K 5D8AGIAcSGVyIADtGKuBY5L/gGjyHwOQ/wBgCHIg9cmBALRhrAaOSf4Dgsl/VCf/AcCA5EAGIAcC sHjGauBVyX9ANPmPyuQ/AFgAOZDKutL1K0tLVxY5EICFMVYDryD/AdHkPwYg/wHAIvRdf9Wui/f/ 163vmJNrv3HtD+VAABbHWA28gvwHBJP/qE7+A4AFWlrqyv1yIHXJgQAsjrEaeBn5D4gm/1GZ/AcA DciBVCYHArA4xmrgRfIfEE3+YwB/ddIzy0X+A4AFkwOpTw4EYDGM1cCL5D8gmPxHdbsvvf1nu658 qPUdAESSAxmAHAjA8IzVQClF/gPCyX9UJv8BwAjIgVQmBwIwPGM1IP8B2eQ/BiD/AcAYyIHUJwcC MCxjNSD/AcnkP6qT/wBgRORABiAHAjAcYzWEk/+AaPIflcl/ADBCciCVyYEADMdYDcHkPyCa/McA 5D8AGCM5kPrkQACGYayGYPIfEEz+ozr5DwBGTA5kAHIgAPUZqyGU/AdEk/+oTP4DgAmQA6lMDgSg PmM1BJL/gGjyHwOQ/wBgCuRA6pMDAajLWA2BDm/d9qki/wGZ+v4m+Y+69l6y7+fkPwCYCDmQAciB ANRjrIYwL+Q/ustb3wE08Yevef2zn219xJxcddHdO1ZK97Ui/wHAdMiBVCYHAlCPsRqCyH9ANPmP Ach/ADBFciD1XfuNa39Yuv761ncATJ2xGoLIf0Aw+Y/q5D8AmDA5kAFc/fD1Xy5yIACbYqyGEPIf EE3+ozL5DwBm4KxTVrbva33EnMiBAGyesRoCyH9ANPmPAch/ADALfflnciB1yYEAbI6xGgLIf0Aw +Y/q5D8AmBE5kAHIgQBsnLEaZm7neZfvlP+ATF0p35X/qEv+A4AZkgOpTA4EYOOM1TBjF5393tO6 vv9qkf+ARM8fWSrvk/+oS/4DgFmSA6lODgRgY4zVMGPyHxBM/qM6+Q8AZkwOZAByIADrZ6yGmZL/ gFzyH/XJfwAQQA6kMjkQgPUzVsMMyX9ANPmPAch/ABBBDqQ6ORCA9TFWwwzJf0Aw+Y/q5D8ACCIH MoCrH77+y33pfrf1HQBTYKyGmZH/gFzyH/XJfwAQSA6ksq50fb/UfaDIgQCckLEaZkT+A6L9WP6j vqdPefpjRf4DgDRyINXJgQCsjbEaZkT+A4L1/c3yH3XtvWTfz/V9d03rOwCgATmQAciBAJyYsRpm Qv4Dcsl/1Cf/AQByILXJgQCcmLEaZkD+A6LJfwxA/gMAihzIAORAAI7PWA0zIP8BweQ/qpP/AIAX yYEMQA4E4NiM1TBx8h+QS/6jPvkPAHgFOZDK5EAAjs1YDRMm/wHR5D8GIP8BAK9CDqQ6ORCAV2es hgmT/4Bg8h/VyX8AwDHJgQxADgTglYzVMFHyH5BL/qM++Q8AOCE5kMrkQABeyVgNEyT/AdHkPwYg /wEAayAHUp0cCMDLGathgg5t2f7pIv8BkbpSbpL/qEv+AwDWTA5kAHIgAH/DWA0Ts/O8y3d2Xdnb +g5g8bpSvnv66565u/Udc3I0//H1Iv8BAGslB1KZHAjA3zBWw4TIf0A0+Y8BHM1//L3WdwDApMiB VCcHAvACYzVMiPwH5JL/qE/+AwA2TA5kAHIgAMZqmAz5D8gl/1Gf/AcAbJocSGVyIADGapgE+Q+I Jv8xAPkPAKhADqQ6ORAgnbEaJkD+A3LJf9Qn/wEA1ciBDEAOBEhmrIaRk/+AXPIf9cl/AEB1Z518 ZPv+1kfMiRwIkMxYDSN2NP9xX5H/gEQ/Xjmy5Qr5j7rkPwCgvq6UX5MDqevab1z7w77vrmt9B8Ci GathxI7mP/7j1ncAi9eVctM3//ArT7a+Y07kPwBgMHIgA7jmd669Rw4ESGOshpGS/4Bc8h/1yX8A wODkQCqTAwESGathhOQ/IJr8xwDkPwBgeHIg9cmBAGmM1TBC8h+QS/6jvl2X7j+777trW98BAAHk QAYgBwIkMVbDyMh/QC75j/quuujuHUt9+WopZUvrWwAghBxIZXIgQBJjNYyI/AdE+9GR7sge+Y+6 5D8AYPHkQOqTAwFSGKthROQ/IFdXys3feuzrf9n6jjmR/wCAZuRABiAHAiQwVsNIyH9ALvmP+uQ/ AKA5OZDK5ECABMZqGIGdb7nydPkPiPWc/Ed9T538zMeL/AcANCUHUp8cCDB3xmoYgx2HPlXkPyBS V8qH5T/q2nXp/rNLKR9qfQcAIAcyBDkQYM6M1dCY/Afkkv+oT/4DAEZHDqQyORBgzozV0JD8B0ST /xiA/AcAjI8cSH1yIMBcGauhJfkPiCX/UZ/8BwCMlhzIAORAgDkyVkMj8h+QS/6jPvkPABg9OZDK 5ECAOTJWQwPyHxBN/mMA8h8AMH5yIPXJgQBzY6yGBrqTD326yH9ApL50N8t/1CX/AQCTIQcyADkQ YE6M1bBgO8+7fGfpy57WdwCL15Xy3Z983dOfa33HnMh/AMDkyIFUJgcCzImxGhZI/gOiyX8MQP4D AKZHDqQ+ORBgLozVsEDyH5BL/qM++Q8AmCw5kAHIgQBzYKyGBZH/gFzyH/XJfwDA5MmBVPaSHMhT rW8B2ChjNSyA/AdEk/8YgPwHAEyfHEh9R3Mg17e+A2CjjNWwAPIfkEv+oz75DwCYDTmQAciBAFNm rIaBXXjungvkPyCT/Ed98h8AMDtyIJXJgQBTZqyGAe18y5Wn96X7apH/gETP9Vv6y+Q/6pL/AID5 kQOpTw4EmCpjNQxI/gNy9aW7+dF/fuD/bH3HnMh/AMBsyYEMQA4EmCJjNQxE/gNyyX/UJ/8BALN3 1ilHtt/e+og56UrXd4e3XFFK+f9a3wKwVsZqGID8B0ST/xiA/AcARPhVOZC6rvmfr/l/ulJuaH0H wFoZq2EA8h+QS/6jPvkPAIghBzKADz5y3b1yIMBUGKuhMvkPyCX/UZ/8BwDEkQOpTA4EmBJjNVQk /wHR5D8GIP8B0e4spfyr1kcATciBVCYHAkyFsRoqkv+AXPIf9cl/QLL+ye60gx9d6bdcVkr5cetr gIWTAxmAHAgwBcZqqET+A3LJf9Qn/wHRDndl6bIDB5Z//MDDNzxZuu621gcBTciBVCYHAkyBsRoq kP+AaPIfA/irk569tch/QKSulDsPfOPGF/MfP/x/n7+jyIFAql/bc/G+C1ofMSdyIMDYGauhAvkP yCX/Ud+uS/ef3XX9Na3vAFronyynHbz1pX/yne8sH5YDgVhd33X3yIHUJQcCjJmxGjZJ/gNyyX/U J/8B0V7Mf6z+CzkQiHamHEhdciDAmBmrYRPkPyCa/McA5D8g1+r8x2pyIBBNDqQyORBgrIzVsAny H5BL/qM++Q9I9sr8x2pyIBBNDmQAH3zkuntLX/7X1ncAvJSxGjZI/gNyyX/UJ/8B0Y6Z/1hNDgSi yYFU1pWuL0e2vq/IgQAjYqyGDZD/gGjyHwOQ/4BcJ8p/rCYHAtHkQCqTAwHGxlgNG9CddPAzRf4D MnX9TfIfdcl/QLIT5z9WkwOBaHIgA5ADAcbEWA3rdOG5ey4opbus9R3A4nWlfPc1f+vZz7e+Y07k PyDamvMfq8mBQDQ5kMrkQIAxMVbDOsh/QDT5jwHIf0Cu9eY/VpMDgWhyIJXJgQBjYayGdZD/gGDy H9XJf0Cy9ec/VpMDgWhd33X3XP7OO36i9SFzIgcCjIGxGtZI/gNyyX/UJ/8B0Tac/1hNDgSinXlk 65H9rY+YEzkQYAyM1bAG8h8QTf5jAPIfkGuz+Y/V5EAgmhxIZXIgQGvGalgD+Q8IJv9RnfwHJNt8 /mM1ORCIJgcyADkQoCVjNZyA/Afkkv+oT/4DolXLf6wmBwLR5EAqkwMBWjJWw3HIf0A0+Y8ByH9A rtr5j9XkQCCaHEhlciBAK8ZqOA75Dwgm/1Gd/Ackq5//WE0OBKLJgQxADgRowVgNxyD/AcG68oT8 R13yHxBtsPzHanIgEE0OpDI5EKAFaQN4FTvfcuXp3UmH/nXxqhoSPVe29D/jVXVduy++/c6u669r fQfQQN/v+9rDN394UR93/vnLW9/wU9ufKKX8/UV9JjAafdf3/+jAwzc/2vqQOfnMJb/194/0K2e2 vgPIYKyGV3HBuXvuL6Xb0/oOoIGu/+Cjjx34bOsz5mTXpfvPXurL48WragjUP9mddujnFvGq+qV2 XXzH313qjvxRKeWkRX4uMAo/2HJ4y5vv+59ueLr1IQCsnwwIrCL/AcHkP6qT/4BoC8t/rPbAwzc8 2ZcyaCMbGK0zj2w7cnvrIwDYGGM1vMTOt1x5el+6rxa/OoBEz5Wlfs+DDz54pPUhc/JXJz17aynl 77W+A2ig7+848I0b/1Wrj/+3/+7gnaWUZp8PNNSXX91z8b4LWp8BwPoZq+ElupMOfqboVEOmrr9J p7quXZfuP7vr+mta3wG00D/ZnX6o6X90+J3vLB9e6bdcVkpZ+MtuoLmu77p7Ln/nHT/R+hAA1sdY DUddcO6ef6xTDaHkP6qT/4BozfIfq8mBQDQ5EIAJMlZDeSH/UUr3pdZ3AE3IfwzgqVOeua3If0Cm xvmP1eRAIJgcCMDkGKuhyH9ANPmP6nZduv/s0perW98BtNA+/7GaHAhEkwMBmBhjNfHkPyCY/Ed1 8h8QbTT5j9XkQCCaHAjAhBiriSb/AdHkPwYg/wHBRpb/WE0OBILJgQBMhrGaaPIfEEz+ozr5D0g2 vvzHanIgEE0OBGAijNXEkv+AYPIf1cl/QLTR5j9WkwOBaHIgABNgrCaS/AdEk/8YgPwHBBt5/mM1 ORAIJgcCMHrGaiLJf0Aw+Y/q5D8g2fjzH6vJgUA0ORCAkTNWE0f+A4LJf1Qn/wHRJpP/WE0OBKLJ gQCMmLGaKPIfEE3+YwDyHxBsYvmP1eRAIJgcCMBoGauJ0p106LNF/gMidX25Uf6jrj2X3PYL8h+Q anr5j9XkQCCaHAjASBmrifFC/qNc1voOoIGuPHHOE2+Q/6joqovu3tH3S/IfkGmy+Y/V5EAgmhwI wAgZq4kg/wHRnitL/Z7lsrzS+pA5eeqUZ24rXfnPW98BNDDx/MdqciAQTA4EYHSM1USQ/4Bc8h/1 yX9AsunnP1aTA4FociAAI2OsZvbkPyCY/Ed18h8QbTb5j9XkQCCaHAjAiBirmTX5D4gm/zEA+Q+I 9ok55T9WkwOBYHIgAKNhrGbW5D8gl/xHffIfkKx/sjvt4L7WVwxJDgSiyYEAjISxmtnaec4Vby/y H5BJ/qM6+Q+INtv8x2pyIBBNDgRgBIzVzNLOt1x5ere0Iv8BmeQ/BiD/AdFmnf9YTQ4EgsmBADRn rGaWupMOfbb05T9qfQewePIf9cl/QLL55z9WkwOBaHIgAI0Zq5kd+Q8IJv9RnfwHRIvJf6wmBwLR 5EAAGjJWMyvyHxBN/mMA8h8QLSr/sZocCASTAwFoxljNrMh/QC75j/rkPyBZXv5jNTkQiCYHAtCI sZrZkP+AYPIf1cl/QLTY/MdqDzx8w5OldB9vfQfQxJkrWw9/ovURAGmM1cyC/AdEk/8YwFMnP7tP /gNiRec/Vvvhv3v+riIHApH60v2KHAjAYhmrmQX5D8gl/1Hfnktu+4VS+g+2vgNoQf5jNTkQiCYH ArBgxmomT/4Dgsl/VCf/AdHkP45BDgSiyYEALJCxmkmT/4Bo8h8DkP+AaPIfxyEHArnkQAAWx1jN pMl/QC75j/rkPyCZ/MeJyIFANDkQgAUxVjNZ8h8QTP6jOvkPiCb/sUZyIBBNDgRgAYzVTJL8B0ST /xiA/AdEk/9Yh6M5kH/Z+g5g8frS/cpl7779wtZ3AMyZsZpJkv+AXPIf9cl/QLC+/Jn8x/p85zvL h7uuyIFApq6s9F+WAwEYjrGayZH/gGDyH9XJf0C0wytLK/IfG3DgoZv+XA4EYsmBAAzIWM2kyH9A NPmPAch/QLRPPPDQh/+31kdMlRwI5JIDARiOsZpJWTrp0N3yH5Cp7/vflP+oS/4Dgsl/bJocCEST AwEYiLGaydh5zhVv70vZ3foOoIGuPHHeE2d+ofUZcyL/AdHkPyqRA4FociAAAzBWMwnyHxBN/mMA 8h8QTf6jIjkQyCUHAlCfsZpJkP+AXPIf9cl/QDD5j+rkQCCaHAhAZcZqRk/+A4LJf1Qn/wHR5D8G IgcC0eRAACoyVjNq8h8QTf5jAPIfkKsv/e3yH8ORA4FcciAA9RirGTX5D8gl/1Gf/AcE68ufLZ12 aH/rM+ZMDgSiyYEAVGKsZrTkPyBZ97j8R13yHxBN/mNB5EAgmhwIQAXGakZJ/gOiPbe00sl/VCb/ AbnkPxZLDgRyyYEAbJ6xmlGS/4Bcfd//5u9+96v/V+s75kT+A4LJfyycHAhEkwMB2CRjNaMj/wHJ 5D9qk/+AaPIfjciBQDQ5EIBNMFYzKvIfEE3+YwDyH5BL/qMtORDIJQcCsHHGakZF/gNyyX/UJ/8B wfryZ6f/6Cf2tT4jmRwIRJMDAdggYzWjIf8ByeQ/apP/gGiHV5ZWLvvc//Lrz7c+JJ0cCESTAwHY AGM1oyD/AdHkPwYg/wG55D/GRQ4EcsmBAKyfsZpRkP+AXPIf9cl/QDD5j9GRA4FociAA62Sspjn5 D0gm/1Gb/AdEk/8YqQMP3fTnXVc+1voOoIkzj2w9ckfrIwCmwlhNU/IfEE3+YwBPn/TMfvkPyCT/ MW7PLv0dORDI9U/lQADWxlhNU/IfkEv+o749l9z2C31XfqP1HUAD8h+j9+CDv3xEDgRiyYEArJGx mmbkPyCZ/Edt8h8QTf5jIuRAIJocCMAaGKtpQv4Dosl/DED+A3LJf0yLHAhEkwMBOAFjNU3If0Au +Y/65D8gmPzH5MiBQDQ5EIATMFazcPIfkEz+ozb5D4gm/zFRciAQTQ4E4DiM1SyU/AdEk/8YgPwH 5JL/mDY5EIgmBwJwDMZqFqrbcfhz8h+QqS/lBvmPunZfvP+t8h8Q63s/2nLottZHsHFyIBCt61f6 e+RAAF7JWM3C7DznireXrt/V+g6ghe7x8x5/wxdbXzEnV110946ulK8U+Q9IdHilW7niwQeXD7Y+ hM2RA4FcXSlvkAMBeCVjNQsh/wHR5D8GIP8BueQ/5kUOBKLJgQCsYqxmIeQ/IJf8R33yHxBN/mNm 5EAgmhwIwCrGagYn/wHJ5D9qk/+AaPIfMyUHArnkQABezljNoOQ/IJr8xwDkPyBYX/bLf8yXHAhE kwMBOMpYzaDkPyCX/Ed98h8Q7XvPbT24r/URDEcOBKLJgQAcZaxmMBeet/cX5T8glfxHbXv2LJ8k /wGx5D9CyIFALjkQgBcYqxnEzrdceXpfym+3vgNoQv5jCH+1fZ/8B4SS/4giBwLR5ECAeMZqBiH/ AbnkP+qT/4Bo8h9h5EAgmhwIEM9YTXXyH5BM/qM2+Q+IJv8RSg4EcsmBAOmM1VQl/wHR5D+GIP8B ueQ/osmBQDQ5ECCWsZqq5D8gl/xHffIfEE3+I5wcCESTAwFiGaupRv4Dksl/1Cb/AdHkPyilyIFA MjkQIJWxmirkPyCa/McQ5D8gl/wHL3Hmmw7eWUp5vPUdQBNyIEAcYzVVyH9ALvmP+uQ/IJr8By+z vLy80nXlfUUOBBLJgQBxjNVsmvwHJJP/qE3+A6LJf/Cq5EAgV1fKG45sO3xn6zsAFsVYzaacf/6e 18h/QCz5jwH0T+/YL/8BoeQ/OA45EAjWdx+QAwFSGKvZlG0Hl+6W/4BM8h/17b54/1tL3/966zuA JuQ/OC45EIgmBwLEMFazYfIfkEz+ozb5D4h2uKx0l8t/cCIHHrrpz/u+W259B7B4ciBACmM1GyL/ AdHkPwYg/wHB+rL/a4/c+L+3PoNpeONPP39XkQOBTHIgQABjNRsi/wG55D/qk/+AaPIfrIscCEST AwFmz1jNusl/QDL5j9rkPyCa/AcbIgcCueRAgLkzVrMu8h8QTf5jAPIfEEz+g02QA4FgciDAjBmr WZdth7rPyX9AqK67Xv6jLvkPiCb/wabIgUA0ORBgtozVrNmF5+39xVLK/9D6DqCF7vFzH/vbflVR 0Z49yyd1Xf/VIv8BieQ/qEIOBHLJgQBzZaxmTeQ/IJr8xwD6p3fsL6X7u63vABavK/0++Q9qkQOB YH33gV2X7vtHrc8AqMlYzZrIf0Aw+Y/q5D8g2vee3XJof+sjmA85EIjWdX33ZTkQYE6M1ZyQ/Ack k/+oTf4Dosl/MAg5EMglBwLMjbGa45L/gGjyHwOQ/4Bc8h8MSQ4EgsmBADNirOa45D8gmPxHdfIf EE3+g0HJgUA0ORBgNozVHJP8B0T7zqOP3ffF1kfMyXve86mTu64cKPIfkEj+g4WQA4FcciDAXBir eVXyHxDtuaWVpfeXUvrWh8zJKSvP7yul/Get7wAWT/6DRZIDgWByIMAMGKt5VfIfEEz+ozr5D4gm /8FCyYFANDkQYPKM1byC/AdEk/+o7Mp3LJ8i/wGx5D9oQg4EcsmBAFNnrOZlzj9/z2v6vnyp9R1A E/IfA3h++47bivwHRJL/oCU5EAgmBwJMmLGal9l2qPtcKeX1re8AGpD/qE7+A6LJf9DUS3IgP2p9 C7BwciDAZBmreZH8B0ST/6hM/gOiyX8wCkdzIB9rfQeweHIgwFQZqymlyH9AOPmPAch/QC75D8ZE DgSCyYEAE2SsppQi/wHR5D+qk/+AaPIfjIocCESTAwEmx1iN/Adkk/+oTP4Dosl/MEpyIJBLDgSY GmN1OPkPiPas/Ed9z2/bvq/If0Ak+Q/GTA4EgsmBABNirA4n/wHBuu4G+Y+6dl+8/62llKta3wEs Xl/Kn8p/MGZyIBBNDgSYDGN1MPkPiCb/UZn8B0Q73K10V8h/MHYHHrrpz0spy63vABavK+UNK1uP 3NX6DoATMVaHkv+AaPIfA5D/gFzyH0zJWW8++FtFDgQi9aVcKQcCjJ2xOpT8BwST/6hO/gNyyX8w NXIgEE0OBBg9Y3Ug+Q+IJv9RmfwHRJP/YJLkQCCXHAgwdsbqMPIfEE3+YwDyH5BL/oMpkwOBXHIg wJgZq8PIf0Aw+Y/q5D8gl/wHUycHAtHkQIDRMlYHkf+AaPIflcl/QDT5D2ZBDgRyyYEAY2WsDiH/ AdHkPwYg/wG55D+YEzkQyCUHAoyRsTrE1kPl80X+AyJ1XX+9/Edd8h+QS/6DuZEDgWhyIMDoGKsD XHje3l/sSvfe1ncATXzn9x478Nutj5iTF/If3deK/Ackkv9gluRAIJccCDA2xuqZk/+AaPIfA3gh /9H/p63vABZP/oM5eyEH0j/W+g5g8eRAgDExVs+c/Afkkv+oT/4Dcsl/MHfLy8srW7asyIFAJjkQ YDSM1TMm/wHR5D8qk/+AaPIfRLjvwVv+osiBQCQ5EGAsjNUzJf8B0eQ/BiD/Abn60t0m/0EKORDI JQcCjIGxeqbkPyCX/Ed98h+Qqy/lT3+05fnbW98BiyIHAtHkQIDmjNUzdOF5e94h/wGZ+lJ+X/6j LvkPiCb/QSQ5EMglBwK0ZqyemRfyH52hCjI9u9KvyH9UJv8BueQ/SCYHArnkQICWjNUzI/8Bubqu v/7bT3zt/259x5zIf0Au+Q/SyYFANDkQoBlj9YzIf0Au+Y/65D8gmvwHFDkQSCYHArRirJ4J+Q+I Jv8xAPkPyCX/AX9DDgRyyYEALRirZ0L+A3LJf9Qn/wG55D/g5eRAIFrX9d2X33vR8mmtDwFyGKtn QP4Dcsl/1Cf/AdHkP+BVyIFArq6UN2w7efudre8AchirJ07+A6LJfwzg4NYd++U/IJP8BxybHAjk kgMBFslYPXHyH5BL/qO+3Rfvf2vf9f+s9R3A4sl/wPHJgb4v5vEAABR9SURBVEA0ORBgYYzVEyb/ AbnkP+qT/4Bo8h+wBnIgkEsOBFgUY/VEyX9ANPmPAch/QC75D1g7ORDIJQcCLIKxeqLkPyCX/Ed9 8h+QS/4D1kcOBKJ1S3331T3vWn5N60OA+TJWT5D8B+SS/6hP/gOiyX/ABtz34C1/0XX9R1vfATTx +n5p2x2tjwDmy1g9MfIfEE3+YwDyH5BL/gM27sw3HfqkHAik6t4vBwIMxVg9MfIfkEv+oz75D8gl /wGbIwcC0eRAgMEYqydE/gNyyX/UJ/8B0eQ/oAI5EIgmBwIMwlg9EfIfEE3+YwDyH5BL/gPqkQOB ZHIgQH3G6onYfqj7QpH/gEh9X66T/6hr77tvO0f+AzLJf0BdciAQTQ4EqM5YPQEXnrfnHX0p/6T1 HcDi9aX8/jefuP9Lre+YkyvfsXzKysqWA0X+AxLJf8AA5EAgmhwIUJWxeuTkPyCa/McA5D8gl/wH DEcOBJLJgQD1GKtHTv4Dcsl/1Cf/AbnkP2BYciAQTQ4EqMZYPWLyH5BL/qM++Q+IJv8BCyAHAtHk QIAqjNUjJf8B0eQ/BiD/AcG6cqv8ByyGHAgk696/5+Lb/5vWVwDTZqweKfkPyCX/UZ/8B+TqS/nT HWecIf8BCyIHAtG6vuu/IgcCbIaxeoTkPyCX/Ed98h8Q7XC30l1xzz0fONT6EEgiBwLR5ECATTFW j8zbfn73GaXv7ml9B9CE/McA5D8gmPwHNCMHAsnkQICNM1aPzJZtW+7uS/kPW98BLJ78R33yH5BL /gPakgOBaHIgwIYZq0dE/gNyyX/UJ/8B0eQ/YATkQCCaHAiwIcbqkZD/gGjyHwOQ/4Bg8h8wGnIg kEwOBFg/Y/VIyH9ALvmP+uQ/IJf8B4yLHAhEkwMB1s1YPQLyH5BL/qM++Q+IdnhL6S+X/4BxkQOB aHIgwLoYqxuT/4Bo8h8DkP+AYF259f5v3PxHrc8AXkkOBJLJgQBrZ6xuTP4Dcsl/1Cf/AbnkP2Dc 5EAgmhwIsGbG6obkPyCX/Ed98h8QTf4DJkAOBKLJgQBrYqxuRP4Dosl/DOD57dtvl/+AUPIfMBly IJBMDgQ4MWN1I/IfkEv+o769777tnNIX+Q8IJP8B0yIHAtHkQIATMlY3IP8BueQ/6ntJ/sO/aZBH /gMmSA4EosmBAMfli/2CyX9ANPmPAch/QDD5D5gsORBIJgcCHJuxesHkPyCX/Ed98h+QS/4Dpk0O BKLJgQDHZKxeIPkPyCX/UZ/8B0ST/4AZuO/BW/6i9OUjre8Amnj9ypbtd7Y+AhgfX/AXRP4Dosl/ DED+A4LJf8BsnPXTBz8lBwKZur68Tw4EWM1YvSBLW7d8Tv4DUnXXyn/UJf8BueQ/YF7kQCCaHAjw CsbqBbjwvD3vKF3571vfASxeX8rvP/r4fV9ufcecyH9ANPkPmCE5EIgmBwK8jC/6A5P/gGjyHwOQ /4BcXek+Lv8B8yQHArnkQICXMlYPTP4Dksl/1Cb/Abn6Uv50+2t/6hOt7wCGIQcC0eRAgBcZqwck /wG55D/qk/+AaPIfEEAOBKLJgQClFF/4ByP/AdHkPwYg/wG55D8ghxwI5JIDAUoxVg9G/gOSyX/U Jv8BueQ/IIscCESTAwGM1UOQ/4Bc8h/1yX9ANPkPCCQHAtHkQCCcL/6VyX9ANPmPAch/QC75D8gl BwK55EAgm7G6MvkPSCb/UZv8B+SS/4BsciAQTQ4EghmrK7rg3MvfKf8Bsb4t/1GX/AdEk/8A5EAg mxwIhDIAVPK2n999Rld6QxVkevZIv3Jlkf+oSv4Dcsl/AH9NDgRyyYFAJmN1JfIfkEz+ozb5DwjW lT+R/wD+mhwIRJMDgUDG6grkPyCa/Edl8h8Q7fBS318h/wG8lBwIRJMDgTCGgE2S/4Bo8h8DkP+A XPIfwLHIgUAuORDIYqzeJPkPSCb/UZv8BwST/wCOQw4EosmBQBBj9SbIf0A0+Y/K5D8gmvwHcEJy IBBNDgRCGAQ2SP4Dosl/DODH27Z/Qv4DMsl/AGslBwK55EAgg7F6g+Q/IJn8R217333bOV0pv9b6 DqAB+Q9gHeRAIJocCAQwVm+A/AdEk/+oTP4Doh2S/wDWSw4EosmBwMwZBtZJ/gOiyX8MQP4DcnWl u1X+A9gIORDIJQcC82asXif5D0gm/1Gb/AcEk/8ANkEOBKLJgcCMGavXQf4Dosl/VCb/AdHkP4BN kwOBaHIgMFMGgjWS/4Bo8h8DkP+AXPIfQC1yIJBLDgTmyVi9Rkvbt35e/gNifUj+o67LLtl/rvwH hJL/ACqSA4FociAwQ8bqNbjg3MvfWfr+v2t9B9DEtx99/P57Wh8xJ1e+Y/mUUsqB4t8gSCT/AVR3 34O3/EUp/S2t7wCaeH2/tO2u1kcA9RgKTkD+A6LJfwzghfxH+Tut7wCa+Lj8BzCEs9586NNyIJCq kwOBGTFWn4D8B0ST/6hM/gOCdeVPdrz2jDtanwHMkxwIZJMDgfkwVh+H/AdEk/+oTP4Dosl/AIOT A4FociAwEwaDY5D/gGjyHwOQ/4Bo8h/AQsiBQDI5EJgDY/UxyH9ANPmPyuQ/IJj8B7BAciCQTQ4E ps9Y/SrkPyCa/Edl8h8Q7WBf+svkP4BFkgOBaHIgMHGGg1XkPyCa/McA5D8g2q1ff+jm77U+Asgj BwLJ5EBgyozVq8h/QDT5j8rkPyCY/AfQkBwIZJMDgekyVr+E/AdEk/+oTP4Doh3sDi/tlv8AWpID gWhyIDBRBoSj3vbzu88opTdUQaZn+657f5H/qEr+A6LdeuB3fvNftz4C4Kw3H/p06csftL4DaKF7 3+537buo9RXA+hirj1ravvXzpZT/oPUdQBMf+uZj932/9RFzIv8BweQ/gBFZXl5e6UuRA4FQ3VJ3 rxwITIuxush/QDj5j8rkPyCa/AcwOl9/+Ka/lAOBWHIgMDHxQ4L8B0ST/xiA/AdEk/8ARkkOBJLJ gcCUxI/V8h8QTf6jMvkPCCb/AYyYHAhkkwOB6Ygeq+U/IJr8R2XyHxBN/gMYPTkQiCYHAhMROyjI f0A0+Y8BPL9t+x1F/gNSyX8AkyAHAsnkQGAKYsdq+Q+IJv9R2WWX7D+3lPKrre8AGpD/ACZEDgSy dUvdvf/k7bf/ZOs7gGOLHKvlPyCa/Edl8h8QTf4DmBw5EIj2+m07Vu5sfQRwbHHDgvwHRJP/GID8 B0ST/wAmSQ4EksmBwJjFjdXyHxBN/qMy+Q8IJv8BTJgcCGSTA4Hxihqr5T8gmvxHZfIfEE3+A5g8 ORCIJgcCIxUzMMh/QDT5jwHIf0A0+Q9gFuRAIJkcCIxRzFgt/wHR5D8qk/+AYPIfwIzIgUA2ORAY n4ixWv4Dosl/VCb/AdHkP4DZkQOBaHIgMDKzHxrkPyCa/McA5D8gWNd9XP4DmCM5EEgmBwJjMvux utu25QtF/gMidV13jfxHXfIfEKwrf7LjjJ/y8giYJTkQyCYHAuMx67H6gnMvf2dXyn/b+g6giW// 3mP33dv6iDmR/4Bo8h/A7H394Zv+su/Kh1vfATTx+m07+rtaHwHMeHCQ/4Bo8h8DkP+AYPIfQIg3 vungZ+RAINYVciDQ3mzHavkPyCX/UZ/8BwST/wCCyIFANjkQaG+WY7X8B0ST/6hM/gOiyX8AceRA IJocCDQ2u+FB/gOiyX8MQP4Dgsl/AKHkQCCaHAg0NLuxWv4Dcsl/1Cf/AdH+WP4DSCUHAtnkQKCd WY3VO8/Z+0vyHxBL/qMy+Q+IdrA7snSZ/AeQTA4EosmBQCOzGSDe9vO7z+i68uXWdwBNyH8MQP4D gsl/AJRS5EAgnBwINDCbsVr+A3LJf9Qn/wHR5D8AjpIDgWxyILB4sxir5T8gmvxHZfIfEE3+A2AV ORCIJgcCCzb5IUL+A6LJfwxA/gOCyX8AvCo5EIgmBwILNPmxWv4Dcsl/1Cf/AdHkPwCOQQ4EsnVL 3VfkQGAxJj1Wy39ANPmPyuQ/IJr8B8AJyIFAtNfJgcBiTHaQOP/8K18r/wGx5D8G8Pz27XcW+Q/I JP8BsCZyIBBNDgQWYLJj9dZDhz5f5D8gkvxHfZddsv/c0pdfaX0H0IT8B8AaLS8vr2xZ6vaUUp5t fQuweHIgMLxJjtXyHxBN/qMy+Q+IJv8BsE73PXTj9/uufKT1HUATciAwsMkNE/IfEE3+YwDyHxBM /gNgQ+RAIJocCAxocmO1/Afkkv+oT/4Dosl/AGyQHAhkkwOB4UxqrJb/gGjyH5XJf0A0+Q+ATZID gWhyIDCQyQwU8h8QTf5jAPIfkKsv5WPyHwCbJwcC0eRAYACTGavlPyCX/Ed9e959+/mlL7/a+g6g iT8+6bVneAkEUIEcCGSTA4H6JjFWy39ANPmPyq58x/Ip/Up/bymla30LsHDyHwCVyYFANDkQqGz0 Y7X8B0R7qu+O7C3yH1XJf0Au+Q+AYciBQDQ5EKho9GP1tkOHvlDkPyBS3/fXfvOxr//b1nfMifwH RJP/ABiIHAhkkwOBekY9Vu88Z+8vlVJ+ufUdQBPf/uYTB77S+og5kf+AaPIfAAOTA4FociBQyWjH avkPiCb/MQD5D8gl/wGwGHIgEE0OBCoY7Vgt/wG55D/qk/+AaPIfAAsiBwLZ5EBg80Y5Vst/QDT5 j8rkPyCa/AfAgt330I3fL31/S+s7gCZet3X7ym+1PgKmbHRjtfwHRJP/GID8B+SS/wBo46yfPvRZ ORDI1HXd5XIgsHGjG6vlPyCX/Ed98h8QTf4DoBE5EMgmBwIbN6qxWv4DgvXdt+Q/6tq1665T5T8g lvwHQGNyIBBNDgQ2aDRjtfwHRHuqXzp8eZH/qGrpuUN3FPkPiCT/ATAOciCQSw4ENmY0Y7X8B+SS /6hP/gOiyX8AjIQcCGSTA4H1G8VYLf8BweQ/qpP/gGjyHwAjIwcC0eRAYJ2aj9XyHxBN/mMA8h+Q S/4DYJzkQCCXHAisT/OxWv4Dcsl/1Cf/AdHkPwBGSg4EssmBwNo1HavlPyCY/Ed18h8Q7Xn5D4Bx kwOBaHIgsEbNxmr5D4gm/zEA+Q/I1ZfycfkPgPE766cPfbaU/p+3vgNYPDkQWJtmY7X8B+SS/6hP /gOiyX8ATMTy8vLKlm5pb5EDgUhyIHBiTcZq+Q8IJv9RnfwHRJP/AJgYORCIJgcCJ7DwsVr+A6LJ fwxgy7MH7yzyHxBJ/gNgmuRAIJccCBzfwsdq+Q/IJf9R3553335+X7pfaX0H0IT8B8BEyYFANjkQ OLaFjtXyHxBM/qM6+Q+IJv8BMHFyIBBNDgSOYWFjtfwHRJP/GID8ByTrPib/ATB9ciCQSw4EXt3C xmr5D8gl/1Gf/AdE++Mdr/0pL3EAZuAlOZBnWt8CLJ4cCLzSQsZq+Q8IJv9RnfwHRJP/AJiZozmQ j7S+A2hCDgRWGXyslv+AaPIfA5D/gGTyHwBzJAcCueRA4OUGH6u3HTr8xSL/Aak+JP9R1+5L9v0D +Q+IJf8BMFNyIJBNDgT+xqBj9Qv5j/49Q34GMFJ9961HH7//q63PmJNdu+46tSud/Adkkv8AmDk5 EIgmBwJHDTZWy39ANPmPARzNf/wnre8AWpD/AEggBwK55EDgBYON1fIfEE3+ozL5D4gm/wEQQg4E ssmBwEBjtfwHBJP/qE7+A6I9v9L3u+U/AHLIgUA0ORDiVR+r5T8gmvzHAOQ/IFn3sQcevvn/aH0F AIslBwK55EBIV32slv+AaPIflcl/QDT5D4BQciCQTQ6EZFXHavkPCCb/UZ38B0ST/wAId99DN36/ K+WW1ncATbxu247+k62PgBaqjdXyHxBN/mMA8h+QTP4DgFLOfPPBu+VAINZeORASVRur5T8gmvxH ZfIfEE3+A4BSihwIpJMDIVGVsVr+A4LJf1Qn/wHR5D8AeBk5EIgmB0KcTY/V8h8QTf5jAPIfkEz+ A4BXkgOBaHIgRNn0WC3/AdHkPyqT/4Bo8h8AvCo5EMgmB0KSTY3V8h8QTP6jOvkPiCb/AcBxyYFA NDkQYmx4rJb/gGjyHwOQ/4Bk8h8AnJgcCETbu+fS/f+49REwtA2P1fIfEE3+ozL5D4gm/wHAmiwv L6+sbFnZU+RAIFLfl3vlQJi7DY3V8h8QTP6jOvkPiCb/AcC6PPDgLf9GDgRiyYEwe+seq+U/IJr8 xwCWnj10V5H/gEhdV5blPwBYLzkQiCYHwqyte6yW/4Bo8h+V7b5k3z8opfzT1ncATfzx9jPO8DIG gHWTA4FsciDM2brGavkPCCb/UZ38B0ST/wBgU+RAIJocCLO15rFa/gOiyX8MQP4Dcsl/AFCDHAhE kwNhltY8Vst/QDT5j8rkPyCa/AcAVciBQDY5EOZoTWO1/AcEk/+oTv4Dosl/AFCVHAhEkwNhdk44 Vst/QDT5jwHIf0Au+Q8AhiAHAtH27r74E7/U+gio5YRjtfwH5OpKd438R13yHxBN/gOAQciBQLau W/miHAhzcdyxeue5l/+y/AeE6rtv/d7j993X+ow5kf+AaPIfAAxKDgSiyYEwG8ccq88//8rXdqW/ e5HHAKMh/zEA+Q/IJf8BwCLIgUA0ORBm4ZhjtfwH5JL/qE/+A6L9kfwHAIsgBwLZ5ECYg1cdq+U/ IJj8R3XyHxDt+ZW+v0z+A4BFkQOBaHIgTN4rxmr5D4gm/zEA+Q/IJf8BQAtyIBBNDoRJe8VYLf8B ueQ/6pP/gGjyHwA0IQcC2eRAmLKXjdXyHxBM/qM6+Q+IJv8BQFNyIBBNDoTJenGslv+AaPIfA5D/ gFzyHwCMgRwIRJMDYZJeHKvlPyCX/Ed98h8QTf4DgFGQA4FsciBM0VIp8h+QrCvlm/Ifdcl/QDT5 DwBG5YEHb/k3fdd/uPUdQBOv27ajfKr1EbAeS0fzH59rfQjQxFMr3ZErivxHVfIfkEv+A4AxeuOb Dn1ODgRS9XvkQJiSpaP5j3+/9SHA4sl/1Cf/AdHkPwAYJTkQyCYHwpT8/yhGfoCocymlAAAAAElF TkSuQmCC "
       id="image1261"
       x="295.18854"
       y="204.83641" />
  </g>
</svg>
