<?xml version="1.0" encoding="UTF-8" standalone="no"?>
<!DOCTYPE svg PUBLIC "-//W3C//DTD SVG 1.1//EN"
 "http://www.w3.org/Graphics/SVG/1.1/DTD/svg11.dtd">
<!-- Generated by graphviz version 12.2.0 (0)
 -->
<!-- Pages: 1 -->
<svg width="278pt" height="167pt"
 viewBox="0.00 0.00 278.00 167.00" xmlns="http://www.w3.org/2000/svg" xmlns:xlink="http://www.w3.org/1999/xlink">
<g id="graph0" class="graph" transform="scale(1 1) rotate(0) translate(4 163)">
<!-- ^ -->
<g id="node1" class="node">
<title>^</title>
<ellipse fill="none" stroke="black" cx="135" cy="-126" rx="27" ry="18"/>
<text text-anchor="middle" x="135" y="-121.33" font-family="Times,serif" font-size="14.00">^</text>
</g>
<!-- A -->
<g id="node2" class="node">
<title>A</title>
<ellipse fill="none" stroke="black" cx="243" cy="-126" rx="27" ry="18"/>
<text text-anchor="middle" x="243" y="-121.33" font-family="Times,serif" font-size="14.00">A</text>
</g>
<!-- ^&#45;&gt;A -->
<g id="edge1" class="edge">
<title>^&#45;&gt;A</title>
<path fill="none" stroke="black" d="M155.06,-138.57C170.97,-142.05 193.5,-142.67 211.77,-140.43"/>
<polygon fill="black" stroke="black" points="212.27,-143.9 221.55,-138.8 211.11,-136.99 212.27,-143.9"/>
<text text-anchor="middle" x="183.06" y="-145.7" font-family="Times,serif" font-size="14.00">&gt;</text>
</g>
<!-- v -->
<g id="node4" class="node">
<title>v</title>
<ellipse fill="none" stroke="black" cx="135" cy="-18" rx="27" ry="18"/>
<text text-anchor="middle" x="135" y="-13.32" font-family="Times,serif" font-size="14.00">v</text>
</g>
<!-- ^&#45;&gt;v -->
<g id="edge2" class="edge">
<title>^&#45;&gt;v</title>
<path fill="none" stroke="black" d="M146.69,-109.6C151.2,-92.63 151.95,-65.83 148.94,-45.59"/>
<polygon fill="black" stroke="black" points="152.42,-45.16 147.03,-36.04 145.56,-46.53 152.42,-45.16"/>
<text text-anchor="middle" x="146.62" y="-75.82" font-family="Times,serif" font-size="14.00">v</text>
</g>
<!-- A&#45;&gt;^ -->
<g id="edge3" class="edge">
<title>A&#45;&gt;^</title>
<path fill="none" stroke="black" d="M223.69,-113.01C207.59,-109.17 184.35,-108.48 165.7,-110.95"/>
<polygon fill="black" stroke="black" points="165.22,-107.48 155.99,-112.69 166.46,-114.37 165.22,-107.48"/>
<text text-anchor="middle" x="182.96" y="-113.45" font-family="Times,serif" font-size="14.00">&lt;</text>
</g>
<!-- &gt; -->
<g id="node5" class="node">
<title>&gt;</title>
<ellipse fill="none" stroke="black" cx="243" cy="-18" rx="27" ry="18"/>
<text text-anchor="middle" x="243" y="-13.32" font-family="Times,serif" font-size="14.00">&gt;</text>
</g>
<!-- A&#45;&gt;&gt; -->
<g id="edge4" class="edge">
<title>A&#45;&gt;&gt;</title>
<path fill="none" stroke="black" d="M254.69,-109.6C259.2,-92.63 259.95,-65.83 256.94,-45.59"/>
<polygon fill="black" stroke="black" points="260.42,-45.16 255.03,-36.04 253.56,-46.53 260.42,-45.16"/>
<text text-anchor="middle" x="254.62" y="-75.82" font-family="Times,serif" font-size="14.00">v</text>
</g>
<!-- &lt; -->
<g id="node3" class="node">
<title>&lt;</title>
<ellipse fill="none" stroke="black" cx="27" cy="-18" rx="27" ry="18"/>
<text text-anchor="middle" x="27" y="-13.32" font-family="Times,serif" font-size="14.00">&lt;</text>
</g>
<!-- &lt;&#45;&gt;v -->
<g id="edge5" class="edge">
<title>&lt;&#45;&gt;v</title>
<path fill="none" stroke="black" d="M47.06,-30.57C62.97,-34.05 85.5,-34.67 103.77,-32.43"/>
<polygon fill="black" stroke="black" points="104.27,-35.9 113.55,-30.8 103.11,-28.99 104.27,-35.9"/>
<text text-anchor="middle" x="75.06" y="-37.7" font-family="Times,serif" font-size="14.00">&gt;</text>
</g>
<!-- v&#45;&gt;^ -->
<g id="edge6" class="edge">
<title>v&#45;&gt;^</title>
<path fill="none" stroke="black" d="M122.75,-34.4C118,-51.47 117.23,-78.49 120.45,-98.76"/>
<polygon fill="black" stroke="black" points="116.98,-99.27 122.49,-108.32 123.83,-97.81 116.98,-99.27"/>
<text text-anchor="middle" x="112.5" y="-76.32" font-family="Times,serif" font-size="14.00">^</text>
</g>
<!-- v&#45;&gt;&lt; -->
<g id="edge7" class="edge">
<title>v&#45;&gt;&lt;</title>
<path fill="none" stroke="black" d="M115.69,-5.01C99.59,-1.17 76.35,-0.48 57.7,-2.95"/>
<polygon fill="black" stroke="black" points="57.22,0.52 47.99,-4.69 58.46,-6.37 57.22,0.52"/>
<text text-anchor="middle" x="74.96" y="-5.45" font-family="Times,serif" font-size="14.00">&lt;</text>
</g>
<!-- v&#45;&gt;&gt; -->
<g id="edge8" class="edge">
<title>v&#45;&gt;&gt;</title>
<path fill="none" stroke="black" d="M155.06,-30.57C170.97,-34.05 193.5,-34.67 211.77,-32.43"/>
<polygon fill="black" stroke="black" points="212.27,-35.9 221.55,-30.8 211.11,-28.99 212.27,-35.9"/>
<text text-anchor="middle" x="183.06" y="-37.7" font-family="Times,serif" font-size="14.00">&gt;</text>
</g>
<!-- &gt;&#45;&gt;A -->
<g id="edge9" class="edge">
<title>&gt;&#45;&gt;A</title>
<path fill="none" stroke="black" d="M230.75,-34.4C226,-51.47 225.23,-78.49 228.45,-98.76"/>
<polygon fill="black" stroke="black" points="224.98,-99.27 230.49,-108.32 231.83,-97.81 224.98,-99.27"/>
<text text-anchor="middle" x="220.5" y="-76.32" font-family="Times,serif" font-size="14.00">^</text>
</g>
<!-- &gt;&#45;&gt;v -->
<g id="edge10" class="edge">
<title>&gt;&#45;&gt;v</title>
<path fill="none" stroke="black" d="M223.69,-5.01C207.59,-1.17 184.35,-0.48 165.7,-2.95"/>
<polygon fill="black" stroke="black" points="165.22,0.52 155.99,-4.69 166.46,-6.37 165.22,0.52"/>
<text text-anchor="middle" x="182.96" y="-5.45" font-family="Times,serif" font-size="14.00">&lt;</text>
</g>
</g>
</svg>
