<?xml version="1.0" encoding="UTF-8" standalone="no"?>
<svg
   width="1280pt"
   height="720pt"
   viewBox="0 0 451.55557 254"
   version="1.1"
   id="svg8"
   inkscape:version="1.3.2 (091e20ef0f, 2023-11-25)"
   sodipodi:docname="thumbnail_110.svg"
   inkscape:export-filename="thumbnail_110.png"
   inkscape:export-xdpi="57.593498"
   inkscape:export-ydpi="57.593498"
   xmlns:inkscape="http://www.inkscape.org/namespaces/inkscape"
   xmlns:sodipodi="http://sodipodi.sourceforge.net/DTD/sodipodi-0.dtd"
   xmlns:xlink="http://www.w3.org/1999/xlink"
   xmlns="http://www.w3.org/2000/svg"
   xmlns:svg="http://www.w3.org/2000/svg"
   xmlns:rdf="http://www.w3.org/1999/02/22-rdf-syntax-ns#"
   xmlns:cc="http://creativecommons.org/ns#"
   xmlns:dc="http://purl.org/dc/elements/1.1/">
  <defs
     id="defs2">
    <path
       sodipodi:nodetypes="czzc"
       inkscape:connector-curvature="0"
       id="path5167-5-3-6"
       d="m 165.68141,140.85891 c 8.75775,2.20625 -7.63349,52.69351 2.40542,59.60111 10.03891,6.9076 10.02941,-24.36935 19.24342,-17.6398 9.21401,6.72955 15.82865,43.17979 14.69981,64.9465"
       style="fill:none;stroke:#000000;stroke-width:1;stroke-linecap:butt;stroke-linejoin:miter;stroke-miterlimit:4;stroke-dasharray:none;stroke-opacity:1" />
    <clipPath
       id="clip1-3">
      <path
         inkscape:connector-curvature="0"
         id="path1008"
         d="M 0,340.15625 H 481.89062 V 0 H 0 Z m 0,0" />
    </clipPath>
    <clipPath
       id="clipPath8">
      <path
         inkscape:connector-curvature="0"
         d="M 76,2 V 48 H 54 V 71 H 35.580737 c -0.07818,0.665694 -0.141485,1.332869 -0.205737,2 -1.151162,12.530963 1.036422,24.087546 6.0625,33.96875 L 43.125,110 c 1.011403,1.81678 2.191241,3.52297 3.4375,5.1875 1.244725,1.66248 1.685716,2.58262 2.46875,3.6875 C 62.319911,133.81083 82.129473,141 105,141 155.64836,141 198.63299,118.56201 217.65625,68.15625 231.15302,69.54122 244.09968,66.080358 250,54.5625 240.60137,49.138835 228.52163,50.877226 221.5625,54.375 L 240,2 168,48 H 145 V 2 Z"
         id="path10" />
    </clipPath>
    <clipPath
       id="clipPath4558">
      <path
         inkscape:connector-curvature="0"
         d="M 76,2 V 48 H 54 V 71 H 35.580737 c -0.07818,0.665694 -0.141485,1.332869 -0.205737,2 -1.151162,12.530963 1.036422,24.087546 6.0625,33.96875 L 43.125,110 c 1.011403,1.81678 2.191241,3.52297 3.4375,5.1875 1.244725,1.66248 1.685716,2.58262 2.46875,3.6875 C 62.319911,133.81083 82.129473,141 105,141 155.64836,141 198.63299,118.56201 217.65625,68.15625 231.15302,69.54122 244.09968,66.080358 250,54.5625 240.60137,49.138835 228.52163,50.877226 221.5625,54.375 L 240,2 168,48 H 145 V 2 Z"
         id="path4556" />
    </clipPath>
    <clipPath
       id="clipPath4562">
      <path
         inkscape:connector-curvature="0"
         d="M 76,2 V 48 H 54 V 71 H 35.580737 c -0.07818,0.665694 -0.141485,1.332869 -0.205737,2 -1.151162,12.530963 1.036422,24.087546 6.0625,33.96875 L 43.125,110 c 1.011403,1.81678 2.191241,3.52297 3.4375,5.1875 1.244725,1.66248 1.685716,2.58262 2.46875,3.6875 C 62.319911,133.81083 82.129473,141 105,141 155.64836,141 198.63299,118.56201 217.65625,68.15625 231.15302,69.54122 244.09968,66.080358 250,54.5625 240.60137,49.138835 228.52163,50.877226 221.5625,54.375 L 240,2 168,48 H 145 V 2 Z"
         id="path4560" />
    </clipPath>
    <clipPath
       id="clipPath4566">
      <path
         inkscape:connector-curvature="0"
         d="M 76,2 V 48 H 54 V 71 H 35.580737 c -0.07818,0.665694 -0.141485,1.332869 -0.205737,2 -1.151162,12.530963 1.036422,24.087546 6.0625,33.96875 L 43.125,110 c 1.011403,1.81678 2.191241,3.52297 3.4375,5.1875 1.244725,1.66248 1.685716,2.58262 2.46875,3.6875 C 62.319911,133.81083 82.129473,141 105,141 155.64836,141 198.63299,118.56201 217.65625,68.15625 231.15302,69.54122 244.09968,66.080358 250,54.5625 240.60137,49.138835 228.52163,50.877226 221.5625,54.375 L 240,2 168,48 H 145 V 2 Z"
         id="path4564" />
    </clipPath>
    <clipPath
       id="clipPath4570">
      <path
         inkscape:connector-curvature="0"
         d="M 76,2 V 48 H 54 V 71 H 35.580737 c -0.07818,0.665694 -0.141485,1.332869 -0.205737,2 -1.151162,12.530963 1.036422,24.087546 6.0625,33.96875 L 43.125,110 c 1.011403,1.81678 2.191241,3.52297 3.4375,5.1875 1.244725,1.66248 1.685716,2.58262 2.46875,3.6875 C 62.319911,133.81083 82.129473,141 105,141 155.64836,141 198.63299,118.56201 217.65625,68.15625 231.15302,69.54122 244.09968,66.080358 250,54.5625 240.60137,49.138835 228.52163,50.877226 221.5625,54.375 L 240,2 168,48 H 145 V 2 Z"
         id="path4568" />
    </clipPath>
    <linearGradient
       id="linearGradient4702-3">
      <stop
         style="stop-color:#ff0000;stop-opacity:0.58431375;"
         offset="0"
         id="stop4704-1" />
      <stop
         style="stop-color:#ffcc00;stop-opacity:1;"
         offset="1"
         id="stop4706-8" />
    </linearGradient>
    <linearGradient
       id="linearGradient4696-5">
      <stop
         style="stop-color:#ffb638;stop-opacity:1;"
         offset="0"
         id="stop4698-6" />
      <stop
         style="stop-color:#f0ae26;stop-opacity:1;"
         offset="1"
         id="stop4700-2" />
    </linearGradient>
    <clipPath
       id="clip1-3-3">
      <path
         inkscape:connector-curvature="0"
         id="path1008-6"
         d="M 0,340.15625 H 481.89062 V 0 H 0 Z m 0,0" />
    </clipPath>
    <mask
       id="mask0"
       mask-type="alpha"
       maskUnits="userSpaceOnUse"
       x="0"
       y="0"
       width="256"
       height="256">
      <path
         style="clip-rule:evenodd;fill:#ffffff;fill-rule:evenodd"
         inkscape:connector-curvature="0"
         d="m 181.534,254.252 c 4.032,1.571 8.63,1.47 12.7,-0.488 l 52.706,-25.361 c 5.538,-2.665 9.06,-8.271 9.06,-14.42 V 42.0181 c 0,-6.1492 -3.522,-11.7543 -9.06,-14.4193 L 194.234,2.23681 c -5.341,-2.569942 -11.592,-1.940466 -16.279,1.46737 -0.67,0.48682 -1.308,1.03036 -1.906,1.62936 L 75.149,97.3862 31.1992,64.0247 C 27.1079,60.9191 21.3853,61.1735 17.5855,64.63 L 3.48936,77.4525 c -4.64789,4.228 -4.65322,11.5401 -0.01151,15.7749 L 41.5926,128 3.47785,162.773 c -4.64171,4.235 -4.63638,11.547 0.01151,15.775 L 17.5855,191.37 c 3.7998,3.457 9.5224,3.711 13.6137,0.606 l 43.9498,-33.362 100.9,92.053 c 1.596,1.597 3.47,2.8 5.485,3.585 z M 192.039,69.8853 115.479,128 l 76.56,58.115 z"
         id="path994" />
    </mask>
    <filter
       style="color-interpolation-filters:sRGB"
       id="filter0_d"
       x="-21.489599"
       y="40.522499"
       width="298.82199"
       height="236.149"
       filterUnits="userSpaceOnUse">
      <feFlood
         flood-opacity="0"
         result="BackgroundImageFix"
         id="feFlood1013" />
      <feColorMatrix
         in="SourceAlpha"
         type="matrix"
         values="0 0 0 0 0 0 0 0 0 0 0 0 0 0 0 0 0 0 127 0"
         id="feColorMatrix1015" />
      <feOffset
         id="feOffset1017" />
      <feGaussianBlur
         stdDeviation="10.6667"
         id="feGaussianBlur1019" />
      <feColorMatrix
         type="matrix"
         values="0 0 0 0 0 0 0 0 0 0 0 0 0 0 0 0 0 0 0.25 0"
         id="feColorMatrix1021" />
      <feBlend
         mode="overlay"
         in2="BackgroundImageFix"
         result="effect1_dropShadow"
         id="feBlend1023" />
      <feBlend
         mode="normal"
         in="SourceGraphic"
         in2="effect1_dropShadow"
         result="shape"
         id="feBlend1025" />
    </filter>
    <filter
       style="color-interpolation-filters:sRGB"
       id="filter1_d"
       x="154.66701"
       y="-20.6735"
       width="122.667"
       height="297.34698"
       filterUnits="userSpaceOnUse">
      <feFlood
         flood-opacity="0"
         result="BackgroundImageFix"
         id="feFlood1028" />
      <feColorMatrix
         in="SourceAlpha"
         type="matrix"
         values="0 0 0 0 0 0 0 0 0 0 0 0 0 0 0 0 0 0 127 0"
         id="feColorMatrix1030" />
      <feOffset
         id="feOffset1032" />
      <feGaussianBlur
         stdDeviation="10.6667"
         id="feGaussianBlur1034" />
      <feColorMatrix
         type="matrix"
         values="0 0 0 0 0 0 0 0 0 0 0 0 0 0 0 0 0 0 0.25 0"
         id="feColorMatrix1036" />
      <feBlend
         mode="overlay"
         in2="BackgroundImageFix"
         result="effect1_dropShadow"
         id="feBlend1038" />
      <feBlend
         mode="normal"
         in="SourceGraphic"
         in2="effect1_dropShadow"
         result="shape"
         id="feBlend1040" />
    </filter>
    <linearGradient
       id="paint0_linear"
       x1="127.844"
       y1="0.65998799"
       x2="127.844"
       y2="255.34"
       gradientUnits="userSpaceOnUse">
      <stop
         stop-color="white"
         id="stop1043" />
      <stop
         offset="1"
         stop-color="white"
         stop-opacity="0"
         id="stop1045" />
    </linearGradient>
    <clipPath
       id="clip1-3-3-3">
      <path
         inkscape:connector-curvature="0"
         id="path1008-6-6"
         d="M 0,340.15625 H 481.89062 V 0 H 0 Z m 0,0" />
    </clipPath>
    <clipPath
       id="clip1-3-3-3-3">
      <path
         inkscape:connector-curvature="0"
         id="path1008-6-6-6"
         d="M 0,340.15625 H 481.89062 V 0 H 0 Z m 0,0" />
    </clipPath>
  </defs>
  <sodipodi:namedview
     id="base"
     pagecolor="#ffffff"
     bordercolor="#666666"
     borderopacity="1.0"
     inkscape:pageopacity="0.0"
     inkscape:pageshadow="2"
     inkscape:zoom="0.7"
     inkscape:cx="785"
     inkscape:cy="565"
     inkscape:document-units="mm"
     inkscape:current-layer="layer1"
     showgrid="false"
     units="pt"
     showguides="true"
     inkscape:guide-bbox="true"
     inkscape:window-width="1916"
     inkscape:window-height="1029"
     inkscape:window-x="0"
     inkscape:window-y="24"
     inkscape:window-maximized="0"
     inkscape:pagecheckerboard="true"
     inkscape:document-rotation="0"
     inkscape:showpageshadow="0"
     inkscape:deskcolor="#d1d1d1" />
  <metadata
     id="metadata5">
    <rdf:RDF>
      <cc:Work
         rdf:about="">
        <dc:format>image/svg+xml</dc:format>
        <dc:type
           rdf:resource="http://purl.org/dc/dcmitype/StillImage" />
      </cc:Work>
    </rdf:RDF>
  </metadata>
  <g
     inkscape:label="Calque 1"
     inkscape:groupmode="layer"
     id="layer1"
     transform="translate(0,-43.000005)">
    <rect
       style="fill:#ffffff;fill-opacity:1;stroke:none;stroke-width:0.94669914;stroke-miterlimit:4;stroke-dasharray:none;stroke-opacity:1"
       id="rect891"
       width="451.60654"
       height="254.14574"
       x="0.0023248347"
       y="42.995995" />
    <g
       id="surface0"
       transform="matrix(0.16740766,0,0,0.16740766,244.44768,204.8902)">
      <g
         id="g1021"
         clip-path="url(#clip1-3-3-3-3)"
         style="clip-rule:nonzero">
        <path
           id="path1013"
           d="M 0,340.15625 113.38672,170.07812 0,0 H 85.039062 L 198.42578,170.07812 85.039062,340.15625 Z m 0,0"
           style="fill:#453b61;fill-opacity:1;fill-rule:nonzero;stroke:none"
           inkscape:connector-curvature="0" />
        <path
           id="path1015"
           d="M 113.38672,340.15625 226.77344,170.07812 113.38672,0 h 85.03906 L 425.19531,340.15625 H 340.15625 L 269.29297,233.85937 198.42578,340.15625 Z m 0,0"
           style="fill:#5f5286;fill-opacity:1;fill-rule:nonzero;stroke:none"
           inkscape:connector-curvature="0" />
        <path
           id="path1017"
           d="m 387.40234,240.94531 -37.79297,-56.6914 132.28125,-0.004 v 56.69531 z m 0,0"
           style="fill:#8e508a;fill-opacity:1;fill-rule:nonzero;stroke:none"
           inkscape:connector-curvature="0" />
        <path
           id="path1019"
           d="m 330.71094,155.90625 -37.79688,-56.691406 188.97656,-0.0039 v 56.695316 z m 0,0"
           style="fill:#8e508a;fill-opacity:1;fill-rule:nonzero;stroke:none"
           inkscape:connector-curvature="0" />
      </g>
    </g>
    <text
       xml:space="preserve"
       style="font-style:normal;font-weight:normal;font-size:10.5833px;line-height:1.25;font-family:sans-serif;letter-spacing:0px;word-spacing:0px;fill:#000000;fill-opacity:1;stroke:none;stroke-width:0.264583"
       x="9.0871811"
       y="70.889969"
       id="text230"><tspan
         sodipodi:role="line"
         id="tspan228"
         x="9.0871811"
         y="70.889969"
         style="font-style:italic;font-variant:normal;font-weight:normal;font-stretch:normal;font-size:22.5778px;font-family:'DejaVu Sans';-inkscape-font-specification:'DejaVu Sans';stroke-width:0.264583">tuto fonctionnel 110</tspan></text>
    <text
       xml:space="preserve"
       style="font-style:normal;font-weight:normal;font-size:10.5833px;line-height:1.25;font-family:sans-serif;text-align:center;letter-spacing:0px;word-spacing:0px;text-anchor:middle;fill:#000000;fill-opacity:1;stroke:none;stroke-width:0.264583"
       x="275.84744"
       y="123.47323"
       id="text234"
       inkscape:export-filename="thumbnail_41.png"
       inkscape:export-xdpi="72"
       inkscape:export-ydpi="72"><tspan
         sodipodi:role="line"
         x="275.84744"
         y="123.47323"
         style="font-style:normal;font-variant:normal;font-weight:bold;font-stretch:normal;font-size:22.5778px;font-family:'DejaVu Sans';-inkscape-font-specification:'DejaVu Sans Bold';text-align:center;text-anchor:middle;stroke-width:0.264583"
         id="tspan915">Architectures de code</tspan><tspan
         sodipodi:role="line"
         x="275.84744"
         y="151.69548"
         style="font-style:normal;font-variant:normal;font-weight:bold;font-stretch:normal;font-size:22.5778px;font-family:'DejaVu Sans';-inkscape-font-specification:'DejaVu Sans Bold';text-align:center;text-anchor:middle;stroke-width:0.264583"
         id="tspan1">en Haskell (2/6),</tspan><tspan
         sodipodi:role="line"
         x="275.84744"
         y="179.91772"
         style="font-style:normal;font-variant:normal;font-weight:bold;font-stretch:normal;font-size:22.5778px;font-family:'DejaVu Sans';-inkscape-font-specification:'DejaVu Sans Bold';text-align:center;text-anchor:middle;stroke-width:0.264583"
         id="tspan2">Handle Pattern</tspan></text>
    <g
       transform="translate(3.3265185,22.356119)"
       id="layer1-6"
       inkscape:label="Calque 1">
      <g
         id="g1005"
         transform="rotate(-1.4139041,-2772.7956,-22.807463)">
        <ellipse
           id="path618"
           style="fill:#188a17;fill-opacity:1;stroke:#000000;stroke-width:1.03158987;stroke-miterlimit:4;stroke-dasharray:none;stroke-opacity:1"
           cy="204.13069"
           cx="60.581951"
           rx="44.654301"
           ry="41.961315"
           transform="matrix(0.93969262,-0.34202014,0,1,0,0)" />
        <path
           style="fill:none;stroke:#000000;stroke-width:1;stroke-linecap:butt;stroke-linejoin:miter;stroke-miterlimit:4;stroke-dasharray:none;stroke-opacity:1"
           d="m 83.655359,181.27231 c 8.01809,12.56167 -7.834319,53.36705 2.40543,57.46295 10.239741,4.0959 17.434311,-20.06297 24.856081,-15.76891 7.42176,4.29407 19.73209,31.75136 23.74112,68.36729"
           id="path5167"
           inkscape:connector-curvature="0"
           sodipodi:nodetypes="czzc" />
        <path
           style="fill:#e4b037;fill-opacity:1;stroke:none;stroke-width:0.26458332px;stroke-linecap:butt;stroke-linejoin:miter;stroke-opacity:1"
           d="m 83.655359,181.27231 c 5.329557,10.80172 -2.256648,34.96266 -1.164362,51.45181 2.355187,-3.99293 4.229975,-9.91384 8.543604,-12.27473 l 18.400639,1.52534 c 11.92386,7.83973 20.70982,38.87213 25.22275,69.35891 l -27.46963,-0.3864 c -1.44141,-18.06646 -1.10305,-41.22541 -8.23526,-59.62662 -5.546631,6.50744 -8.635629,7.68954 -11.297355,8.07228 l -12.662203,-0.28348 c -13.536594,-3.57681 3.267304,-40.90184 -4.153828,-60.26716 z"
           id="path5184"
           inkscape:connector-curvature="0"
           sodipodi:nodetypes="ccccccccccc" />
        <path
           style="fill:none;stroke:#000000;stroke-width:1;stroke-linecap:butt;stroke-linejoin:miter;stroke-miterlimit:4;stroke-dasharray:none;stroke-opacity:1"
           d="m 70.839714,178.84226 c 8.018085,12.56167 -7.834325,55.50521 2.405425,59.60111 10.23975,4.0959 11.77188,-20.01319 19.24342,-17.6398 7.471541,2.37339 15.768891,48.22756 14.699801,70.14367"
           id="path5167-5"
           inkscape:connector-curvature="0"
           sodipodi:nodetypes="czzc" />
        <text
           xml:space="preserve"
           style="font-style:normal;font-weight:normal;font-size:10.5833px;line-height:1.25;font-family:sans-serif;letter-spacing:0px;word-spacing:0px;fill:#000000;fill-opacity:1;stroke:none;stroke-width:0.264583"
           id="text5228"
           x="-90.336311"
           y="29.104166"
           transform="translate(-128.04817,17.497611)"><textPath
             xlink:href="#path5167-5-3"
             id="textPath5230"
             style="font-style:normal;font-variant:normal;font-weight:normal;font-stretch:normal;font-size:8.46667px;font-family:'DejaVu Sans Mono';-inkscape-font-specification:'DejaVu Sans Mono'"><tspan
               style="font-style:normal;font-variant:normal;font-weight:normal;font-stretch:normal;font-size:8.46667px;font-family:'DejaVu Sans Mono';-inkscape-font-specification:'DejaVu Sans Mono';stroke-width:0.264583"
               id="tspan5224"
               y="149.50342"
               x="22.300737">  = getLine  &gt;&gt;=   print.toUpper</tspan></textPath></text>
        <ellipse
           transform="matrix(0.93969262,-0.34202014,0,1,0,0)"
           ry="41.961315"
           rx="44.654301"
           cx="48.920635"
           cy="194.79691"
           style="fill:#188a17;fill-opacity:1;stroke:#000000;stroke-width:1.03158987;stroke-miterlimit:4;stroke-dasharray:none;stroke-opacity:1"
           id="ellipse5142" />
        <path
           style="fill:#55beff;fill-opacity:1;stroke:#000000;stroke-width:1;stroke-linecap:butt;stroke-linejoin:miter;stroke-miterlimit:4;stroke-dasharray:none;stroke-opacity:1"
           d="m 46.580184,169.20253 c 0,0 3.584168,-16.07383 -1.037477,-16.31343 -4.620296,-0.23951 -11.822284,8.6561 -11.822284,8.6561 0,0 7.181228,-13.61669 14.521908,-13.48354 9.176684,0.16646 4.66429,15.51714 4.269441,22.97196 -0.510268,9.63391 -2.059249,24.30368 2.465125,24.30369 4.524376,-1e-5 10.240251,-4.82745 10.240251,-4.82745 0,0 -5.641599,10.32074 -13.431335,10.48722 -7.789729,0.16646 -5.111095,-24.80308 -5.111095,-24.80308 l -21.46961,24.80306 -7.668561,-0.16645 z"
           id="path5115"
           inkscape:connector-curvature="0"
           sodipodi:nodetypes="cscssscccccc" />
      </g>
      <path
         sodipodi:nodetypes="czcc"
         inkscape:connector-curvature="0"
         id="path5167-5-3"
         d="m 201.09531,164.64129 c 10.64763,20.34911 -5.34664,41.15968 3.09652,54.1149 8.44316,12.95522 26.33325,-16.78101 26.33325,-16.78101 0.35282,8.71659 15.43326,38.10492 14.27598,71.73107"
         style="display:none;fill:none;stroke:#000000;stroke-width:1;stroke-linecap:butt;stroke-linejoin:miter;stroke-miterlimit:4;stroke-dasharray:none;stroke-opacity:1" />
    </g>
    <flowRoot
       xml:space="preserve"
       id="flowRoot1086"
       style="font-style:normal;font-weight:normal;font-size:40px;line-height:1.25;font-family:sans-serif;letter-spacing:0px;word-spacing:0px;fill:#000000;fill-opacity:1;stroke:none"><flowRegion
         id="flowRegion1088"><rect
           id="rect1090"
           width="29.226282"
           height="44.835529"
           x="1146.4677"
           y="512.46112" /></flowRegion><flowPara
         id="flowPara1092" /></flowRoot>
    <flowRoot
       xml:space="preserve"
       id="flowRoot1130"
       style="font-style:normal;font-weight:normal;font-size:40px;line-height:1.25;font-family:sans-serif;letter-spacing:0px;word-spacing:0px;fill:#000000;fill-opacity:1;stroke:none"><flowRegion
         id="flowRegion1132"><rect
           id="rect1134"
           width="737.41138"
           height="939.44183"
           x="-30.304577"
           y="101.37035" /></flowRegion><flowPara
         id="flowPara1136" /></flowRoot>
    <text
       xml:space="preserve"
       style="font-style:normal;font-weight:normal;font-size:10.5833px;line-height:1.25;font-family:sans-serif;letter-spacing:0px;word-spacing:0px;fill:#000000;fill-opacity:1;stroke:none;stroke-width:0.264583"
       x="204.19391"
       y="0.86537212"
       id="text1144" />
  </g>
  <style
     type="text/css"
     id="style1951">
	.st0{fill:#7289DA;}
</style>
</svg>
