<?xml version="1.0" encoding="UTF-8" standalone="no"?>
<!-- Created with Inkscape (http://www.inkscape.org/) -->

<svg
   xmlns:sketch="http://www.bohemiancoding.com/sketch/ns"
   xmlns:dc="http://purl.org/dc/elements/1.1/"
   xmlns:cc="http://creativecommons.org/ns#"
   xmlns:rdf="http://www.w3.org/1999/02/22-rdf-syntax-ns#"
   xmlns:svg="http://www.w3.org/2000/svg"
   xmlns="http://www.w3.org/2000/svg"
   xmlns:xlink="http://www.w3.org/1999/xlink"
   xmlns:sodipodi="http://sodipodi.sourceforge.net/DTD/sodipodi-0.dtd"
   xmlns:inkscape="http://www.inkscape.org/namespaces/inkscape"
   width="1280pt"
   height="720pt"
   viewBox="0 0 451.55557 254"
   version="1.1"
   id="svg8"
   inkscape:version="0.92.2 (5c3e80d, 2017-08-06)"
   sodipodi:docname="thumbnail_22.svg"
   inkscape:export-filename="/home/nokomprendo/depots/framagit/tuto_fonctionnel/posts/tuto_fonctionnel_22/thumbnail_22.png"
   inkscape:export-xdpi="72"
   inkscape:export-ydpi="72">
  <defs
     id="defs2">
    <path
       sodipodi:nodetypes="czzc"
       inkscape:connector-curvature="0"
       id="path5167-5-3-6"
       d="m 165.68141,140.85891 c 8.75775,2.20625 -7.63349,52.69351 2.40542,59.60111 10.03891,6.9076 10.02941,-24.36935 19.24342,-17.6398 9.21401,6.72955 15.82865,43.17979 14.69981,64.9465"
       style="fill:none;stroke:#000000;stroke-width:1;stroke-linecap:butt;stroke-linejoin:miter;stroke-miterlimit:4;stroke-dasharray:none;stroke-opacity:1" />
    <linearGradient
       inkscape:collect="always"
       xlink:href="#linearGradient5960"
       id="linearGradient5855-7"
       gradientUnits="userSpaceOnUse"
       gradientTransform="translate(983.36076,601.38885)"
       x1="213.95642"
       y1="338.62445"
       x2="282.26105"
       y2="515.97058" />
    <linearGradient
       inkscape:collect="always"
       id="linearGradient5960">
      <stop
         style="stop-color:#637ddf;stop-opacity:1"
         offset="0"
         id="stop5962" />
      <stop
         id="stop5964"
         offset="0.23168644"
         style="stop-color:#649afa;stop-opacity:1" />
      <stop
         style="stop-color:#719efa;stop-opacity:1"
         offset="1"
         id="stop5966" />
    </linearGradient>
    <linearGradient
       id="linearGradient5562"
       inkscape:collect="always">
      <stop
         id="stop5564"
         offset="0"
         style="stop-color:#699ad7;stop-opacity:1" />
      <stop
         style="stop-color:#7eb1dd;stop-opacity:1"
         offset="0.24345198"
         id="stop5566" />
      <stop
         id="stop5568"
         offset="1"
         style="stop-color:#7ebae4;stop-opacity:1" />
    </linearGradient>
    <linearGradient
       id="linearGradient5053"
       inkscape:collect="always">
      <stop
         id="stop5055"
         offset="0"
         style="stop-color:#415e9a;stop-opacity:1" />
      <stop
         style="stop-color:#4a6baf;stop-opacity:1"
         offset="0.23168644"
         id="stop5057" />
      <stop
         id="stop5059"
         offset="1"
         style="stop-color:#5277c3;stop-opacity:1" />
    </linearGradient>
    <clipPath
       id="clip1-3">
      <path
         inkscape:connector-curvature="0"
         id="path1008"
         d="M 0,340.15625 H 481.89062 V 0 H 0 Z m 0,0" />
    </clipPath>
    <clipPath
       id="clipPath8">
      <path
         inkscape:connector-curvature="0"
         d="M 76,2 V 48 H 54 V 71 H 35.580737 c -0.07818,0.665694 -0.141485,1.332869 -0.205737,2 -1.151162,12.530963 1.036422,24.087546 6.0625,33.96875 L 43.125,110 c 1.011403,1.81678 2.191241,3.52297 3.4375,5.1875 1.244725,1.66248 1.685716,2.58262 2.46875,3.6875 C 62.319911,133.81083 82.129473,141 105,141 155.64836,141 198.63299,118.56201 217.65625,68.15625 231.15302,69.54122 244.09968,66.080358 250,54.5625 240.60137,49.138835 228.52163,50.877226 221.5625,54.375 L 240,2 168,48 H 145 V 2 Z"
         id="path10" />
    </clipPath>
    <clipPath
       id="clipPath4558">
      <path
         inkscape:connector-curvature="0"
         d="M 76,2 V 48 H 54 V 71 H 35.580737 c -0.07818,0.665694 -0.141485,1.332869 -0.205737,2 -1.151162,12.530963 1.036422,24.087546 6.0625,33.96875 L 43.125,110 c 1.011403,1.81678 2.191241,3.52297 3.4375,5.1875 1.244725,1.66248 1.685716,2.58262 2.46875,3.6875 C 62.319911,133.81083 82.129473,141 105,141 155.64836,141 198.63299,118.56201 217.65625,68.15625 231.15302,69.54122 244.09968,66.080358 250,54.5625 240.60137,49.138835 228.52163,50.877226 221.5625,54.375 L 240,2 168,48 H 145 V 2 Z"
         id="path4556" />
    </clipPath>
    <clipPath
       id="clipPath4562">
      <path
         inkscape:connector-curvature="0"
         d="M 76,2 V 48 H 54 V 71 H 35.580737 c -0.07818,0.665694 -0.141485,1.332869 -0.205737,2 -1.151162,12.530963 1.036422,24.087546 6.0625,33.96875 L 43.125,110 c 1.011403,1.81678 2.191241,3.52297 3.4375,5.1875 1.244725,1.66248 1.685716,2.58262 2.46875,3.6875 C 62.319911,133.81083 82.129473,141 105,141 155.64836,141 198.63299,118.56201 217.65625,68.15625 231.15302,69.54122 244.09968,66.080358 250,54.5625 240.60137,49.138835 228.52163,50.877226 221.5625,54.375 L 240,2 168,48 H 145 V 2 Z"
         id="path4560" />
    </clipPath>
    <clipPath
       id="clipPath4566">
      <path
         inkscape:connector-curvature="0"
         d="M 76,2 V 48 H 54 V 71 H 35.580737 c -0.07818,0.665694 -0.141485,1.332869 -0.205737,2 -1.151162,12.530963 1.036422,24.087546 6.0625,33.96875 L 43.125,110 c 1.011403,1.81678 2.191241,3.52297 3.4375,5.1875 1.244725,1.66248 1.685716,2.58262 2.46875,3.6875 C 62.319911,133.81083 82.129473,141 105,141 155.64836,141 198.63299,118.56201 217.65625,68.15625 231.15302,69.54122 244.09968,66.080358 250,54.5625 240.60137,49.138835 228.52163,50.877226 221.5625,54.375 L 240,2 168,48 H 145 V 2 Z"
         id="path4564" />
    </clipPath>
    <clipPath
       id="clipPath4570">
      <path
         inkscape:connector-curvature="0"
         d="M 76,2 V 48 H 54 V 71 H 35.580737 c -0.07818,0.665694 -0.141485,1.332869 -0.205737,2 -1.151162,12.530963 1.036422,24.087546 6.0625,33.96875 L 43.125,110 c 1.011403,1.81678 2.191241,3.52297 3.4375,5.1875 1.244725,1.66248 1.685716,2.58262 2.46875,3.6875 C 62.319911,133.81083 82.129473,141 105,141 155.64836,141 198.63299,118.56201 217.65625,68.15625 231.15302,69.54122 244.09968,66.080358 250,54.5625 240.60137,49.138835 228.52163,50.877226 221.5625,54.375 L 240,2 168,48 H 145 V 2 Z"
         id="path4568" />
    </clipPath>
    <linearGradient
       inkscape:collect="always"
       xlink:href="#linearGradient5562"
       id="linearGradient1009"
       gradientUnits="userSpaceOnUse"
       gradientTransform="translate(70.650339,-1055.1511)"
       x1="200.59668"
       y1="351.41116"
       x2="290.08701"
       y2="506.18814" />
    <linearGradient
       inkscape:collect="always"
       xlink:href="#linearGradient5053"
       id="linearGradient1011"
       gradientUnits="userSpaceOnUse"
       gradientTransform="translate(864.69589,-1491.3405)"
       x1="-584.19934"
       y1="782.33563"
       x2="-496.29703"
       y2="937.71399" />
  </defs>
  <sodipodi:namedview
     id="base"
     pagecolor="#ffffff"
     bordercolor="#666666"
     borderopacity="1.0"
     inkscape:pageopacity="0.0"
     inkscape:pageshadow="2"
     inkscape:zoom="0.49497475"
     inkscape:cx="984.33935"
     inkscape:cy="262.46414"
     inkscape:document-units="mm"
     inkscape:current-layer="layer1"
     showgrid="false"
     units="pt"
     showguides="true"
     inkscape:guide-bbox="true"
     inkscape:window-width="1693"
     inkscape:window-height="863"
     inkscape:window-x="31"
     inkscape:window-y="240"
     inkscape:window-maximized="0" />
  <metadata
     id="metadata5">
    <rdf:RDF>
      <cc:Work
         rdf:about="">
        <dc:format>image/svg+xml</dc:format>
        <dc:type
           rdf:resource="http://purl.org/dc/dcmitype/StillImage" />
        <dc:title />
      </cc:Work>
    </rdf:RDF>
  </metadata>
  <g
     inkscape:label="Calque 1"
     inkscape:groupmode="layer"
     id="layer1"
     transform="translate(0,-43.000005)">
    <rect
       style="fill:#ffffff;fill-opacity:1;stroke:none;stroke-width:1;stroke-miterlimit:4;stroke-dasharray:none;stroke-opacity:1"
       id="rect891"
       width="472.53253"
       height="271.01129"
       x="-5.8799295"
       y="38.283104" />
    <text
       xml:space="preserve"
       style="font-style:normal;font-weight:normal;font-size:10.58333302px;line-height:1.25;font-family:sans-serif;letter-spacing:0px;word-spacing:0px;fill:#000000;fill-opacity:1;stroke:none;stroke-width:0.26458332"
       x="9.0871811"
       y="70.889969"
       id="text230"><tspan
         sodipodi:role="line"
         id="tspan228"
         x="9.0871811"
         y="70.889969"
         style="font-style:italic;font-variant:normal;font-weight:normal;font-stretch:normal;font-size:22.57777786px;font-family:'DejaVu Sans';-inkscape-font-specification:'DejaVu Sans';stroke-width:0.26458332">tuto fonctionnel 22</tspan></text>
    <text
       xml:space="preserve"
       style="font-style:normal;font-weight:normal;font-size:10.58333302px;line-height:1.25;font-family:sans-serif;text-align:center;letter-spacing:0px;word-spacing:0px;text-anchor:middle;fill:#000000;fill-opacity:1;stroke:none;stroke-width:0.26458332"
       x="308.91568"
       y="110.62933"
       id="text234"><tspan
         sodipodi:role="line"
         x="313.33093"
         y="110.62933"
         style="font-style:normal;font-variant:normal;font-weight:bold;font-stretch:normal;font-size:25.39999962px;font-family:'DejaVu Sans';-inkscape-font-specification:'DejaVu Sans Bold';text-align:center;text-anchor:middle;stroke-width:0.26458332"
         id="tspan981">Personnaliser une </tspan><tspan
         sodipodi:role="line"
         x="313.3309"
         y="142.37933"
         style="font-style:normal;font-variant:normal;font-weight:bold;font-stretch:normal;font-size:25.39999962px;font-family:'DejaVu Sans';-inkscape-font-specification:'DejaVu Sans Bold';text-align:center;text-anchor:middle;stroke-width:0.26458332"
         id="tspan985">image Docker de </tspan><tspan
         sodipodi:role="line"
         x="313.3309"
         y="174.12933"
         style="font-style:normal;font-variant:normal;font-weight:bold;font-stretch:normal;font-size:25.39999962px;font-family:'DejaVu Sans';-inkscape-font-specification:'DejaVu Sans Bold';text-align:center;text-anchor:middle;stroke-width:0.26458332"
         id="tspan997">NixOS pour de </tspan><tspan
         sodipodi:role="line"
         x="308.91568"
         y="205.87933"
         style="font-style:normal;font-variant:normal;font-weight:bold;font-stretch:normal;font-size:25.39999962px;font-family:'DejaVu Sans';-inkscape-font-specification:'DejaVu Sans Bold';text-align:center;text-anchor:middle;stroke-width:0.26458332"
         id="tspan999">l'intégration continue</tspan><tspan
         sodipodi:role="line"
         x="308.91568"
         y="224.52005"
         style="font-style:normal;font-variant:normal;font-weight:bold;font-stretch:normal;font-size:25.39999962px;font-family:'DejaVu Sans';-inkscape-font-specification:'DejaVu Sans Bold';text-align:center;text-anchor:middle;stroke-width:0.26458332"
         id="tspan983" /></text>
    <g
       transform="translate(3.3265185,22.356119)"
       id="layer1-6"
       inkscape:label="Calque 1">
      <g
         id="g1005"
         transform="rotate(-1.4139041,-2772.7956,-22.807463)">
        <ellipse
           id="path618"
           style="fill:#188a17;fill-opacity:1;stroke:#000000;stroke-width:1.03158987;stroke-miterlimit:4;stroke-dasharray:none;stroke-opacity:1"
           cy="204.13069"
           cx="60.581951"
           rx="44.654301"
           ry="41.961315"
           transform="matrix(0.93969262,-0.34202014,0,1,0,0)" />
        <path
           style="fill:none;stroke:#000000;stroke-width:1;stroke-linecap:butt;stroke-linejoin:miter;stroke-miterlimit:4;stroke-dasharray:none;stroke-opacity:1"
           d="m 83.655359,181.27231 c 8.01809,12.56167 -7.834319,53.36705 2.40543,57.46295 10.239741,4.0959 17.434311,-20.06297 24.856081,-15.76891 7.42176,4.29407 19.73209,31.75136 23.74112,68.36729"
           id="path5167"
           inkscape:connector-curvature="0"
           sodipodi:nodetypes="czzc" />
        <path
           style="fill:#e4b037;fill-opacity:1;stroke:none;stroke-width:0.26458332px;stroke-linecap:butt;stroke-linejoin:miter;stroke-opacity:1"
           d="m 83.655359,181.27231 c 5.329557,10.80172 -2.256648,34.96266 -1.164362,51.45181 2.355187,-3.99293 4.229975,-9.91384 8.543604,-12.27473 l 18.400639,1.52534 c 11.92386,7.83973 20.70982,38.87213 25.22275,69.35891 l -27.46963,-0.3864 c -1.44141,-18.06646 -1.10305,-41.22541 -8.23526,-59.62662 -5.546631,6.50744 -8.635629,7.68954 -11.297355,8.07228 l -12.662203,-0.28348 c -13.536594,-3.57681 3.267304,-40.90184 -4.153828,-60.26716 z"
           id="path5184"
           inkscape:connector-curvature="0"
           sodipodi:nodetypes="ccccccccccc" />
        <path
           style="fill:none;stroke:#000000;stroke-width:1;stroke-linecap:butt;stroke-linejoin:miter;stroke-miterlimit:4;stroke-dasharray:none;stroke-opacity:1"
           d="m 70.839714,178.84226 c 8.018085,12.56167 -7.834325,55.50521 2.405425,59.60111 10.23975,4.0959 11.77188,-20.01319 19.24342,-17.6398 7.471541,2.37339 15.768891,48.22756 14.699801,70.14367"
           id="path5167-5"
           inkscape:connector-curvature="0"
           sodipodi:nodetypes="czzc" />
        <text
           xml:space="preserve"
           style="font-style:normal;font-weight:normal;font-size:10.58333302px;line-height:1.25;font-family:sans-serif;letter-spacing:0px;word-spacing:0px;fill:#000000;fill-opacity:1;stroke:none;stroke-width:0.26458332"
           id="text5228"
           x="-90.336311"
           y="29.104166"
           transform="translate(-128.04817,17.497611)"><textPath
             xlink:href="#path5167-5-3"
             id="textPath5230"
             style="font-style:normal;font-variant:normal;font-weight:normal;font-stretch:normal;font-size:8.46666622px;font-family:'DejaVu Sans Mono';-inkscape-font-specification:'DejaVu Sans Mono'"><tspan
   style="font-style:normal;font-variant:normal;font-weight:normal;font-stretch:normal;font-size:8.46666622px;font-family:'DejaVu Sans Mono';-inkscape-font-specification:'DejaVu Sans Mono';stroke-width:0.26458332"
   id="tspan5224"
   y="149.50342"
   x="22.300737">  = getLine  &gt;&gt;=   print.toUpper</tspan></textPath></text>
        <ellipse
           transform="matrix(0.93969262,-0.34202014,0,1,0,0)"
           ry="41.961315"
           rx="44.654301"
           cx="48.920635"
           cy="194.79691"
           style="fill:#188a17;fill-opacity:1;stroke:#000000;stroke-width:1.03158987;stroke-miterlimit:4;stroke-dasharray:none;stroke-opacity:1"
           id="ellipse5142" />
        <path
           style="fill:#55beff;fill-opacity:1;stroke:#000000;stroke-width:1;stroke-linecap:butt;stroke-linejoin:miter;stroke-miterlimit:4;stroke-dasharray:none;stroke-opacity:1"
           d="m 46.580184,169.20253 c 0,0 3.584168,-16.07383 -1.037477,-16.31343 -4.620296,-0.23951 -11.822284,8.6561 -11.822284,8.6561 0,0 7.181228,-13.61669 14.521908,-13.48354 9.176684,0.16646 4.66429,15.51714 4.269441,22.97196 -0.510268,9.63391 -2.059249,24.30368 2.465125,24.30369 4.524376,-1e-5 10.240251,-4.82745 10.240251,-4.82745 0,0 -5.641599,10.32074 -13.431335,10.48722 -7.789729,0.16646 -5.111095,-24.80308 -5.111095,-24.80308 l -21.46961,24.80306 -7.668561,-0.16645 z"
           id="path5115"
           inkscape:connector-curvature="0"
           sodipodi:nodetypes="cscssscccccc" />
      </g>
      <path
         sodipodi:nodetypes="czcc"
         inkscape:connector-curvature="0"
         id="path5167-5-3"
         d="m 201.09531,164.64129 c 10.64763,20.34911 -5.34664,41.15968 3.09652,54.1149 8.44316,12.95522 26.33325,-16.78101 26.33325,-16.78101 0.35282,8.71659 15.43326,38.10492 14.27598,71.73107"
         style="display:none;fill:none;stroke:#000000;stroke-width:1;stroke-linecap:butt;stroke-linejoin:miter;stroke-miterlimit:4;stroke-dasharray:none;stroke-opacity:1" />
    </g>
    <flowRoot
       xml:space="preserve"
       id="flowRoot1086"
       style="fill:black;fill-opacity:1;stroke:none;font-family:sans-serif;font-style:normal;font-weight:normal;font-size:40px;line-height:1.25;letter-spacing:0px;word-spacing:0px"><flowRegion
         id="flowRegion1088"><rect
           id="rect1090"
           width="29.226282"
           height="44.835529"
           x="1146.4677"
           y="512.46112" /></flowRegion><flowPara
         id="flowPara1092" /></flowRoot>    <flowRoot
       xml:space="preserve"
       id="flowRoot1130"
       style="fill:black;fill-opacity:1;stroke:none;font-family:sans-serif;font-style:normal;font-weight:normal;font-size:40px;line-height:1.25;letter-spacing:0px;word-spacing:0px"><flowRegion
         id="flowRegion1132"><rect
           id="rect1134"
           width="737.41138"
           height="939.44183"
           x="-30.304577"
           y="101.37035" /></flowRegion><flowPara
         id="flowPara1136" /></flowRoot>    <text
       xml:space="preserve"
       style="font-style:normal;font-weight:normal;font-size:10.58333302px;line-height:1.25;font-family:sans-serif;letter-spacing:0px;word-spacing:0px;fill:#000000;fill-opacity:1;stroke:none;stroke-width:0.26458332"
       x="204.19391"
       y="0.86537212"
       id="text1144"><tspan
         sodipodi:role="line"
         id="tspan1142"
         x="204.19391"
         y="0.86537212"
         style="stroke-width:0.26458332" /></text>
    <g
       id="g443"
       transform="matrix(0.11707779,0,0,0.11707779,348.21456,264.35154)">
      <g
         style="display:none"
         inkscape:label="bg"
         id="layer7-9">
        <rect
           y="-957.77832"
           x="132.5822"
           height="483.7439"
           width="1543.4283"
           id="rect5389-3"
           style="color:#000000;clip-rule:nonzero;display:inline;overflow:visible;visibility:visible;opacity:1;isolation:auto;mix-blend-mode:normal;color-interpolation:sRGB;color-interpolation-filters:linearRGB;solid-color:#000000;solid-opacity:1;fill:#ffffff;fill-opacity:1;fill-rule:evenodd;stroke:none;stroke-width:3;stroke-linecap:butt;stroke-linejoin:round;stroke-miterlimit:4;stroke-dasharray:none;stroke-dashoffset:0;stroke-opacity:1;marker:none;color-rendering:auto;image-rendering:auto;shape-rendering:auto;text-rendering:auto;enable-background:accumulate"
           transform="translate(-132.5822,958.04022)" />
      </g>
      <g
         transform="translate(-132.5822,958.04022)"
         style="display:none;opacity:0.51599995"
         inkscape:label="guide"
         id="layer5-6">
        <rect
           style="color:#000000;clip-rule:nonzero;display:inline;overflow:visible;visibility:visible;opacity:1;isolation:auto;mix-blend-mode:normal;color-interpolation:sRGB;color-interpolation-filters:linearRGB;solid-color:#000000;solid-opacity:1;fill:#d4d4d4;fill-opacity:1;fill-rule:evenodd;stroke:none;stroke-width:3;stroke-linecap:butt;stroke-linejoin:round;stroke-miterlimit:4;stroke-dasharray:none;stroke-dashoffset:0;stroke-opacity:1;marker:none;color-rendering:auto;image-rendering:auto;shape-rendering:auto;text-rendering:auto;enable-background:accumulate"
           id="rect5350-0"
           width="1543.4283"
           height="483.7439"
           x="132.5822"
           y="-957.77832" />
        <rect
           inkscape:export-ydpi="17.971878"
           inkscape:export-xdpi="17.971878"
           y="-933.38721"
           x="155.77646"
           height="435.68069"
           width="1496.443"
           id="rect5346-6"
           style="color:#000000;clip-rule:nonzero;display:inline;overflow:visible;visibility:visible;opacity:1;isolation:auto;mix-blend-mode:normal;color-interpolation:sRGB;color-interpolation-filters:linearRGB;solid-color:#000000;solid-opacity:1;fill:#9b9b9b;fill-opacity:1;fill-rule:evenodd;stroke:none;stroke-width:3;stroke-linecap:butt;stroke-linejoin:round;stroke-miterlimit:4;stroke-dasharray:none;stroke-dashoffset:0;stroke-opacity:1;marker:none;color-rendering:auto;image-rendering:auto;shape-rendering:auto;text-rendering:auto;enable-background:accumulate" />
        <rect
           style="color:#000000;clip-rule:nonzero;display:inline;overflow:visible;visibility:visible;opacity:1;isolation:auto;mix-blend-mode:normal;color-interpolation:sRGB;color-interpolation-filters:linearRGB;solid-color:#000000;solid-opacity:1;fill:#848484;fill-opacity:1;fill-rule:evenodd;stroke:none;stroke-width:3;stroke-linecap:butt;stroke-linejoin:round;stroke-miterlimit:4;stroke-dasharray:none;stroke-dashoffset:0;stroke-opacity:1;marker:none;color-rendering:auto;image-rendering:auto;shape-rendering:auto;text-rendering:auto;enable-background:accumulate"
           id="rect5348-2"
           width="1492.5731"
           height="272.58423"
           x="159.02695"
           y="-851.65918" />
      </g>
      <g
         transform="translate(-132.5822,958.04022)"
         style="display:none"
         inkscape:label="logo-guide"
         id="layer6-6">
        <rect
           inkscape:export-ydpi="22.07"
           inkscape:export-xdpi="22.07"
           inkscape:export-filename="/home/tim/dev/nix/homepage/logo/nix-wiki.png"
           style="color:#000000;clip-rule:nonzero;display:inline;overflow:visible;visibility:visible;opacity:1;isolation:auto;mix-blend-mode:normal;color-interpolation:sRGB;color-interpolation-filters:linearRGB;solid-color:#000000;solid-opacity:1;fill:#5c201e;fill-opacity:1;fill-rule:evenodd;stroke:none;stroke-width:3;stroke-linecap:butt;stroke-linejoin:round;stroke-miterlimit:4;stroke-dasharray:none;stroke-dashoffset:0;stroke-opacity:1;marker:none;color-rendering:auto;image-rendering:auto;shape-rendering:auto;text-rendering:auto;enable-background:accumulate"
           id="rect5379-1"
           width="550.41602"
           height="484.30399"
           x="132.65129"
           y="-958.02759" />
        <rect
           inkscape:export-ydpi="212.2"
           inkscape:export-xdpi="212.2"
           inkscape:export-filename="/home/tim/dev/nix/homepage/logo/nixos-logo-only-hires-print.png"
           y="-933.02759"
           x="156.12303"
           height="434.30405"
           width="501.94415"
           id="rect5372-8"
           style="color:#000000;clip-rule:nonzero;display:inline;overflow:visible;visibility:visible;opacity:1;isolation:auto;mix-blend-mode:normal;color-interpolation:sRGB;color-interpolation-filters:linearRGB;solid-color:#000000;solid-opacity:1;fill:#c24a46;fill-opacity:1;fill-rule:evenodd;stroke:none;stroke-width:3;stroke-linecap:butt;stroke-linejoin:round;stroke-miterlimit:4;stroke-dasharray:none;stroke-dashoffset:0;stroke-opacity:1;marker:none;color-rendering:auto;image-rendering:auto;shape-rendering:auto;text-rendering:auto;enable-background:accumulate" />
        <rect
           y="-958.04022"
           x="658.02826"
           height="24.939611"
           width="24.939611"
           id="rect5381-7"
           style="color:#000000;clip-rule:nonzero;display:inline;overflow:visible;visibility:visible;opacity:1;isolation:auto;mix-blend-mode:normal;color-interpolation:sRGB;color-interpolation-filters:linearRGB;solid-color:#000000;solid-opacity:1;fill:#d98d8a;fill-opacity:1;fill-rule:evenodd;stroke:none;stroke-width:3;stroke-linecap:butt;stroke-linejoin:round;stroke-miterlimit:4;stroke-dasharray:none;stroke-dashoffset:0;stroke-opacity:1;marker:none;color-rendering:auto;image-rendering:auto;shape-rendering:auto;text-rendering:auto;enable-background:accumulate" />
      </g>
      <g
         transform="translate(90.650102,686.52413)"
         style="display:inline"
         id="layer1-9"
         inkscape:label="print-logo">
        <path
           sodipodi:nodetypes="cccccccccc"
           inkscape:connector-curvature="0"
           id="path4861-2"
           d="m 309.40365,-710.2521 122.19683,211.6751 -56.15706,0.5268 -32.6236,-56.8692 -32.85645,56.5653 -27.90237,-0.011 -14.29086,-24.6896 46.81047,-80.4902 -33.22946,-57.8256 z"
           style="color:#000000;clip-rule:nonzero;display:inline;overflow:visible;visibility:visible;opacity:1;isolation:auto;mix-blend-mode:normal;color-interpolation:sRGB;color-interpolation-filters:linearRGB;solid-color:#000000;solid-opacity:1;fill:#5277c3;fill-opacity:1;fill-rule:evenodd;stroke:none;stroke-width:3;stroke-linecap:butt;stroke-linejoin:round;stroke-miterlimit:4;stroke-dasharray:none;stroke-dashoffset:0;stroke-opacity:1;color-rendering:auto;image-rendering:auto;shape-rendering:auto;text-rendering:auto;enable-background:accumulate" />
        <path
           sodipodi:nodetypes="cccccccccc"
           inkscape:connector-curvature="0"
           id="use4863-0"
           d="m 353.50926,-797.4433 -122.21756,211.6631 -28.53477,-48.37 32.93839,-56.6875 -65.41521,-0.1719 -13.9414,-24.1698 14.23637,-24.721 93.11177,0.2939 33.46371,-57.6903 z"
           style="color:#000000;clip-rule:nonzero;display:inline;overflow:visible;visibility:visible;opacity:1;isolation:auto;mix-blend-mode:normal;color-interpolation:sRGB;color-interpolation-filters:linearRGB;solid-color:#000000;solid-opacity:1;fill:#7ebae4;fill-opacity:1;fill-rule:evenodd;stroke:none;stroke-width:3;stroke-linecap:butt;stroke-linejoin:round;stroke-miterlimit:4;stroke-dasharray:none;stroke-dashoffset:0;stroke-opacity:1;color-rendering:auto;image-rendering:auto;shape-rendering:auto;text-rendering:auto;enable-background:accumulate" />
        <path
           sodipodi:nodetypes="cccccccccc"
           inkscape:connector-curvature="0"
           id="use4865-2"
           d="m 362.88537,-628.243 244.41439,0.012 -27.62229,48.8968 -65.56199,-0.1817 32.55876,56.7371 -13.96098,24.1585 -28.52722,0.032 -46.3013,-80.7841 -66.69317,-0.1353 z"
           style="color:#000000;clip-rule:nonzero;display:inline;overflow:visible;visibility:visible;opacity:1;isolation:auto;mix-blend-mode:normal;color-interpolation:sRGB;color-interpolation-filters:linearRGB;solid-color:#000000;solid-opacity:1;fill:#7ebae4;fill-opacity:1;fill-rule:evenodd;stroke:none;stroke-width:3;stroke-linecap:butt;stroke-linejoin:round;stroke-miterlimit:4;stroke-dasharray:none;stroke-dashoffset:0;stroke-opacity:1;color-rendering:auto;image-rendering:auto;shape-rendering:auto;text-rendering:auto;enable-background:accumulate" />
        <path
           sodipodi:nodetypes="cccccccccc"
           inkscape:connector-curvature="0"
           id="use4867-3"
           d="m 505.14318,-720.9886 -122.19683,-211.6751 56.15706,-0.5268 32.6236,56.8692 32.85645,-56.5653 27.90237,0.011 14.29086,24.6896 -46.81047,80.4902 33.22946,57.8256 z"
           style="color:#000000;clip-rule:nonzero;display:inline;overflow:visible;visibility:visible;opacity:1;isolation:auto;mix-blend-mode:normal;color-interpolation:sRGB;color-interpolation-filters:linearRGB;solid-color:#000000;solid-opacity:1;fill:#7ebae4;fill-opacity:1;fill-rule:evenodd;stroke:none;stroke-width:3;stroke-linecap:butt;stroke-linejoin:round;stroke-miterlimit:4;stroke-dasharray:none;stroke-dashoffset:0;stroke-opacity:1;color-rendering:auto;image-rendering:auto;shape-rendering:auto;text-rendering:auto;enable-background:accumulate" />
        <path
           style="color:#000000;clip-rule:nonzero;display:inline;overflow:visible;visibility:visible;opacity:1;isolation:auto;mix-blend-mode:normal;color-interpolation:sRGB;color-interpolation-filters:linearRGB;solid-color:#000000;solid-opacity:1;fill:#5277c3;fill-opacity:1;fill-rule:evenodd;stroke:none;stroke-width:3;stroke-linecap:butt;stroke-linejoin:round;stroke-miterlimit:4;stroke-dasharray:none;stroke-dashoffset:0;stroke-opacity:1;color-rendering:auto;image-rendering:auto;shape-rendering:auto;text-rendering:auto;enable-background:accumulate"
           d="m 309.40365,-710.2521 122.19683,211.6751 -56.15706,0.5268 -32.6236,-56.8692 -32.85645,56.5653 -27.90237,-0.011 -14.29086,-24.6896 46.81047,-80.4902 -33.22946,-57.8256 z"
           id="path4873-7"
           inkscape:connector-curvature="0"
           sodipodi:nodetypes="cccccccccc" />
        <path
           style="color:#000000;clip-rule:nonzero;display:inline;overflow:visible;visibility:visible;opacity:1;isolation:auto;mix-blend-mode:normal;color-interpolation:sRGB;color-interpolation-filters:linearRGB;solid-color:#000000;solid-opacity:1;fill:#5277c3;fill-opacity:1;fill-rule:evenodd;stroke:none;stroke-width:3;stroke-linecap:butt;stroke-linejoin:round;stroke-miterlimit:4;stroke-dasharray:none;stroke-dashoffset:0;stroke-opacity:1;color-rendering:auto;image-rendering:auto;shape-rendering:auto;text-rendering:auto;enable-background:accumulate"
           d="m 451.3364,-803.53264 -244.4144,-0.012 27.62229,-48.89685 65.56199,0.18175 -32.55875,-56.73717 13.96097,-24.15851 28.52722,-0.0315 46.3013,80.78414 66.69317,0.13524 z"
           id="use4875-5"
           inkscape:connector-curvature="0"
           sodipodi:nodetypes="cccccccccc" />
        <path
           style="color:#000000;clip-rule:nonzero;display:inline;overflow:visible;visibility:visible;opacity:1;isolation:auto;mix-blend-mode:normal;color-interpolation:sRGB;color-interpolation-filters:linearRGB;solid-color:#000000;solid-opacity:1;fill:#5277c3;fill-opacity:1;fill-rule:evenodd;stroke:none;stroke-width:3;stroke-linecap:butt;stroke-linejoin:round;stroke-miterlimit:4;stroke-dasharray:none;stroke-dashoffset:0;stroke-opacity:1;color-rendering:auto;image-rendering:auto;shape-rendering:auto;text-rendering:auto;enable-background:accumulate"
           d="m 460.87178,-633.8425 122.21757,-211.66304 28.53477,48.37003 -32.93839,56.68751 65.4152,0.1718 13.9414,24.1698 -14.23636,24.7211 -93.11177,-0.294 -33.46371,57.6904 z"
           id="use4877-9"
           inkscape:connector-curvature="0"
           sodipodi:nodetypes="cccccccccc" />
        <g
           transform="translate(72.039038,-1799.4476)"
           style="display:none"
           inkscape:label="guides"
           id="layer2-2">
          <path
             sodipodi:type="star"
             style="color:#000000;display:inline;overflow:visible;visibility:visible;opacity:0.23600003;fill:#4e4d52;fill-opacity:1;fill-rule:nonzero;stroke:none;stroke-width:3;stroke-linecap:butt;stroke-linejoin:round;stroke-miterlimit:4;stroke-dasharray:none;stroke-dashoffset:0;stroke-opacity:1;marker:none;enable-background:accumulate"
             id="path6032-2"
             sodipodi:sides="6"
             sodipodi:cx="335.17407"
             sodipodi:cy="377.47382"
             sodipodi:r1="250.86446"
             sodipodi:r2="217.25499"
             sodipodi:arg1="1.0471976"
             sodipodi:arg2="1.5707963"
             inkscape:flatsided="true"
             inkscape:rounded="0"
             inkscape:randomized="0"
             d="M 460.60629,594.72881 209.74183,594.7288 84.309616,377.4738 209.74185,160.21882 l 250.86446,1e-5 125.43222,217.255 z" />
          <path
             d="m 385.59154,773.06721 -100.83495,0 -50.41747,-87.32564 50.41748,-87.32563 100.83495,10e-6 50.41748,87.32563 z"
             inkscape:randomized="0"
             inkscape:rounded="0"
             inkscape:flatsided="true"
             sodipodi:arg2="1.5707963"
             sodipodi:arg1="1.0471976"
             sodipodi:r2="87.32563"
             sodipodi:r1="100.83495"
             sodipodi:cy="685.74158"
             sodipodi:cx="335.17407"
             sodipodi:sides="6"
             id="path5875-8"
             style="color:#000000;display:inline;overflow:visible;visibility:visible;opacity:1;fill:#4e4d52;fill-opacity:1;fill-rule:nonzero;stroke:none;stroke-width:3;stroke-linecap:butt;stroke-linejoin:round;stroke-miterlimit:4;stroke-dasharray:none;stroke-dashoffset:0;stroke-opacity:1;marker:none;enable-background:accumulate"
             sodipodi:type="star"
             transform="translate(0,-308.26772)" />
          <path
             style="fill:url(#linearGradient5855-7);fill-opacity:1;fill-rule:evenodd;stroke:none;stroke-width:3;stroke-linecap:butt;stroke-linejoin:round;stroke-miterlimit:4;stroke-dasharray:none;stroke-opacity:1"
             d="m 1216.5591,938.53395 123.0545,228.14035 -42.6807,-1.2616 -43.4823,-79.7725 -39.6506,80.3267 -32.6875,-19.7984 53.4737,-100.2848 -37.1157,-73.88955 z"
             id="path5851-9"
             inkscape:connector-curvature="0"
             sodipodi:nodetypes="ccccccccc"
             transform="translate(0,-308.26772)" />
          <rect
             transform="rotate(-30)"
             y="446.17056"
             x="-34.74221"
             height="226.22897"
             width="48.834862"
             id="rect5884-7"
             style="color:#000000;clip-rule:nonzero;display:inline;overflow:visible;visibility:visible;opacity:0.41499999;isolation:auto;mix-blend-mode:normal;color-interpolation:sRGB;color-interpolation-filters:linearRGB;solid-color:#000000;solid-opacity:1;fill:#c53a3a;fill-opacity:1;fill-rule:nonzero;stroke:none;stroke-width:3;stroke-linecap:butt;stroke-linejoin:round;stroke-miterlimit:4;stroke-dasharray:none;stroke-dashoffset:0;stroke-opacity:1;marker:none;color-rendering:auto;image-rendering:auto;shape-rendering:auto;text-rendering:auto;enable-background:accumulate" />
          <path
             d="m 251.98568,878.63831 -14.02447,24.29109 h -28.04894 l -14.02447,-24.29109 14.02447,-24.2911 h 28.04894 z"
             inkscape:randomized="0"
             inkscape:rounded="0"
             inkscape:flatsided="true"
             sodipodi:arg2="0.52359878"
             sodipodi:arg1="0"
             sodipodi:r2="24.291094"
             sodipodi:r1="28.048939"
             sodipodi:cy="878.63831"
             sodipodi:cx="223.93674"
             sodipodi:sides="6"
             id="path3428-3"
             style="color:#000000;clip-rule:nonzero;display:inline;overflow:visible;visibility:visible;opacity:0.50899999;isolation:auto;mix-blend-mode:normal;color-interpolation:sRGB;color-interpolation-filters:linearRGB;solid-color:#000000;solid-opacity:1;fill:#000000;fill-opacity:1;fill-rule:evenodd;stroke:none;stroke-width:3;stroke-linecap:butt;stroke-linejoin:round;stroke-miterlimit:4;stroke-dasharray:none;stroke-dashoffset:0;stroke-opacity:1;marker:none;color-rendering:auto;image-rendering:auto;shape-rendering:auto;text-rendering:auto;enable-background:accumulate"
             sodipodi:type="star"
             transform="translate(0,-308.26772)" />
          <use
             height="100%"
             width="100%"
             transform="rotate(60,268.29786,489.4515)"
             id="use4252-6"
             xlink:href="#rect5884-7"
             y="0"
             x="0" />
          <rect
             transform="rotate(30,575.23539,-154.13386)"
             y="467.07007"
             x="545.71014"
             height="115.12564"
             width="5.3947482"
             id="rect4254-1"
             style="color:#000000;clip-rule:nonzero;display:inline;overflow:visible;visibility:visible;opacity:1;isolation:auto;mix-blend-mode:normal;color-interpolation:sRGB;color-interpolation-filters:linearRGB;solid-color:#000000;solid-opacity:1;fill:#000000;fill-opacity:0.6507937;fill-rule:evenodd;stroke:none;stroke-width:1px;stroke-linecap:butt;stroke-linejoin:miter;stroke-miterlimit:4;stroke-dasharray:none;stroke-dashoffset:0;stroke-opacity:1;marker:none;color-rendering:auto;image-rendering:auto;shape-rendering:auto;text-rendering:auto;enable-background:accumulate" />
        </g>
      </g>
      <g
         transform="translate(-132.5822,958.04022)"
         style="display:none;opacity:1"
         inkscape:label="gradient-logo"
         id="layer3-2">
        <path
           style="opacity:1;fill:url(#linearGradient1009);fill-opacity:1;fill-rule:evenodd;stroke:none;stroke-width:3;stroke-linecap:butt;stroke-linejoin:round;stroke-miterlimit:4;stroke-dasharray:none;stroke-opacity:1"
           d="m 309.54892,-710.38827 122.19683,211.67512 -56.15706,0.5268 -32.6236,-56.8692 -32.85645,56.5653 -27.90237,-0.011 -14.29086,-24.6896 46.81047,-80.4901 -33.22946,-57.8257 z"
           id="path3336-6-9"
           inkscape:connector-curvature="0"
           sodipodi:nodetypes="cccccccccc" />
        <use
           x="0"
           y="0"
           xlink:href="#path3336-6-9"
           inkscape:transform-center-x="124.43045"
           inkscape:transform-center-y="151.59082"
           id="use3439-6-3"
           transform="rotate(60,407.11155,-715.78724)"
           width="100%"
           height="100%" />
        <use
           x="0"
           y="0"
           xlink:href="#path3336-6-9"
           inkscape:transform-center-x="-168.20651"
           inkscape:transform-center-y="75.573958"
           id="use3445-0-1"
           transform="rotate(-60,407.31177,-715.70016)"
           width="100%"
           height="100%" />
        <use
           x="0"
           y="0"
           xlink:href="#path3336-6-9"
           inkscape:transform-center-x="59.669705"
           inkscape:transform-center-y="-139.94592"
           id="use3449-5-9"
           transform="rotate(180,407.41868,-715.7565)"
           width="100%"
           height="100%" />
        <path
           sodipodi:nodetypes="cccccccccc"
           inkscape:connector-curvature="0"
           id="path4260-0-4"
           d="m 309.54892,-710.38827 122.19683,211.67512 -56.15706,0.5268 -32.6236,-56.8692 -32.85645,56.5653 -27.90237,-0.011 -14.29086,-24.6896 46.81047,-80.4901 -33.22946,-57.8256 z"
           style="color:#000000;clip-rule:nonzero;display:inline;overflow:visible;visibility:visible;opacity:1;isolation:auto;mix-blend-mode:normal;color-interpolation:sRGB;color-interpolation-filters:linearRGB;solid-color:#000000;solid-opacity:1;fill:url(#linearGradient1011);fill-opacity:1;fill-rule:evenodd;stroke:none;stroke-width:3;stroke-linecap:butt;stroke-linejoin:round;stroke-miterlimit:4;stroke-dasharray:none;stroke-dashoffset:0;stroke-opacity:1;color-rendering:auto;image-rendering:auto;shape-rendering:auto;text-rendering:auto;enable-background:accumulate" />
        <use
           style="display:inline"
           x="0"
           y="0"
           xlink:href="#path4260-0-4"
           id="use4354-5-7"
           transform="rotate(120,407.33916,-716.08356)"
           width="100%"
           height="100%" />
        <use
           style="display:inline"
           x="0"
           y="0"
           xlink:href="#path4260-0-4"
           id="use4362-2-8"
           transform="rotate(-120,407.28823,-715.86995)"
           width="100%"
           height="100%" />
      </g>
    </g>
    <g
       transform="matrix(0.26458333,0,0,0.26458333,290.25322,232.31404)"
       style="fill:none;fill-rule:evenodd;stroke:none;stroke-width:1"
       id="Page-1"
       sketch:type="MSPage">
      <g
         id="Fill-1-+-Group-24"
         sketch:type="MSLayerGroup">
        <g
           id="Group-24"
           sketch:type="MSShapeGroup">
          <g
             id="Group">
            <path
               style="fill:#e24329"
               inkscape:connector-curvature="0"
               d="m 105.0614,193.655 v 0 l 38.64,-118.921 h -77.28 z"
               id="Fill-4" />
            <path
               style="fill:#fc6d26"
               inkscape:connector-curvature="0"
               d=""
               id="Fill-6" />
            <path
               style="fill:#fc6d26"
               inkscape:connector-curvature="0"
               d="M 105.0614,193.6548 66.4214,74.7338 H 12.2684 Z"
               id="Fill-8" />
            <path
               style="fill:#fc6d26"
               inkscape:connector-curvature="0"
               d=""
               id="Fill-10" />
            <path
               style="fill:#fca326"
               inkscape:connector-curvature="0"
               d="m 12.2685,74.7341 v 0 l -11.742,36.139 c -1.071,3.296 0.102,6.907 2.906,8.944 l 101.629,73.838 z"
               id="Fill-12" />
            <path
               style="fill:#fc6d26"
               inkscape:connector-curvature="0"
               d=""
               id="Fill-14" />
            <path
               style="fill:#e24329"
               inkscape:connector-curvature="0"
               d="m 12.2685,74.7342 h 54.153 L 43.1485,3.1092 c -1.197,-3.686 -6.411,-3.685 -7.608,0 z"
               id="Fill-16" />
            <path
               style="fill:#fc6d26"
               inkscape:connector-curvature="0"
               d="m 105.0614,193.6548 38.64,-118.921 h 54.153 z"
               id="Fill-18" />
            <path
               style="fill:#fca326"
               inkscape:connector-curvature="0"
               d="m 197.8544,74.7341 v 0 l 11.742,36.139 c 1.071,3.296 -0.102,6.907 -2.906,8.944 l -101.629,73.838 z"
               id="Fill-20" />
            <path
               style="fill:#e24329"
               inkscape:connector-curvature="0"
               d="m 197.8544,74.7342 h -54.153 l 23.273,-71.625 c 1.197,-3.686 6.411,-3.685 7.608,0 z"
               id="Fill-22" />
          </g>
        </g>
      </g>
    </g>
    <g
       transform="matrix(0.39871136,0,0,0.39871136,173.65903,227.0602)"
       id="g4544">
      <path
         inkscape:connector-curvature="0"
         style="fill:#394d54"
         id="path14"
         d="m 147.4876,45.732 h 22.866 v 23.37473 h 11.56177 c 5.33905,0 10.83073,-0.95117 15.887,-2.66444 2.48448,-0.84244 5.27317,-2.01479 7.72392,-3.4892 -3.22785,-4.21436 -4.87579,-9.53574 -5.36101,-14.78106 -0.65874,-7.13426 0.78032,-16.42042 5.60897,-22.004216 l 2.40362,-2.780117 2.8642,2.302393 c 7.21138,5.79374 13.27612,13.88934 14.3451,23.11819 8.68312,-2.55411 18.87759,-1.95 26.53135,2.46735 l 3.14002,1.81182 -1.65276,3.2257 C 246.93289,68.946524 233.40077,72.859896 220.17071,72.167411 200.37356,121.4758 157.2729,144.82 105.01356,144.82 c -26.998899,0 -51.769845,-10.09272 -65.875552,-34.04693 -0.827018,-1.48798 -1.535233,-3.0439 -2.286326,-4.57212 C 32.083548,95.656747 30.499883,84.105687 31.574226,72.564267 l 0.32241,-3.457072 h 19.552937 v -23.37473 h 22.866 v -22.866 h 45.731997 v -22.866 h 27.43967 v 45.732" />
      <g
         id="g16"
         clip-path="url(#clipPath8)">
        <g
           id="g18">
          <g
             id="g20"
             transform="translate(0,-22.866)">
            <path
               inkscape:connector-curvature="0"
               style="fill:#00acd3"
               id="path22"
               d="m 123.85901,3.8110794 h 19.81751 V 23.62805 h -19.81751 z" />
            <path
               inkscape:connector-curvature="0"
               style="fill:#20c2ef"
               id="path24"
               d="m 123.85901,26.676485 h 19.81751 v 19.818043 h -19.81751 z" />
            <path
               inkscape:connector-curvature="0"
               style="stroke:#394d54;stroke-width:1.55999994"
               id="path26"
               d="M 126.29235,21.976904 V 5.4611548 M 129.2642,21.976904 V 5.4611548 m 3.00184,16.5157492 V 5.4611548 m 3.00344,16.5157492 V 5.4611548 M 138.2724,21.976904 V 5.4611548 m 2.97131,16.5157492 V 5.4611548" />
            <use
               height="100%"
               width="100%"
               y="0"
               x="0"
               xlink:href="#path26"
               id="use28"
               transform="translate(0,22.866)" />
          </g>
          <use
             height="100%"
             width="100%"
             y="0"
             x="0"
             xlink:href="#g20"
             id="use30"
             transform="matrix(1,0,0,-1,22.866,4.572651)" />
        </g>
        <use
           height="100%"
           width="100%"
           y="0"
           x="0"
           xlink:href="#g18"
           id="use32"
           transform="translate(-91.464,45.732)" />
        <use
           height="100%"
           width="100%"
           y="0"
           x="0"
           xlink:href="#g18"
           id="use34"
           transform="translate(-45.732,45.732)" />
        <use
           height="100%"
           width="100%"
           y="0"
           x="0"
           xlink:href="#g18"
           id="use36"
           transform="translate(0,45.732)" />
      </g>
      <path
         inkscape:connector-curvature="0"
         style="fill:#17b5eb"
         id="path38"
         clip-path="url(#clipPath8)"
         d="m 221.57014,54.379649 c 1.53332,-11.915247 -7.38383,-21.274779 -12.91407,-25.71836 -6.37269,7.367765 -7.36295,26.677556 2.63498,34.807431 -5.57952,4.956117 -17.33731,9.448435 -29.37574,9.448435 L 34,72.917155 C 32.829255,85.484184 34,146 34,146 h 217 l -0.98657,-91.424 c -9.39863,-5.423665 -21.48419,-3.694326 -28.44332,-0.196552" />
      <path
         inkscape:connector-curvature="0"
         style="fill-opacity:0.17000002"
         id="path40"
         clip-path="url(#clipPath8)"
         d="m 34,89 v 57 H 251 V 89" />
      <path
         inkscape:connector-curvature="0"
         style="fill:#d4edf1"
         id="path42"
         clip-path="url(#clipPath8)"
         d="M 111.23736,140.88997 C 97.697741,134.4648 90.265707,125.73081 86.130611,116.19562 L 45,118 l 21,28 45.23736,-5.11003" />
      <path
         inkscape:connector-curvature="0"
         style="fill-opacity:0.08500001"
         id="path44"
         clip-path="url(#clipPath8)"
         d="m 222.5,53.9375 v 0.03125 c -20.86119,26.889144 -50.78312,50.37872 -82.90625,62.71875 -28.65478,11.00767 -53.638381,11.06039 -70.875,2.21875 -1.85607,-1.04832 -3.675701,-2.21152 -5.5,-3.3125 C 50.582097,106.76175 43.464274,92.152308 44.0625,72.90625 H 34 V 146 H 251 V 50 h -25 z" />
      <path
         inkscape:connector-curvature="0"
         style="fill:none;stroke:#394d54;stroke-width:3.4000001;stroke-linecap:round"
         id="path46"
         d="m 45.625,117.03125 c 14.165153,0.77531 29.28245,0.91433 42.46875,-3.21875" />
      <path
         inkscape:connector-curvature="0"
         style="fill:#d4edf1"
         id="path48"
         d="m 102.17024,106.95926 c 0,3.01898 -2.447529,5.46651 -5.466508,5.46651 -3.019514,0 -5.467581,-2.44753 -5.467581,-5.46651 0,-3.01897 2.448067,-5.46758 5.467581,-5.46758 3.018979,0 5.466508,2.44861 5.466508,5.46758 z" />
      <path
         inkscape:connector-curvature="0"
         style="fill:#394d54"
         id="path50"
         d="m 98.121372,103.30778 c -0.477188,0.27582 -0.800133,0.79264 -0.800133,1.3839 0,0.88261 0.715514,1.59706 1.598125,1.59706 0.604653,0 1.130046,-0.3358 1.401576,-0.83174 0.19173,0.4622 0.29831,0.96991 0.29831,1.50226 0,2.16208 -1.752907,3.91498 -3.915518,3.91498 -2.162075,0 -3.91605,-1.7529 -3.91605,-3.91498 0,-2.16314 1.753975,-3.91658 3.91605,-3.91658 0.500218,0 0.977406,0.0943 1.41764,0.2651 z" />
      <path
         inkscape:connector-curvature="0"
         style="fill:#394d54"
         id="path52"
         d="m 0,90.162343 h 254.32743 c -5.53774,-1.404786 -17.521,-3.302293 -15.54477,-10.559732 -10.06915,11.651749 -34.35274,8.174326 -40.4812,2.428786 -6.82471,9.89831 -46.55451,6.135967 -49.32553,-1.575096 -8.55565,10.04077 -35.06718,10.04077 -43.62336,0 -2.77209,7.711063 -42.501357,11.473406 -49.326595,1.575096 C 49.897506,87.776937 25.616067,91.25436 15.545841,79.602611 17.522075,86.86005 5.5388117,88.757557 0,90.162343" />
    </g>
  </g>
</svg>
