<?xml version="1.0" encoding="UTF-8" standalone="no"?>
<svg
   xmlns:dc="http://purl.org/dc/elements/1.1/"
   xmlns:cc="http://creativecommons.org/ns#"
   xmlns:rdf="http://www.w3.org/1999/02/22-rdf-syntax-ns#"
   xmlns:svg="http://www.w3.org/2000/svg"
   xmlns="http://www.w3.org/2000/svg"
   xmlns:xlink="http://www.w3.org/1999/xlink"
   xmlns:sodipodi="http://sodipodi.sourceforge.net/DTD/sodipodi-0.dtd"
   xmlns:inkscape="http://www.inkscape.org/namespaces/inkscape"
   width="1280pt"
   height="720pt"
   viewBox="0 0 451.55557 254"
   version="1.1"
   id="svg8"
   inkscape:version="1.0 (4035a4fb49, 2020-05-01)"
   sodipodi:docname="thumbnail_068.svg"
   inkscape:export-filename="thumbnail_068.png"
   inkscape:export-xdpi="57.593498"
   inkscape:export-ydpi="57.593498">
  <defs
     id="defs2">
    <path
       sodipodi:nodetypes="czzc"
       inkscape:connector-curvature="0"
       id="path5167-5-3-6"
       d="m 165.68141,140.85891 c 8.75775,2.20625 -7.63349,52.69351 2.40542,59.60111 10.03891,6.9076 10.02941,-24.36935 19.24342,-17.6398 9.21401,6.72955 15.82865,43.17979 14.69981,64.9465"
       style="fill:none;stroke:#000000;stroke-width:1;stroke-linecap:butt;stroke-linejoin:miter;stroke-miterlimit:4;stroke-dasharray:none;stroke-opacity:1" />
    <clipPath
       id="clip1-3">
      <path
         inkscape:connector-curvature="0"
         id="path1008"
         d="M 0,340.15625 H 481.89062 V 0 H 0 Z m 0,0" />
    </clipPath>
    <clipPath
       id="clipPath8">
      <path
         inkscape:connector-curvature="0"
         d="M 76,2 V 48 H 54 V 71 H 35.580737 c -0.07818,0.665694 -0.141485,1.332869 -0.205737,2 -1.151162,12.530963 1.036422,24.087546 6.0625,33.96875 L 43.125,110 c 1.011403,1.81678 2.191241,3.52297 3.4375,5.1875 1.244725,1.66248 1.685716,2.58262 2.46875,3.6875 C 62.319911,133.81083 82.129473,141 105,141 155.64836,141 198.63299,118.56201 217.65625,68.15625 231.15302,69.54122 244.09968,66.080358 250,54.5625 240.60137,49.138835 228.52163,50.877226 221.5625,54.375 L 240,2 168,48 H 145 V 2 Z"
         id="path10" />
    </clipPath>
    <clipPath
       id="clipPath4558">
      <path
         inkscape:connector-curvature="0"
         d="M 76,2 V 48 H 54 V 71 H 35.580737 c -0.07818,0.665694 -0.141485,1.332869 -0.205737,2 -1.151162,12.530963 1.036422,24.087546 6.0625,33.96875 L 43.125,110 c 1.011403,1.81678 2.191241,3.52297 3.4375,5.1875 1.244725,1.66248 1.685716,2.58262 2.46875,3.6875 C 62.319911,133.81083 82.129473,141 105,141 155.64836,141 198.63299,118.56201 217.65625,68.15625 231.15302,69.54122 244.09968,66.080358 250,54.5625 240.60137,49.138835 228.52163,50.877226 221.5625,54.375 L 240,2 168,48 H 145 V 2 Z"
         id="path4556" />
    </clipPath>
    <clipPath
       id="clipPath4562">
      <path
         inkscape:connector-curvature="0"
         d="M 76,2 V 48 H 54 V 71 H 35.580737 c -0.07818,0.665694 -0.141485,1.332869 -0.205737,2 -1.151162,12.530963 1.036422,24.087546 6.0625,33.96875 L 43.125,110 c 1.011403,1.81678 2.191241,3.52297 3.4375,5.1875 1.244725,1.66248 1.685716,2.58262 2.46875,3.6875 C 62.319911,133.81083 82.129473,141 105,141 155.64836,141 198.63299,118.56201 217.65625,68.15625 231.15302,69.54122 244.09968,66.080358 250,54.5625 240.60137,49.138835 228.52163,50.877226 221.5625,54.375 L 240,2 168,48 H 145 V 2 Z"
         id="path4560" />
    </clipPath>
    <clipPath
       id="clipPath4566">
      <path
         inkscape:connector-curvature="0"
         d="M 76,2 V 48 H 54 V 71 H 35.580737 c -0.07818,0.665694 -0.141485,1.332869 -0.205737,2 -1.151162,12.530963 1.036422,24.087546 6.0625,33.96875 L 43.125,110 c 1.011403,1.81678 2.191241,3.52297 3.4375,5.1875 1.244725,1.66248 1.685716,2.58262 2.46875,3.6875 C 62.319911,133.81083 82.129473,141 105,141 155.64836,141 198.63299,118.56201 217.65625,68.15625 231.15302,69.54122 244.09968,66.080358 250,54.5625 240.60137,49.138835 228.52163,50.877226 221.5625,54.375 L 240,2 168,48 H 145 V 2 Z"
         id="path4564" />
    </clipPath>
    <clipPath
       id="clipPath4570">
      <path
         inkscape:connector-curvature="0"
         d="M 76,2 V 48 H 54 V 71 H 35.580737 c -0.07818,0.665694 -0.141485,1.332869 -0.205737,2 -1.151162,12.530963 1.036422,24.087546 6.0625,33.96875 L 43.125,110 c 1.011403,1.81678 2.191241,3.52297 3.4375,5.1875 1.244725,1.66248 1.685716,2.58262 2.46875,3.6875 C 62.319911,133.81083 82.129473,141 105,141 155.64836,141 198.63299,118.56201 217.65625,68.15625 231.15302,69.54122 244.09968,66.080358 250,54.5625 240.60137,49.138835 228.52163,50.877226 221.5625,54.375 L 240,2 168,48 H 145 V 2 Z"
         id="path4568" />
    </clipPath>
    <linearGradient
       id="linearGradient4702-3">
      <stop
         style="stop-color:#ff0000;stop-opacity:0.58431375;"
         offset="0"
         id="stop4704-1" />
      <stop
         style="stop-color:#ffcc00;stop-opacity:1;"
         offset="1"
         id="stop4706-8" />
    </linearGradient>
    <linearGradient
       id="linearGradient4696-5">
      <stop
         style="stop-color:#ffb638;stop-opacity:1;"
         offset="0"
         id="stop4698-6" />
      <stop
         style="stop-color:#f0ae26;stop-opacity:1;"
         offset="1"
         id="stop4700-2" />
    </linearGradient>
    <clipPath
       id="clip1-3-3">
      <path
         inkscape:connector-curvature="0"
         id="path1008-6"
         d="M 0,340.15625 H 481.89062 V 0 H 0 Z m 0,0" />
    </clipPath>
    <mask
       id="mask0"
       mask-type="alpha"
       maskUnits="userSpaceOnUse"
       x="0"
       y="0"
       width="256"
       height="256">
      <path
         style="clip-rule:evenodd;fill:#ffffff;fill-rule:evenodd"
         inkscape:connector-curvature="0"
         d="m 181.534,254.252 c 4.032,1.571 8.63,1.47 12.7,-0.488 l 52.706,-25.361 c 5.538,-2.665 9.06,-8.271 9.06,-14.42 V 42.0181 c 0,-6.1492 -3.522,-11.7543 -9.06,-14.4193 L 194.234,2.23681 c -5.341,-2.569942 -11.592,-1.940466 -16.279,1.46737 -0.67,0.48682 -1.308,1.03036 -1.906,1.62936 L 75.149,97.3862 31.1992,64.0247 C 27.1079,60.9191 21.3853,61.1735 17.5855,64.63 L 3.48936,77.4525 c -4.64789,4.228 -4.65322,11.5401 -0.01151,15.7749 L 41.5926,128 3.47785,162.773 c -4.64171,4.235 -4.63638,11.547 0.01151,15.775 L 17.5855,191.37 c 3.7998,3.457 9.5224,3.711 13.6137,0.606 l 43.9498,-33.362 100.9,92.053 c 1.596,1.597 3.47,2.8 5.485,3.585 z M 192.039,69.8853 115.479,128 l 76.56,58.115 z"
         id="path994" />
    </mask>
    <filter
       style="color-interpolation-filters:sRGB"
       id="filter0_d"
       x="-21.489599"
       y="40.522499"
       width="298.82199"
       height="236.149"
       filterUnits="userSpaceOnUse">
      <feFlood
         flood-opacity="0"
         result="BackgroundImageFix"
         id="feFlood1013" />
      <feColorMatrix
         in="SourceAlpha"
         type="matrix"
         values="0 0 0 0 0 0 0 0 0 0 0 0 0 0 0 0 0 0 127 0"
         id="feColorMatrix1015" />
      <feOffset
         id="feOffset1017" />
      <feGaussianBlur
         stdDeviation="10.6667"
         id="feGaussianBlur1019" />
      <feColorMatrix
         type="matrix"
         values="0 0 0 0 0 0 0 0 0 0 0 0 0 0 0 0 0 0 0.25 0"
         id="feColorMatrix1021" />
      <feBlend
         mode="overlay"
         in2="BackgroundImageFix"
         result="effect1_dropShadow"
         id="feBlend1023" />
      <feBlend
         mode="normal"
         in="SourceGraphic"
         in2="effect1_dropShadow"
         result="shape"
         id="feBlend1025" />
    </filter>
    <filter
       style="color-interpolation-filters:sRGB"
       id="filter1_d"
       x="154.66701"
       y="-20.6735"
       width="122.667"
       height="297.34698"
       filterUnits="userSpaceOnUse">
      <feFlood
         flood-opacity="0"
         result="BackgroundImageFix"
         id="feFlood1028" />
      <feColorMatrix
         in="SourceAlpha"
         type="matrix"
         values="0 0 0 0 0 0 0 0 0 0 0 0 0 0 0 0 0 0 127 0"
         id="feColorMatrix1030" />
      <feOffset
         id="feOffset1032" />
      <feGaussianBlur
         stdDeviation="10.6667"
         id="feGaussianBlur1034" />
      <feColorMatrix
         type="matrix"
         values="0 0 0 0 0 0 0 0 0 0 0 0 0 0 0 0 0 0 0.25 0"
         id="feColorMatrix1036" />
      <feBlend
         mode="overlay"
         in2="BackgroundImageFix"
         result="effect1_dropShadow"
         id="feBlend1038" />
      <feBlend
         mode="normal"
         in="SourceGraphic"
         in2="effect1_dropShadow"
         result="shape"
         id="feBlend1040" />
    </filter>
    <linearGradient
       id="paint0_linear"
       x1="127.844"
       y1="0.65998799"
       x2="127.844"
       y2="255.34"
       gradientUnits="userSpaceOnUse">
      <stop
         stop-color="white"
         id="stop1043" />
      <stop
         offset="1"
         stop-color="white"
         stop-opacity="0"
         id="stop1045" />
    </linearGradient>
    <clipPath
       id="clip1-3-3-3">
      <path
         inkscape:connector-curvature="0"
         id="path1008-6-6"
         d="M 0,340.15625 H 481.89062 V 0 H 0 Z m 0,0" />
    </clipPath>
  </defs>
  <sodipodi:namedview
     id="base"
     pagecolor="#ffffff"
     bordercolor="#666666"
     borderopacity="1.0"
     inkscape:pageopacity="0.0"
     inkscape:pageshadow="2"
     inkscape:zoom="0.49497475"
     inkscape:cx="787.92224"
     inkscape:cy="494.52637"
     inkscape:document-units="mm"
     inkscape:current-layer="layer1"
     showgrid="false"
     units="pt"
     showguides="true"
     inkscape:guide-bbox="true"
     inkscape:window-width="1916"
     inkscape:window-height="1029"
     inkscape:window-x="0"
     inkscape:window-y="24"
     inkscape:window-maximized="0"
     inkscape:pagecheckerboard="true"
     inkscape:document-rotation="0" />
  <metadata
     id="metadata5">
    <rdf:RDF>
      <cc:Work
         rdf:about="">
        <dc:format>image/svg+xml</dc:format>
        <dc:type
           rdf:resource="http://purl.org/dc/dcmitype/StillImage" />
        <dc:title />
      </cc:Work>
    </rdf:RDF>
  </metadata>
  <g
     inkscape:label="Calque 1"
     inkscape:groupmode="layer"
     id="layer1"
     transform="translate(0,-43.000005)">
    <rect
       style="fill:#ffffff;fill-opacity:1;stroke:none;stroke-width:0.94669914;stroke-miterlimit:4;stroke-dasharray:none;stroke-opacity:1"
       id="rect891"
       width="451.60654"
       height="254.14574"
       x="0.0023248347"
       y="42.995995" />
    <text
       xml:space="preserve"
       style="font-style:normal;font-weight:normal;font-size:10.5833px;line-height:1.25;font-family:sans-serif;letter-spacing:0px;word-spacing:0px;fill:#000000;fill-opacity:1;stroke:none;stroke-width:0.264583"
       x="9.0871811"
       y="70.889969"
       id="text230"><tspan
         sodipodi:role="line"
         id="tspan228"
         x="9.0871811"
         y="70.889969"
         style="font-style:italic;font-variant:normal;font-weight:normal;font-stretch:normal;font-size:22.5778px;font-family:'DejaVu Sans';-inkscape-font-specification:'DejaVu Sans';stroke-width:0.264583">tuto fonctionnel 68</tspan></text>
    <text
       xml:space="preserve"
       style="font-style:normal;font-weight:normal;font-size:10.5833px;line-height:1.25;font-family:sans-serif;text-align:center;letter-spacing:0px;word-spacing:0px;text-anchor:middle;fill:#000000;fill-opacity:1;stroke:none;stroke-width:0.264583"
       x="296.18314"
       y="107.06251"
       id="text234"
       inkscape:export-filename="thumbnail_41.png"
       inkscape:export-xdpi="72"
       inkscape:export-ydpi="72"><tspan
         id="tspan89"
         sodipodi:role="line"
         x="296.18314"
         y="107.06251"
         style="font-style:normal;font-variant:normal;font-weight:bold;font-stretch:normal;font-size:22.5778px;font-family:'DejaVu Sans';-inkscape-font-specification:'DejaVu Sans Bold';text-align:center;text-anchor:middle;stroke-width:0.264583">IA de jeux,</tspan><tspan
         sodipodi:role="line"
         x="296.18314"
         y="135.28476"
         style="font-style:normal;font-variant:normal;font-weight:bold;font-stretch:normal;font-size:22.5778px;font-family:'DejaVu Sans';-inkscape-font-specification:'DejaVu Sans Bold';text-align:center;text-anchor:middle;stroke-width:0.264583"
         id="tspan910">Performances</tspan><tspan
         id="tspan874"
         sodipodi:role="line"
         x="296.18314"
         y="163.507"
         style="font-style:normal;font-variant:normal;font-weight:bold;font-stretch:normal;font-size:22.5778px;font-family:'DejaVu Sans';-inkscape-font-specification:'DejaVu Sans Bold';text-align:center;text-anchor:middle;stroke-width:0.264583">de code,</tspan><tspan
         id="tspan876"
         sodipodi:role="line"
         x="296.18314"
         y="191.72926"
         style="font-style:normal;font-variant:normal;font-weight:bold;font-stretch:normal;font-size:22.5778px;font-family:'DejaVu Sans';-inkscape-font-specification:'DejaVu Sans Bold';text-align:center;text-anchor:middle;stroke-width:0.264583">en C++</tspan></text>
    <g
       transform="translate(3.3265185,22.356119)"
       id="layer1-6"
       inkscape:label="Calque 1">
      <g
         id="g1005"
         transform="rotate(-1.4139041,-2772.7956,-22.807463)">
        <ellipse
           id="path618"
           style="fill:#188a17;fill-opacity:1;stroke:#000000;stroke-width:1.03158987;stroke-miterlimit:4;stroke-dasharray:none;stroke-opacity:1"
           cy="204.13069"
           cx="60.581951"
           rx="44.654301"
           ry="41.961315"
           transform="matrix(0.93969262,-0.34202014,0,1,0,0)" />
        <path
           style="fill:none;stroke:#000000;stroke-width:1;stroke-linecap:butt;stroke-linejoin:miter;stroke-miterlimit:4;stroke-dasharray:none;stroke-opacity:1"
           d="m 83.655359,181.27231 c 8.01809,12.56167 -7.834319,53.36705 2.40543,57.46295 10.239741,4.0959 17.434311,-20.06297 24.856081,-15.76891 7.42176,4.29407 19.73209,31.75136 23.74112,68.36729"
           id="path5167"
           inkscape:connector-curvature="0"
           sodipodi:nodetypes="czzc" />
        <path
           style="fill:#e4b037;fill-opacity:1;stroke:none;stroke-width:0.26458332px;stroke-linecap:butt;stroke-linejoin:miter;stroke-opacity:1"
           d="m 83.655359,181.27231 c 5.329557,10.80172 -2.256648,34.96266 -1.164362,51.45181 2.355187,-3.99293 4.229975,-9.91384 8.543604,-12.27473 l 18.400639,1.52534 c 11.92386,7.83973 20.70982,38.87213 25.22275,69.35891 l -27.46963,-0.3864 c -1.44141,-18.06646 -1.10305,-41.22541 -8.23526,-59.62662 -5.546631,6.50744 -8.635629,7.68954 -11.297355,8.07228 l -12.662203,-0.28348 c -13.536594,-3.57681 3.267304,-40.90184 -4.153828,-60.26716 z"
           id="path5184"
           inkscape:connector-curvature="0"
           sodipodi:nodetypes="ccccccccccc" />
        <path
           style="fill:none;stroke:#000000;stroke-width:1;stroke-linecap:butt;stroke-linejoin:miter;stroke-miterlimit:4;stroke-dasharray:none;stroke-opacity:1"
           d="m 70.839714,178.84226 c 8.018085,12.56167 -7.834325,55.50521 2.405425,59.60111 10.23975,4.0959 11.77188,-20.01319 19.24342,-17.6398 7.471541,2.37339 15.768891,48.22756 14.699801,70.14367"
           id="path5167-5"
           inkscape:connector-curvature="0"
           sodipodi:nodetypes="czzc" />
        <text
           xml:space="preserve"
           style="font-style:normal;font-weight:normal;font-size:10.5833px;line-height:1.25;font-family:sans-serif;letter-spacing:0px;word-spacing:0px;fill:#000000;fill-opacity:1;stroke:none;stroke-width:0.264583"
           id="text5228"
           x="-90.336311"
           y="29.104166"
           transform="translate(-128.04817,17.497611)"><textPath
             xlink:href="#path5167-5-3"
             id="textPath5230"
             style="font-style:normal;font-variant:normal;font-weight:normal;font-stretch:normal;font-size:8.46667px;font-family:'DejaVu Sans Mono';-inkscape-font-specification:'DejaVu Sans Mono'"><tspan
               style="font-style:normal;font-variant:normal;font-weight:normal;font-stretch:normal;font-size:8.46667px;font-family:'DejaVu Sans Mono';-inkscape-font-specification:'DejaVu Sans Mono';stroke-width:0.264583"
               id="tspan5224"
               y="149.50342"
               x="22.300737">  = getLine  &gt;&gt;=   print.toUpper</tspan></textPath></text>
        <ellipse
           transform="matrix(0.93969262,-0.34202014,0,1,0,0)"
           ry="41.961315"
           rx="44.654301"
           cx="48.920635"
           cy="194.79691"
           style="fill:#188a17;fill-opacity:1;stroke:#000000;stroke-width:1.03158987;stroke-miterlimit:4;stroke-dasharray:none;stroke-opacity:1"
           id="ellipse5142" />
        <path
           style="fill:#55beff;fill-opacity:1;stroke:#000000;stroke-width:1;stroke-linecap:butt;stroke-linejoin:miter;stroke-miterlimit:4;stroke-dasharray:none;stroke-opacity:1"
           d="m 46.580184,169.20253 c 0,0 3.584168,-16.07383 -1.037477,-16.31343 -4.620296,-0.23951 -11.822284,8.6561 -11.822284,8.6561 0,0 7.181228,-13.61669 14.521908,-13.48354 9.176684,0.16646 4.66429,15.51714 4.269441,22.97196 -0.510268,9.63391 -2.059249,24.30368 2.465125,24.30369 4.524376,-1e-5 10.240251,-4.82745 10.240251,-4.82745 0,0 -5.641599,10.32074 -13.431335,10.48722 -7.789729,0.16646 -5.111095,-24.80308 -5.111095,-24.80308 l -21.46961,24.80306 -7.668561,-0.16645 z"
           id="path5115"
           inkscape:connector-curvature="0"
           sodipodi:nodetypes="cscssscccccc" />
      </g>
      <path
         sodipodi:nodetypes="czcc"
         inkscape:connector-curvature="0"
         id="path5167-5-3"
         d="m 201.09531,164.64129 c 10.64763,20.34911 -5.34664,41.15968 3.09652,54.1149 8.44316,12.95522 26.33325,-16.78101 26.33325,-16.78101 0.35282,8.71659 15.43326,38.10492 14.27598,71.73107"
         style="display:none;fill:none;stroke:#000000;stroke-width:1;stroke-linecap:butt;stroke-linejoin:miter;stroke-miterlimit:4;stroke-dasharray:none;stroke-opacity:1" />
    </g>
    <flowRoot
       xml:space="preserve"
       id="flowRoot1086"
       style="font-style:normal;font-weight:normal;font-size:40px;line-height:1.25;font-family:sans-serif;letter-spacing:0px;word-spacing:0px;fill:#000000;fill-opacity:1;stroke:none"><flowRegion
         id="flowRegion1088"><rect
           id="rect1090"
           width="29.226282"
           height="44.835529"
           x="1146.4677"
           y="512.46112" /></flowRegion><flowPara
         id="flowPara1092" /></flowRoot>
    <flowRoot
       xml:space="preserve"
       id="flowRoot1130"
       style="font-style:normal;font-weight:normal;font-size:40px;line-height:1.25;font-family:sans-serif;letter-spacing:0px;word-spacing:0px;fill:#000000;fill-opacity:1;stroke:none"><flowRegion
         id="flowRegion1132"><rect
           id="rect1134"
           width="737.41138"
           height="939.44183"
           x="-30.304577"
           y="101.37035" /></flowRegion><flowPara
         id="flowPara1136" /></flowRoot>
    <text
       xml:space="preserve"
       style="font-style:normal;font-weight:normal;font-size:10.5833px;line-height:1.25;font-family:sans-serif;letter-spacing:0px;word-spacing:0px;fill:#000000;fill-opacity:1;stroke:none;stroke-width:0.264583"
       x="204.19391"
       y="0.86537212"
       id="text1144" />
    <image
       width="56.389305"
       height="63.391899"
       preserveAspectRatio="none"
       xlink:href="data:image/png;base64,iVBORw0KGgoAAAANSUhEUgAAA5YAAAQICAYAAAB2wETDAAAAGXRFWHRTb2Z0d2FyZQBBZG9iZSBJ bWFnZVJlYWR5ccllPAAAAyRpVFh0WE1MOmNvbS5hZG9iZS54bXAAAAAAADw/eHBhY2tldCBiZWdp bj0i77u/IiBpZD0iVzVNME1wQ2VoaUh6cmVTek5UY3prYzlkIj8+IDx4OnhtcG1ldGEgeG1sbnM6 eD0iYWRvYmU6bnM6bWV0YS8iIHg6eG1wdGs9IkFkb2JlIFhNUCBDb3JlIDUuMy1jMDExIDY2LjE0 NTY2MSwgMjAxMi8wMi8wNi0xNDo1NjoyNyAgICAgICAgIj4gPHJkZjpSREYgeG1sbnM6cmRmPSJo dHRwOi8vd3d3LnczLm9yZy8xOTk5LzAyLzIyLXJkZi1zeW50YXgtbnMjIj4gPHJkZjpEZXNjcmlw dGlvbiByZGY6YWJvdXQ9IiIgeG1sbnM6eG1wPSJodHRwOi8vbnMuYWRvYmUuY29tL3hhcC8xLjAv IiB4bWxuczp4bXBNTT0iaHR0cDovL25zLmFkb2JlLmNvbS94YXAvMS4wL21tLyIgeG1sbnM6c3RS ZWY9Imh0dHA6Ly9ucy5hZG9iZS5jb20veGFwLzEuMC9zVHlwZS9SZXNvdXJjZVJlZiMiIHhtcDpD cmVhdG9yVG9vbD0iQWRvYmUgUGhvdG9zaG9wIENTNiAoTWFjaW50b3NoKSIgeG1wTU06SW5zdGFu Y2VJRD0ieG1wLmlpZDpENjQwMDE3RERGNzcxMUU2QjZBM0UwOEQyRThDMTczMSIgeG1wTU06RG9j dW1lbnRJRD0ieG1wLmRpZDpENjQwMDE3RURGNzcxMUU2QjZBM0UwOEQyRThDMTczMSI+IDx4bXBN TTpEZXJpdmVkRnJvbSBzdFJlZjppbnN0YW5jZUlEPSJ4bXAuaWlkOkQ2NDAwMTdCREY3NzExRTZC NkEzRTA4RDJFOEMxNzMxIiBzdFJlZjpkb2N1bWVudElEPSJ4bXAuZGlkOkQ2NDAwMTdDREY3NzEx RTZCNkEzRTA4RDJFOEMxNzMxIi8+IDwvcmRmOkRlc2NyaXB0aW9uPiA8L3JkZjpSREY+IDwveDp4 bXBtZXRhPiA8P3hwYWNrZXQgZW5kPSJyIj8+yYBFTwAAsKxJREFUeNrs3Qd81PX9x/FP9k5IQsII YW9kKooDwb3aOqrW1moX2n+tgmDdo45qXVWx2oFY66hFrLN1L1BG2BA2CWTvvdfd5f/53sUNmHHJ 3e/u9Xw8Po9vREF43+W49/1+v+8vQAAA8BPzlqTH6TJaZ2TH9NdJ1knq+NpMpE64TrBO1Dd+iQYd m06zTqNOeceU6ZR2fJ2ls18nc+mVU2pIHQDgDwKIAADggwUyTJcpOkd2zBEdhbJ/H/9WTNHM1Nmh s6lj0rVwtvAoAQAolgAAeFeRjNflJJ1TdWbpTBbXEUdvZI54btdJ0/lQ5xMtmlU8igAAiiUAAH1b JAN1OV7nTJ3TxHVUMtCifxyHuI5kfqDzrs5qLZoOHmUAAMUSAAD3l0nzd9YxOhd1TKqP/lHzdF7u mHVaMtt59AEAFEsAAHpWKE2B/JXOz3SG+9kfP1vnWZ2ntWDm8WwAAFAsAQDoWqGco8sine+JdU9z dRdzauz/dB7VgrmCZwcAgGIJAMChy6T5e+lcndvEdd0kvs1cj/kHnTc4TRYAQLEEAODrpfJ0XR7Q mUYanbJV50Ytl+8TBQCAYgkA8PdCaW4N8idx7e6KrjO7yV6nBXM7UQAAKJYAAH8rlIm63K3za50g EukRu87fde7QgllBHAAAiiUAwNcLZbAuV+ncqRNPIm5V1ZHrX7Rg2ogDAECxBAD4Yqk8Q5dHdCaS Rq/arbNQy+V7RAEAoFgCAHylUI4R13WU3yeNPmVuUWKuv9xHFAAAiiUAwKqFMlaX23UW6ISQiEe0 6SzW+YMWzBriAABQLAEAVimUgbr8UudenWQS8Qql4ro/6NNaMB3EAQCgWAIAvLlUnqjLYzrTScMr bdG5Vsvlp0QBAKBYAgC8rVAO0+VBnYtJwxKW69ygBTOHKAAAFEsAgKcLZaQuN+lcrxNOIpbSrPOQ zv1aMBuJAwBAsQQA9HWhNH+H/FhcRylTSMTSCnRu0Pm3Fsx24gAAUCwBAH1RKmeKa6fRY0nDp6wV 1/WX64kCAECxBAD0VqEcqMv9Opfzd4jPMkcsn9O5WQtmEXEAACiWAAB3FcowXRbq3KoTTSJ+oV7n Pp1HtGC2EAcAgGIJAOhJqTzPlAudEaThl7J0rtNy+RpRAAAolgCArhbKyeK6H+XJpAH1ic4CLZjb iQIAQLEEAHxXoUzU5Q86V+gEkQi+wq7zlM5tWjAriAMAQLEEAHyzUAbr8ludO3X6kQgOo7rjefKk FkwbcQAAKJYAAFMqzxDXaa/jSQNdsEdctyd5jygAgGIJAPDfQjlWXBvznEMa6IG3dBZpwdxHFABA sQQA+E+hjNPldp35OiEkAjdo0/mzzt1aMGuIAwAolgAA3y2Ugbr8SudenSQSQS8o07lNZ6kWTAdx AADFEgDgW6XyRF0W60wjDfSBbTrztVx+ShQAQLEEAFi/UA7X5QGdi0kDHvCyzg1aMLOJAgAolgAA 6xXKKF1u1LleJ5xE4EHNOg/r3K8Fs4E4AIBiCQDw/kJpXtt/ovOgzmASgRcp1LlB50UtmO3EAQAU SwCAd5bKo8V1HeUs0oAXS9NZoOVyPVEAAMUSAOA9hdIcmbxP52ekAQt5VucWLZiFRAEAFEsAgOcK pbl2cqF5c64TTSKwoHpxfSjyqBbMZuIAAIolAKBvS+UF4toQZQRpwAdk61yn5fJVogAAiiUAoPcL 5RRdHtM5iTTgg1aI6/rLdKIAAIolAMD9hbK/LvfoXKETRCLwYQ6dJTp3aMEsIw4AoFgCAHpeKIN1 uVrn9zr9SAR+pFrnLp0ntWC2EQcAUCwBAN0rlWfp8ojOeNKAH9ujs0jL5TtEAQAUSwBA5wvluI5C eTZpAF94u6Ng7iUKAKBYAgAOXSjjxHXKqzn1NYREgG8xp8Q+oXOXFswa4gAAiiUA4MtCGSiuTXnM 5jxJJAJ8J7Opz+06T2nBdBAHAFAsAcDfS+UcXRbrTCUNoMu26Vyr5XIFUQAAxRIA/LFQDtflIZ0L SQPosf/o3KAFM4soAIBiCQD+UCijdLlZ5zqdcBIB3KZZXJte3acFs4E4AIBiCQC+WCjNa+6lOg/o DCYRoNcU6tyk84IWzHbiAACKJQD4Sqk8WpfHdY4hDaDPrNNZoOVyHVEAAMUSAKxcKM2Ryft1LiMN wGOe17lJC2YhUQAAxRIArFQozbWTi3Ru0YkiEcDjzDWX9+k8ogWzmTgAgGIJAN5eKn+oy8M6w0kD 8DrZOr/TcvkKUQAAxRIAvLFQThHXdZRzSAPweit15mvBTCcKAKBYAoA3FMokXe7RuUInkEQAy3Do LNW5TQtmGXEAAMUSADxRKEN0+a3OnTpxJAJYVo3OXTpPaMFsIw4AoFgCQF+VyrN0eVRnHGkAPmOf zrVaLt8hCgCgWAJAbxbKcR2F8izSAHzWux0Fcy9RAADFEgDcWSj76XKHzjU6wSQC+DybzhM6d2nB rCYOAKBYAkBPCmWQWcS1OU8SiQB+p1znNp2lWjDtxAEAFEsA6GqpnKvLYp0ppAH4PXNbkgVaLlcQ BQBQLAGgM4VyhC4P6fyQNAB8wys612vBzCIKAKBYAsDBCmW0LjfrXKcTRiIADqFF5086f9SCWU8c AECxBABTKM1r4WXmTaLOYBIB0ElFOjfpPK8Fs504AFAsAcB/S+UsXR7TOYY0AHTTenFdf5lGFAAo lgDgX4UyRVxHKC8jDQBu8oLOTVowC4gCAMUSAHy7UIaL6xpKcy1lFIkAcLNGnft0HtGC2UQcACiW AOB7pfJCce32Opw0APSybJ0btFy+TBQAKJYA4BuFcpq4rqOcQxoA+thKnWu1YG4lCgAUSwCwZqFM 1uUe86VOIIkA8BCHzlKd27VglhIHAIolAFijUIboco3OHTpxJALAS9To3K3zZy2YbcQBgGIJAN5b Ks/W5VGdsaQBwEvt01mk5fItogBAsQQA7yqU4zsK5ZmkAcAi3u0omLuJAgDFEgA8Wyj76XKnzm91 gkkEgMXYdJ7UuUsLZhVxAKBYAkDfFsogXa4Q1+Y8/UkEgMWVi+u68CVaMO3EAYBiCQC9Xyrn6vK4 zmTSAOBjtuss0HL5CVEAoFgCQO8UyhG6PKxzAWkA8HGv6VynBTOLKABQLAHAPYUyWpdbdRbqhJEI AD/RIq5Nye7VgllPHAAolgDQvUJpXqMu1/mjziASAeCninRu1nlOC2Y7cQCgWAJA50vlLHFdRzmT NADAaYPOfC2XaUQBgGIJAIcvlCm6PKBzKWkAwEG9qHODFswCogBAsQSArxfKCF2uE9fpXpEkAgCH 1ahzv87DWjCbiAMAxRIApXJJ+kW6PKQzjDQAoEtyxHX0cjlRAKBYAvDXQjlNl8U6J5IGAPTIZ+K6 /nIrUQCgWALwl0KZrMs9OlfwOgQAbmN2jF2qc5sWzFLiAECxBOCrhTJUl6t1fq8TSyIA0Ctqde7W +bMWzFbiAECxBOBLpfIccd3oewxpAECfyNBZqOXyLaIAQLEEYPVCOaGjUJ5BGgDgEe91FMzdRAGA YgnAaoUyXlynvJpTX4NIBAA8yq7zhM5dWjCriAMAxRKAtxfKYHFtymM250kkEQDwKpU6t+k8pQXT RhwAKJYAvLFUnqzLYzqTSQMAvNoOnQVaLj8mCgAUSwDeUihH6vKwzvmkAQCW8rrOdVowDxAFAIol AE8VyhhdbtFZqBNGIgBgSeaWJI/o3KcFs444AFAsAfRVoTSvHT8zb0J0BpEIAPiEYp2bdZ7Tgukg DgAUSwC9WSqPE9d1lDNJAwB80gada7VcriEKABRLAO4ulEN0eUDnJ6QBAH7hRZ0btWDmEwUAiiWA nhbKCF2uN28udCJJBAD8SqO4PlR8SAtmE3EAoFgC6E6p/FHHG4phpAEAfi1HXEcvXyIKABRLAJ0t lNN1WawzmzQAAF/xmbiuv9xMFAAolgAOVSiTdblX51e8PgAADqFd52md27RglhAHAIolgM8LZagu 83Vu14klEQBAJ9Tq/EFnsRbMVuIAKJYA/LtUfk9cN8YeQxoAgG7I0LlOy+V/iQKgWALwv0I5QVz3 ozydNAAAbvC+zkItmLuIAqBYAvD9Qhmvy106V+kEkQgAwI3sOn/R+b0WzCriACiWAHyvUAbrcqXO PToJJAIA6EWV4rpuf4kWTBtxABRLAL5RKk8R12mvR5AGAKAP7RDX7Uk+IgqAYgnAuoVypLg25jmX NAAAHvSGziItmAeIAqBYArBOoYzR5VadhTqhJAIA8ALmliTm7Jk/aMGsIw6AYgnAewtloC6X69yv M4BEAABeqETnZp1ntWA6iAOgWALwrlJ5nC6LdY4iDQCABWzSma/lcg1RABRLAJ4vlEN0eVDnx6QB ALCgZTrXa8HMJwqAYgmg7wtlhPmLWOcmnQgSAQBYWJPOAzoPasFsIg6AYgmg9wul+b69WOchnVQS AQD4kDxxfWi6XAtmO3EAFEsAvVMqZ4jrOsoTSAMA4MNW6SzQcrmZKACKJQD3FUqzw+u9Or/k+xYA 4CfMEct/6NyqBbOEOACKJYDuF0pzD8oFOrfrxJAIAMAPmXte3qOzWAtmK3EAFEsAXSuVP9DlTzqj SQMAANmvs0jL5ZtEAVAsAXx3oZykyyM6p5MGAADf8oHOQi2YO4kCoFgC+HahTNDlTp2rdIJIBACA Q7Lr/FXn91owK4kDoFgCFMol6cG6/Frnbp0EEgEAoNOqxLUPwd+1YNqIA6BYAv5aKk8T12mvR5AG AADdZk6LNafHfkAUAMUS8KdCaTbkeVjnXNIAAMBt3tD5nRbMTKIAKJaALxfKWF1u1blWJ5REAABw O3NLksd07tWCWUscAMUS8KVCGajLz3Xu0xlAIgAA9LoSnVt0/qkF00EcAMUSsHqpPF6XxTpHkgYA AH1uk861Wi5XEQVAsQSsWChTdXlQ5xLSAADA45bp3KgFM5coAIolYIVCGWH+4tK5QSeCRAAA8BpN 4vrQ90EtmI3EAVAsAW8slOb76Ucdf2GlkggAAF4rT1wfAi/TgtlOHADFEvCWUjlDl8d1jicNAAAs Y7XOAi2Xm4gCoFgCniyUZofXP4prx1e+nwAAsB5zxPKfOjdrwSwhDoBiCfRloTT3oFworntSxpAI AACWV6dzr86jWjBbiQOgWAK9XSrP1eVPOqNIAwAAn7Nf5zotl28QBUCxBHqjUE7S5TGdU0kDAACf 96G47n+5kygAiiXgjkKZoMvdOv+nE0QiAAD4DbvO33Vu14JZSRwAxRLoTqEM7iiTplTGkwgAAH6r Suf3On/VgmkjDoBiCXS2VJ4mrtNeJ5IGAADosEtnoZbL94kCoFgChyuUo8W1Mc8PSAMAABzCf3UW acHMJAqAYgl8tVDGiuvWIeYWIiEkAgAAvkObuM5u+oMWzFriAMUS8O9CGajLL3Tu00kmEQAA0EWl OrfoPKMF00EcoFgC/lcqT9DlcZ3ppAEAAHpoi858LZeriAIUS8A/CuVQXR7U+RFpAAAAN3tJ5wYt mLlEAYol4JuFMtK80OvcqBNOIgAAoJc06zyg86AWzEbiAMUS8I1CaZ7nl4jrKOUQEgEAAH2kQOd6 nWVaMNuJAxRLwLql8ihdFuscRxoAAMBD1orr+suNRAGKJWCtQjlQXDu9/pznOQAA8ALmiOWzOjdr wSwmDlAsAe8ulGG6XCuue1LGkAgAAPAy9Tp/0HlMC2YLcYBiCXhfqTxPl4d1RpEGAADwcgd0rtNy +TpRgGIJeEehnKzLozqnkAYAALCYj3QWasHcThSgWAKeKZSJutyt82udIBIBAAAWZdf5u84dWjAr iAMUS6BvCmWwLlfp3KkTTyIAAMBHVHW8v/mLFkwbcYBiCfReqTxDl0d0JpIGAADwUbt0Fmm5fI8o QLEE3Fsox+jyJ53vkwYAAPAT/xPXBj/7iAIUS6BnhTJWl9t1FuiEkAgAAPAzbTqLdf6gBbOGOECx BLpWKAN1+aXOvTrJJAIAAPxcqc5tOk9rwXQQByiWwHeXytni+mRuOmkAAAB8zRada7VcfkoUoFgC By+Uw3R5UOdi0gAAADis5To3aMHMIQpQLAFXoYzU5Sad63XCSQQAAKBTmnUe0rlfC2YjcYBiCX8t lOb592NxHaVMIREAAIBuKdC5QeffWjDbiQMUS/hTqZwprusojyUNAAAAt1irs0DL5QaiAMUSvl4o B+pyv87lPP8AAADczhyxfE7nZi2YRcQBiiV8rVCG6bJQ51adaBIBAADoVfU69+k8ogWzhThAsYQv lMrzzIuazgjSAAAA6FNZOtdpuXyNKECxhFUL5WRdHtM5mTQAAAA86hNxXX+5nShAsYRVCmWiLvfo XKkTRCIAAABewa7zlM5tWjAriAMUS3hroQzW5Sqdu3T6kQgAAIBXqta5U+dJLZg24gDFEt5UKs8Q 12mv40kDAADAEvboXKvl8j2iAMUSni6UY8W1Mc85pAEAAGBJb+ks0oK5jyhAsURfF8o4XW7Xma8T QiIAAACW1qbzuM49WjBriAMUS/R2oQzU5Vc69+okkQgAAIBPKdO5TWepFkwHcYBiid4olSfqslhn GmkAAAD4tG0687VcfkoUoFjCXYVyuC4P6FxMGgAAAH7lZZ0btGBmEwUoluhuoYzS5Uad63XCSQQA AMAvNes8rHO/FswG4gDFEp0tlOZ58RNxHaVMIREAAACoQp0bdF7UgtlOHKBY4nCl8mhx3Y/yWNIA AADAQaTpLNByuZ4oQLHENwvlYF3u0/kZaQAAAKATntW5RQtmIVGAYkmhNNdOLjQvCjrRJAIAAIAu qBfXwYlHtWA2EwfFEv5ZKi8Q14XYI0gDAAAAPZCl8zstl68SBcUS/lMop4jrOsqTSAMAAAButEJc 11+mEwXFEr5bKPvrco/OFTpBJAIAAIBe4NBZonOHFswy4qBYwncKZbAuV+v8XqcfiQAAAKAPVOvc pfOkFsw24qBYwtql8kxdHtUZTxoAAADwgD06i7RcvkMUFEtYr1CO7SiUZ5MGAAAAvMDbHQVzL1FQ LOH9hTJOXKe8mlNfQ0gEAAAAXsScEvuEzl1aMGuIg2IJ7yuUgeLalMdszpNEIgAAAPBiZlOf23We 0oLpIA6KJbyjVM7RZbHOVNIAAACAhWwT1+1JVhIFxRKeK5TDdXlI50LSAAAAgIX9R+d6LZjZREGx RN8Vyihdbta5TiecRAAAAOADmnUe0blPC2YDcVAs0XuF0jxel+o8oDOYRAAAAOCDCnVu0nlBC2Y7 cVAs4d5SebQuj+scQxoAAADwA+vEdf3lOqKgWKLnhdIcmfyjzuWkAQAAAD/0vM5NWjALiYJiia4X SnPt5EKdW3WiSAQAAAB+zFxzeZ/OI1owm4mDYonOlcof6vKwznDSAAAAAL6QrfM7LZevEAXFEocu lFPEdR3lHNIAAAAADsnc93K+Fsx0oqBY4stCmaTLPTpX6ASSCAAAAPCdHDpP6dyuBbOMOCiW/lwo Q3T5rc6dOnEkAgAAAHRZTcf76Se1YLYRB8XS30rlWbo8qjOONAAAAIAe26dzrZbLd4iCYukPhXJc R6E8izQAAAAAt3u3o2DuJQqKpS8Wyn663KFzjU4wiQAAAAC9xqbzhM5dWjCriYNi6QuFMsgs4tqc J4lEAAAAgD5TrnObzlItmHbioFhatVTO1eUxnamkAQAAAHiMuS3JAi2XK4iCYmmlQjlCl4d0fkga AAAAgNd4Red6LZhZREGx9OZCGa3LzTrX6YSRCAAAAOB1WnT+pPNHLZj1xEGx9KZCaXK8zDw5dQaT CAAAAOD1CsV1UOh5LZjtxEGx9HSpnCWu6yiPIQ0AAADActaJ6/YkaURBsfREoUwR1xHKy0gDAAAA sLwXdG7SgllAFBTLviiU4eK6htIcNo8iEQAAAMBnNOrcp/OIFswm4qBY9lapvFBcu70OJw0AAADA Z2Xr3KDl8mWioFi6s1Ca+1Au1plDGgAAAIDfWCmu6y+3EgXFsieFMlmXe8yXOoEkAgAAAPgdh85S ndu1YJYSB8WyK4UyRJdrdO7QiSMRALCOoMAAiQwNksiwoI41UMKCAyVcvw4JCtAJlIjQQOd/Fx4S KCH674IDv/zr0Py8g/1F+fk+9A79ornV/sW/b7O3i83u+OLrFptD/71DmvS/cX7d5pqWNrs0tprV /LNdfw472wOAxdTo3K3zZy2YbcRBsfyuUnm2Lo/qjCUNAPC8wIAAiYsMln6RIRITESSxEcFfm5iO 9fMiGRpsjRNMTNmsbbJJfbNN6nRqG83XdtfXHT9eoz9W1dAmDS12nggA4D326SzUcvk2UVAsD1Yo x3cUyjNJAwD6jjmamBwXKonRoZIQHSLxUSGSGKNf62r+2ZRKUy79mTnyWVnfptMqFc71619Xa/m0 OTgCCgB97N2OgrmHKCiWplD20+VOnd/qBPOUAAD3M0cRB/YLkwFxYZIcG/rFJMWGOYsjesbR3u4s mcXVLVJS0/LFWlLT6jziCQDoNTadJ3Xu0oJZRbH0z0JpLqK5Qlyb8/TnewIAei4sJFAGaYEcHB/e Ma6vE6NDCMdDzDWdJbVaMrVsFunkVzZLXkWzlNe1Eg4AuE+5uPZnWaIF0y+vX/DLYqmlcq4uj+tM 5nsAALrHHGkcmhghQ/vrJIY71/4xoQRjEU2tDi2ZTc6SmVfR5CycBTptbCoEAD2xXWeBlstPKJa+ XShH6PKwzgU85wGg88zmOCOSI2VkcsQXZdL8GHyLOaXWnD6bW94k+0saJausUXK1eDq4fhMAuuo1 neu0YGZRLH2rUEbrcovOIp0wnucAcGjBQQGSquVxpBbJUcmuNZEjkX7LHMHM+bxoljbKfp1qrtsE gM5oEdfmoPdqwaynWFq7UJo/3+U6f9QZxHMbAL7NXBc5ZmCUjNUZMyhKhidFfO2+jsA3mWKZqUXT lM09hfXOU2g5pgkAh1Skc7POc1owffbl0mffOWipnCWu6yhn8lwGgC+Z+z2OHhAp4wZFy1gtkkP7 h/v97TzQM+aem/uKGmSvmcIGKahqJhQA+LYNOvO1XKZRLK1RKFN0eUDnUp67ACDOo48jtUhOTImW SUNiZFj/CKFHojfVNtk6Sma9s2gW17QQCgB86V86N2rBLKBYemehjNDlOnEdZo7k+QrAn5l7Rk4a Eq1lMkbGDY6SsOBAQoHHmFubbM+rkx06u7VottkchALA3zWK63K9P2nBbKJYek+pvEiXh3SG8RwF 4I/MhjvmGskpQ2Nl2rAYNtuB1zKbAZkjmTvy6yQ9t07KarmfJgC/lqNzg5bL5RRLzxbKabos1jmR 5yQAf2Nu93FEaoxMHRYrk1KinZvwAFZTUtPiPJK5TUumOX2WW5sA8FOfiev6y60Uy74tlMm63KNz hfjZvTgB+LeE6BA5amScTNcyOWpgFC+A8CmNLXbZnF0rW7JrZFdBvdjslEwAfsW86C3VuU0LZinF sncLpTm362qd3+vE8twD4A+SYkOdZXLG8DjnrUAAf9DU6pD03Fpn0TTXZ3JdJgA/Uqtzt86ftWBa 5noByxRLLZXn6PKIzlieawB8vkzGhMrMUf3k6NFxkhIfTiDwa61aKnfk18vGAzWSnlMrLZRMAP4h Q2ehlsu3KJbuKZQTdHlU5wyeWwB8WUxEsMwcGSfHjO4nI5PZ3Bo4GFMqt2TXSlpGtewuqBdHO6fL AvB573UUzN0Uy+4VSnOq650683WCeD4B8EVmw50Zw2OdZXJCSrQEcoNJoNNqGm2y4UC1rNWSmVve RCAAfJld53HTj7Rg1lIsO18qL+wIbhDPIQC+xrzwjhkUJcePjZcjR8Zxj0nADYqqW5xHMddlVklF fRuBAPBVxTrXaLn8D8Xy8IUySZe/6FzIcwaAr4mPCpHjtEyaSY7lPpNAbzAnxpr7ZH66u1K25NSy sywAX2WK5VVaMMsolt8uleYaymd1BvA8AeArggIDnPeZPHF8vExMiRHOdAX6Tn2zXdZmVDlLZnFN C4EA8DUlOj/TcvkexdJVKM31k/fq3MhzA4CvSIgKkdnjE5wTFxlMIICH7StqkM/2VMqmrBpp4ygm AN/ygM6tWjDtflssO059XaZzMs8HAFZnjkZOGhIjcyckyJShsRydBLxQY4vrKObK3ZXO6zIBwEd8 rHOJJ0+N9djbHi2VE3Ux92QZzvMAgJVFhgbJ7PHxMndiovSP4dpJwCp25tfLRzvKZUdenXAME4AP yNY5R8vlLr8plloqTxPXBaexPP4ArCo5LkxOPSLRuRkPO7sC1lVS06IFs0LWZFRJS5uDQABYmbkV yYVaLj/w+WKppfJHujyvE8LjDsCKzP0mTz2iv0weGiOc7Qr4jqZWu6zaWyUf7ayQirpWAgFgVeae S5dpuXzJZ4ullsrfiOt2IgBgKWZ316NH9ZMzpvaXlPhwAgF8WHu7yNacWvlge7lkFDcQCACrMrcj +avPFUstlQt0eYzHF4CVhIUEygnjEuT0Kf2dO70C8C/7Sxrl7a2lsj2X6zABWNICLZeP+0yx1FJ5 tS5/5nEFYBXR4cFy0sQEOXlSf/06iEAAP5dX0SzvbCuTTQdqxNFOxQRgKddouXzC8sVSS+X/6fJX Hk8AVmDuOXnW1CQ5YXwCG/IA+Jay2lZ5Vwvmmn1VYnNQMAFYxm+0XP7NssVSS+VF4rpPJe/OAFii UJ44IVFCgtiSB8Dh1TTa5P3tZc77YbKTLAALMC9U5j6XL1uuWGqpPFmXd4XdXwF4sYToEDl7WrLz liEUSgBdVd9sl/fSy5w7ybbZKJgAvJrZLfZMLZcfW6ZYaqmcqMta4T6VALy1UEZpoZyeLCeMi3fu +AoAPWGOYJpTZFfsrhCbnVNkAXgtc5/LY7Vc7vL6YqmlMlmXdTrDedwAeBuzKc/Z05Jk7kROeQXg fpUNbfL2llJZvZdrMAF4rWydY7RclnptsdRSaU57/VDnRB4vAN7E3Dbk9Mn95fQpSRIewmXfAHpX WV2r/G9zqaRlVouDggnA+3yqc6qWyzZ3/YLBbv4NPkqpBOBNgoMCZO6ERDlnejK3DQHQZ5JiQuUX c4Y4z5B4fWOJ8zYl1EsAXsR0tsU6V7nrF3TbEct5S9J/qsvzPEYAvIF5cZs1pp+cN3Og83pKAPCk A6WN8nJakWSWNBIGAG9y2dIrp7zgNcVSS+UEXTboRPHYAPC0sYOi5OJZg2RY/wjCAOBVNmfVyH/W FzvvhwkAXqBB52h3bObT42KppTJMXJv1TOVxAeBJA+LC5IdHD5Tpw9mQGoD3sjva5ZNdFc5rMBta 7AQCwNO2iWszn5ae/CLuuMbyLkolAE+KCguS788YIHMnJnDrEABez7xOnXpEf+f9c9/aUiof76hg B1kAnmS63N06N/bkF+nRO7B5S9Jn67JChy0WAfS5AH0FO3F8gpw/c6CzXAKAFZXXtcrytCLZkl1L GAA8xaEzd+mVUz7r82KppTJGl3ThfpUAPGDUgEi59PgUSU0MJwwAPmFnfp28uKZISmtaCAOAJ2Tr TNFyWdedn9yTU2EfplQC6GtxkcHyw6MHybFj+hEGAJ8yaUiM3HVhtLyfXiZvbSmTVpuDUAD0peEd He/X3fnJ3TpiOW9J+nG6rCZ7AH0l0HlNUqLzWsrwEM6+B+DbKuvb5KW1hbKZ02MB9L3jl145ZU2v F0stleYo52adyWQOoC+MSIqUy2Zz2isA/2NOj122tkiKqzk9FkCf2a4zQ8ulrSs/qTsf+19LqQTQ FyJCA+Unxw+Wm88bRakE4JfM6bF3/nCMc5OykGDO1gDQJyZ3dL4u6dIRy3lL0lN12a0TRd4AetNR I+PkkmMHO6+pBACIlNW2yvOrCmR3QT1hAOhtDToTll45Ja+zP6Gr79j+SKkE0JsSokPkshNS5IjU GMIAgK9Iig2VRWePkLUZ1c7bk9Q32wgFgNvZHQ7ZkZUftb2w/H79x0s7+/M6fcRy3pL06bpskh7e +xIADvViNHt8glw0axCb8wDAdzCl0lx7uS6zmjAAuE1OUamkHSiUupZW84/tOkfKsnlbOvNzu3LE 8kFKJYDe0D8mVH4+Z4iMG8QJEQDQGdHhwTLvpFSZOTJOXlhdKNUNbYQCoNuqaupkbWauFNY0fPWH Azo64Gmd+TU6VRTnLUk/VZcPiByAOwXoK9DJk/rL+TMHSBibUgBAtzS12p2nxq7eW+U8vAAAndXc 0iqbMnNkb2m1ONoP+Qpymiyb92GPi6WWSvPfmFNgpxM9AHdJjg2VX8wZIqMHcpQSANxhe16dPPdZ AUcvAXwnUyJ35+TL5pxSabHbv+s/N6fCmlNiD/vZVWdOhT2HUgnAXcwnVSdOcF1LyVFKAHCfyakx cveFY+Rfqwu59hLAIeWXlEvagXypbmrt7E+Z3tEJ/9fTYnkz8QNwB3PrkJ+dOMT55gcA4H4RoUHO ay/NLZue+7RA6tg5FkCHmvoGScvIkbyqbt2y6JbvKpaHPRV23pL0E3VZycMAoKdmjIhz3kYkOjyI MACgD9Q22eSfK/Odp8gC8F+tbTbZnJkju0oqxeHo0ZXYc2TZvE8P9S+/64glRysB9EhEaKD8+LgU OXZMP8IAgD4UGxEs888cLit3Vzo392m1OQgF8DN7cgpkU26JNLW55ewFc9TykMXykEcs5y1Jn6LL Nh4OAN01IjlSrjg5VZJiQgkDADyopKZFlnycJ7nlTYQB+IHiiipZm5knFQ3N7v6lp8qyeekH+xeH O2L5Wx4SAN1hPrE6Y2qSnH/UAAkM5Pa3AOBpA+LC5JZzR8mrG4rlg/RybksC+Ki6xiZZn5EjWRW1 vfW/uFrnykO9//uWeUvSzc4ahTrRPDwAusJs0PPLuakyMYWXDwDwRjvz6+TpFflS18TGPoCvsNnt snV/ruworBCbo1dPezc7/wyWZfO+dfH2ofb6/wmlEkBXTRoSI7//4RhKJQB4+Wv1XfpaPWkIr9WA L8jML5bla7fJ1vyy3i6V0tERLz3YvzjUqbC/4SEC0FmBAQFy3lED5KxpSYQBABYQExEsC84aIW9v KZU3N5U6b5YOwFrKqmpkbUaulNb3+bXT/6fzt2/+4LdOhZ23JH2mLut5qAB0hjn19YqTh8q4QVGE AQAWtK+oQZ76OE+qG9sIA7CAxuZm2ZCRIxllNZ78bRwty+Zt+OoPHOxU2Et4uAB0xlgtk7efP4ZS CQAWfy2/44LRMn4wr+WAN7M7HLItM1deXrfT06XyoJ3xa0cs5y1JN/+co5PKQwfgUL7Y9XXmAOdp sAAA6zNnw762sVje3VrGrrGAl8kuKpV1BwqkrsVrzizI0xkmy+Z98XLxzWssj6FUAjiciNBA+dXc VJk6LJYwAMCHmM8JL5g5UEYmR8o/VuRLU6udUAAPq6qpkzUZOVJU2+htvzXTGY/VWfP5D3zzVNhL efgAHMrAfmFyy3mjKZUA4MOm6Wv8beePlpT4cMIAPKS5pVVW78yQVzfv8cZS+bkff/UfvlksL+Bh BHAwU4fGyq1aKgfGhREGAPi45NhQufm8UXLkiDjCAPqQ2aF5Z3aeLF+XLrtLqqTdu3ds/lp3/OLi qHlL0o/QZTsPJ4BvvkicMyNZfnDkAOFqSgDwP29vLZPXNxYLdyQBeld+abmk7c+X6qZWK/22p8iy ec4O+dVrLE/j4QTwVWEhrusppw/n1FcA8FdnT0uSIQnhsvSTPK67BHpBTX2DrN2XI/nV9Vb87Z8q HQcnA7/xgwDglBgTKjefO4pSCQCQKUNj5Bb9OyEpNpQwADdpbbNJ2u798sqGXVYtlcYXByedZ7bN W5JuXiWqdCJ5iAGMGhApvz1tmMREBBMGAOALDS12+duHubKnsJ4wgG4y103uzS2UTbkl0qTl0uLM zkLxsmxe6+dHLI+mVAIwjhndT353zkhKJQDgW6LCgmThWcNlzoQEwgC6obi8Ul5bt11W7S/whVIp HR3S3LLyi2ssj+ZhBvybOX3h+0cOkO/PSCYMAMAhBQYGyE9PSJEBcWHyn3XFzl0sARxeXWOjrM/I layKWl/8483U+ezzYnkkDzfgv0KCAuQXc4bIzFH9CAMA0CmnTe7vvObyqY/zpNXmIBDgIGx2u2zd nyvbCyvE7vDZ7xNnlwykWAL+zZzWtOickZRKAECXTRsWKzd+f6TERXL5BPBNmflFsnztNtmaX+bL pfKLLhkwb0l6jK41ItyiDvA3idEhcu1ZI2RgvzDCAAB0W2V9mzz2TpYUVbcQBvxeaVWNpGXkSml9 k7/8kc358HHmiOVkSiXgf4YmRsjN546mVAIAeiwhOkRuOneUjBkYRRjwW43NzbJy+z55c8tefyqV 0tElp5rzFsbxNAD8y6Qh0fJ/pw6T8JBAwgAAuEVkaJAsOnuEPL0iTzYeqCEQ+A1zmuv2A3mytaBM bHa/vd54jCmWo3k6AP7juLHxcvnsFAkK5EQFAIB7BQcFyJWnDJW4yEL5aEcFgcDnZRWVyvoDBVLX 0ubvUYw2xXIYTwnAP5gd/C6eNYggAAC9xnxsecmxgyU6LFje2FRCIPBJFTV1kpaRI0W1jYThMswU S95lAn7gvKMGyDnTuUclAKBvfG9GsnO32BdWFXKvS/iM5pYW2ZiZK3tLq6Wd5/VXDaZYAj7OfHL8 4+MHy0kTEwkDANCnZo9PcN7Wytzr0ubgTTisy3w4sis7XzbnlXDf1oMbZIplPDkAvik4MEB+PmeI HDOae1QCADxjxog4ufqMIPnLBzm8IYcl5ZWWS9r+fKlpaiWMQ+tntoTkHSfgg0KDA+U3pw2jVAIA PM7sRr7wrOESERpEGLCMmroGeXfzLnlvxwFK5XeLN8UynBwA3yuV15wxXKYMjSEMAIBXGD0wSq47 Z4TEhAcTBrxaa6tN0nbvl1c27pL86noC6ZwwbmIH+Np3dYirVI4fzE2qAQDeZVj/CLnue5RLeCez Gc/unAJ5eV267CiqYNOpLqJYAj7EnGJkPg2mVAIAvFVKfLjc8IOREh8VQhjwGkXllfLauu2yen+B NLXZCIRiCfh3qVx49nAZkRRJGAAArzYwLkyu/x7lEp5X19goH27dI2+lZ0plYzOBUCwB/2ZOKfrd OSMolQAAy0iKDaVcwmNsdrts2Jsl/1m/S7IrawmEYgnAHKlcpKVyaP8IwgAAUC6B75CRXyQvr02X bQVlYndwCxyKJYAvTn8dksDmzgAAyiVwOKVVNfLm+u2ycl+eNLS2EQjFEsBXSyWnvwIAKJfAoTU2 N8uK9L3y5pa9UlrfRCAUSwCfM/epnH/GMEolAMDnymVMBLcigXuY01y3ZubI8nU7JLO8hkAolgC+ WSrNfSrNjaYBAPC1cmlum8V9LtFTWYUl8vLabbIxt0Rsdq6jpFgC+JrgwAC56rRh3KcSAOCzzH0u F5w13HnJB9BVFTV18taGHfLRnhypb+E6SoolgG9/swYEyLyTU2XSkGjCAAD4tGH9I5z7CJizdIDO aG5pkVU7M+T1zbulqK6RQCiWAA4mQOey2Sly5Ig4wgAA+AWzj8DVpw9znq0DHIrD4ZDtWbmyfN12 2VNSJe3tZEKxBHBIFx4zSE4YF08QAAC/MiElWq44OdV51g7wTXkl5fKKFsp1WcXSauM6Sk/jymjA y509LVlOn9KfIAAAfmnGiDi5bLZDnvs0XzgYBaOmrkHSMnIkr7qeMCiWADrjxPEJcv7MAQQBAPBr 5qyd+mabvLK+mDD8WGurTTbvz5FdxZXi4JxXiiWAzpk+PFZ+ekIKQQAAoM6cmiTVjTb5aEc5YfiZ di2Re3ILZVNOsTTb7ARCsQTQWaMGRMoVJ6UKl5QAAPClHx07SGoa22TjAW527y8KyyslLTNfKhub CYNiCaArBsaFydWnD5cQtlgHAOBrzOet805Klfpmu+wp5Po6X1bX0CjrMnIku7KOMCyCd66AF4mL DJZrzxou0eHcFBoAgIMJCgyQq04bJinx4YThg2w2u2zYmyX/2bCTUkmxBNAd4SGBMv/M4ZIYE0oY AAAcRkSo/p151nDpFxlCGD4kI79Ilqely7aCMrE72JyHYgmg69+IAQFy5SlDZWhiBGEAANAJCVEh zg9kw0J4O2t1pVXV8ub67bJyX540trYRCMUSQHeZzQgmp8YQBAAAXZCaGC7/d8pQ5we0sJ7G5mZZ kb5X3tyyT0rrmwiEYgmgJ+ZOTJSTJyUSBAAA3XBEaozzA1pYh93hkC2ZObJ83Q7JLGeHX1/BrrCA B00aEiM/OW4wQQAA0APmA9qi6hZZsauCMLxcVmGJrMsqlPoWTnmlWAJwi8HxYfLrU4Zyr0oAANzg x8cNkrLaFtmZz21IvFFFTZ2szciR4tpGwvBRnAoLeEBMeLDMP2O4c1c7AADghje1AQHOD2wH9gsj DC/S3NIiq3ZmyOubd1MqKZYA3Mncf+vXpw7ltiIAALhZRGiQXHP6MIkM5X7QnuZwOGT7gVxZvm67 7CmpknbuHkKxBOBeF88aJOMGRREEAAC9IDkuTK44OZWdYj0ot7hMXtFCuS67WFptDgKhWAJwt+PH xrMDLAAAvczsFHvB0QMJoo9V1zXIu5t3yvu7sqSmqYVA/Ayb9wB9ZERypPx0dgpBAADQB86Y0l/y KppkXWY1YfSy1labbNqfI7uLK8XBOa8USwC9Jy4yWK46bagEB3JaDgAAfeXy2SlSUNks+Tpwv3Yt kXtyC2VTTrE02+wE4uc4FRboZWaznt+cOkz6RYYQBgAAfSg0OFCuMpv5hLGZj7sVllXKq+vSZfX+ AkolKJZAX7jomIEyakAkQQAA4AFJMaEy76RU7hvtJnUNjfLBlt3y9vZMqWrkOkp8iVNhgV505Ig4 OeWI/gQBAIAHTU6Nke9NT5b/bi4ljG6y2eyyZX+u7CgqF7uD6yhBsQT6zIC4MPnFnCEEAQCAF/j+ jAGyv6RRdhXUE0YXZeQVyYbsImlssxEGDolTYYFeEBYcKL85baiEhfAtBgCANzCnws47OZU9D7qg tKpa3lifLisz8iiVoFgCnnDpCSmSEh9OEAAAeJGY8GD59alDJZBd2g+rsblZPknfK29u2Sdl9eyo C4ol4BGzxyfIsWP6EQQAAF5o9IBIOf+oAQRxEHaHQzZnZsvydTtkf3kNgaBLuMYScKNB/cLkkmMH EQQAAF7szKlJsqewQXbm1xFGh6zCElmXVSj1LW2EgW7hiCXgJiFBAfLrU4Y675kFAAC8269OGiJx kRxjqaiplf9t3CEf7cmhVIJiCXiDi2cNkpQErqsEAMAKzPWWv5rrv/e3bG5pkc92ZMjrm/dIcW0j Twj0GB/TAG4wfXiszJ2YSBAAAFjIhJRoOWtqsry91X/ub+lwOGRHdr5syS+TNpudJwEoloC3SIgK kZ+fyP0qAQCwonOPTJZdBXWSXdbk83/W3OIySTtQILXNrTzwcDtOhQV6wJw+86uTUiUyLIgwAACw 4pvhwAC5Qv8u9+V7T1fV1cu7m3fK+7uyKJWgWALe6PTJ/WXsoCiCAADAwpLjwuRHs3xvV/eW1jZZ uztTXtu4W/KrG3ig0as4FRboJrNRz3kzBxIEAAA+wNyHentenWzJrrX8n6W9vV125xTIptwSaeE6 SlAsAS/+xgkKkHknpUpwYABhAADgIy6fnSKZxY1S12yz7J+hoKxS0jLzpKqphQcUfYpTYYFuOPfI ATKEW4sAAOBTosOD5fITUyz5e69taJQPtuyWd7ZnUirhERyxBLrIXFN5xpQkggAAwAdNGxYrx42N lzX7qizx+22z2WTr/lzZUVQhdkc7DyAoloAVmB3jfjlniN/eTBkAAH9wybGDZE9hvVTWt3n173Nf XpFszC6SxjYbDxo8jlNhgS64YOZASYwJJQgAAHxYRGiQ/MyL71FdUlElb6xPl08z8iiV8BocsQQ6 aczAKDlpUiJBAADgByamRHvdKbENjc2yPiNb9lfU8gCBYglYUWhwoPzcnAJLFAAA+A1zSuyugnqp bvDsKbF2u122HciT9MJysdkdPDDwSpwKC3TCeUcNkORYToEFAMCfmFNizS1IPGl/YYm8nJYum/NK KZXwahyxBL7DyORIOfWI/gQBAIAfmpwaI0eP6ifr91f36f+3vKZW0jJypLi2iQcBFEvA8t8gQQHy C3aBBQDAr11ynDkltk7qm+29/v9qbmmR9VooM8qqpZ27h8BCOBUWOIyzpibJwH5hBAEAgB+LCQ+W i44Z1Kv/D4fDIen7c+WldTtkXymlEtbDEUvgEAbEhcnZ05IJAgAAOHeITcuslt0F9W7/tXOLyyTt QIHUNrcSNCyLI5bAQZgzX396wmDnqbAAAADGZSekSIgb3xtU1dXLO5t2yvu7siiVsDyOWAIHMWtM vIwfHE0QAADgC0mxoc6zmd7YVNKjX6eltU02ZebInpIqcXDOKyiWgG+KDg+Si2cNJAgAAPAtZ05L cp4SW1LT0uWf264lcndOgWzKLZEWm50w4VM4FRb4hh8ePUjLJZ+5AACAbwsODJBLjx/c5Z9XUFYh r6aly5oDhZRK+Ob3BhEAXzL3rDxhXDxBAACAQ5qQEi0zR/WTDZ24t2VtQ6Osy8iWnMp6ggPFEvAH 5l6VP+nGJ5AAAMD/mMtm0nNrpaXNcdB/32azyZb9ubKjqEIcDq6jBMUS8BuzxyXIsP4RBAEAAL5T v8gQ+d70ZHllffG3/t3e3ELZmFMsTW02ggLFEvAnUWFBcv5MNuwBAACdd9rk/vLZ3iop7djIp6Sy WtZm5Ep5QzPhwO+weQ+gzjtqgHM3WAAAgM4KCgyQHx87SBoam+XjbXvkv1v3USrhtzhiCb+Xmhgu cyYkEgTgw2z2dqlttklto03qdK1rsklDi12aWu3S2GpWh7TaHM7/zvyY8+c42p0/9rnAgAAJD/ny 89gw/TosJMj5Y2YiQl1fx0YES4yZ8GDX1+FBEhgYwIMA+CDzWvLG+gPy8vod+prhIBBQLAF/dsmx g50b9wCwLrMxRnldq5TUtkppTauU1bVIRV2bVDW0SWV9m7NMeop5fYmLDJHE6BBJiA51rmYG9guT AXFhEh8VwgMIWIxdX3NeXZcrC55bI0XVjQQCUCzh76YNi5Wxg6IIArCQMi2QueVNUlDZ7JzC6hYp 00Jp99JdF9v1t1WtBdfM/pJvvwENCw50FszB8WEyJDFcUhMjJDUh3HnUE4D32XSgSuY/s1rWZJYQ BkCxBFzXRVx0DBv2AN6sptGmZaxBssqa5EBpo+RVNH9xqqqvaLE5JLeiyTmS+eWPx0UGy1AtmaMG RDrvsTtC56un4gLoW0XVLXLHso3y9Kd7nB8YAaBYAk5zJyZIclwYQQBepLimRTKKGmRfx1Q2tPl1 qd7eWCfb8+qc/2xOqR3UL1zGDIyUcYOjZcLgKIkO569xoLeZD7P+/v5eufXljdLY2kYgAMUS+FJk WJB8f8YAggA8zGx8sbOgXnbr7Mqvl+pG3rQdijlCUljV7JyVuyvFXBo+OD5cS2aUTBoS4yyaIcEc 0QTc+T33ztZCueaZ1XKgrJZAAIol8G3mhsbm3pUA+p65PnJbbp1sy6l1fs0ZZd1806tToCXTzMc7 KyQkKEDGDoqWyakxMmVojCTFhhIS0E278mtk4T/T5P2d+YQBUCyBg0uKCZWTJ3F7EaDPCpA2oL1F DbIlu0Y2Z9VyVLKXtNnbZWd+nXOWrRVJSQiXI0fEyYwRsZISH05AQCeY3aXve3WrLH5vhzi4kBKg WAKH84OjBjg37gHQuzJLGmVdZrVsyqpxnvKKvvX5rrlvbiqRgXFhWjDj5Ngx/Zy3OQHwdeaetc+u 2C83/DtNqhtbCQSgWAKHZz7BP2Z0P4IAeklJTYus2VflLJQV9RyZ9BZmU6S3t5Y6Z3hShMzS18GZ o/pJLLc0AeSTHSVy9TOrZVdhFWEAFEugc84/aoBwrBJwr5Y2h2w4UCOr91Y6j1LCu2WXNTlneVqx 83rMEyckONcAXhzhZw6U1Mvvnl8nr23KJgyAYgl0nrkX3NRhsQQBuIk5zXLF7kpZl1klTa0OArEY c/3Yttxa58RHhcjx4+Jl9rgESYgOIRz4tNpGmzz85nb54/+2is3OaxdAsQS66IKZAwkBcEMZ2ZJd Kx/uqJDM4gYC8RFVDW3yv82l8vaWMpk2LEZOOaK/jB0URTDwKTZHuyxfnSXXPp8mZXVNBAJQLIGu OyI1hjdJQA+YI5Kf7amUj3dVSEUdG1v48gcHm7NrnTM0MUILZqLzunQ2PIPVrcuskGueXi0bsssI A6BYAt33gxnJhAB0Q02jTT7aWS4rd1VKY6udQPxIbkWTPLMyX17dUCynT06SORMTJCw4kGBgKfn6 PL512UZ5btU+wgAolkDPmKOVI5IjCQLogsqGNnl7S6lzh1dzf0T4L/Phwsvripw7ypp7AJ88qb9E hwcRDLxaQ4tdnnx3t/z+lU3S3MbtjgCKJeAGHK0Eul4oV++tcl6PBHz1jfp/N5fK+9vLnQXzrKlJ EhFKwYR3Madz/3djgVz9z1WSX8l14ADFEnATjlYCnVPbZHMekTKnvFIocTjm9jLvbC1zPldOndxf TtMJD+EUWXheem6NzH9mjazcU0gYAMUScC+OVgKH16wl4d1tZfLhjnJnYQA6y1xz++amEvl4Z4Wc PS3JeRSTTX7gCWW1rXLn8k3y1493STufiwEUS8DdOFoJHJo5XeyzPVXyhhaDuiauP0L31TfbZHla kXyiBfOCowfKUSPjCAV9wnwY9vRH++TGlzbo85DdqgGKJdBLOFoJHNzO/DpnESisaiEMuE1ZXav8 /aNc+XBHpFw8a5CM5IM99KL3txXJ1c+sloySGsIAKJZA7xk/OIqjlcA3mPtPvqSFckt2LWGg1+wv aZT739gvs8bEy0XHDJSYCN5qwH0yiupl4bNr5a1tuYQBUCyB3nfm1CRCADqYzXje21Ymb20tkzYb 11Gi95nL3NZmVMnWnFo576gBMndiggQGcP0luq+qoU0eeH2bPPx2utjZYAygWAJ9YWhihEwaEkMQ gNpb1CD/WlUgRdWc9oq+19Rql3+vKZRVeyvl8tlDZHhSBKGgS2z2dvnXZwdk0fNrpbKR1zGAYgn0 oTOncbQSMG/oX1pbJGv2VQmf7cPT8iqa5Y9v7JdTjkiU848aICHB3J4E3231njL57T9Wyba8SsIA KJZA30qKDZUjR8QSBPxaem6dPL+qQKob2ggDXsPsRPzB9nLnNb6Xz06RCSnRhIKDyi1vlOtfWC/L 1+0nDIBiCXjGGVOSuI4HfsscpXxxdaGkZVYTBrxWeV2rPPp2lpw4IUEumjVIwjh6iQ51TXZZ/PYO ufv1zVwPDlAsAc8xOw8eNzaeIOCX9hTWyzMr8qWSo5SwAHN69srdlbK7oF5+OTdVRg1gF29/Zo5m v5qWK9c8t0aKqxsJBKBYAp41d0KChARxtBL+xez4+ur6YvlweznXUsJySmtb5cH/HpAzp/aXHxw5 QIICeQ33N1uyquSqp1dJ2v5SwgAoloAXPJH1zcjciYkEAf96U17TIn//KE9yK5oIA5Zljla9vbVM dhc0yJWnpEr/mFBC8QNFVc1yx0ubZOnKPYQBUCwB7zFzVD+J5Sbc8CPmHoH/Wl0oLW1chwTfkFXW KHe/munc2OeokXEE4qOaWh2y5IM9csvyDdLYaiMQgGIJeJfTJvcnBPgFc0+3F9cUymd72H4fvlg6 7PL3j3JlT2GCXHLsYAnm8gafYU7Vf2dLgVz9j9WSVV5HIADFEvA+YwdFSWpiOEHA55XVtcrfPsjl 1Ff4PLOxT055k/zm1GGSEB1CIBa3O79W5v9zjXy4s4AwAIol4L1OPYKjlfB9uwrqZclHudLQYicM +IXssia557VM+fUpqTJ+MPe8tKKK+la59z9b5bH3t0s7u4sBFEvAmyVGh8i04bEEAZ/2XnqZvLq+ xLnJCeBP6ptt8ujb2XLB0QOc9ymGNbTZ2+Wfn2TI9S+ul5qmFgIBKJaA9ztxQqJwBQ58lbmVyLMr 8yUts5ow4LfMByr/WVcsBZXNcvmJQ5y7gMN7rdhZIr/9x2rZVVhFGADFErDIk1ffXMweF08Q8El1 zTb5y/s5klnCzcIBY21GtZTVtclVpw2VmHDevnibrNIGWfRsmry+OZswAIolYC3Th8dKDLcYgQ8q rm6Rxe9mS3ldK2EAX5FZ3CD3vb5frjljuAyODyMQL1DbZJM/vbld7n1zq9gd3P4IoFgCFjR3YiIh wPfeOJc0yhPvZbNJD3AI5gOX+9/cL1efPsy5Kzg8w+5ol+Wrs2XB82ulrI6dqgFQLGFR5pNq3lDA 12zOqpGlK/Klzcan/sDhmPtdPvpOllxxUqrMGBFHIH1sQ2aFXPX0KtmYXU4YACiWsLY5EzhaCd/y 2Z5KeWFVITu/Ap1ks7fL3z/Kk0uOs8lJnMHSJwoqm+SmF9fLC6szCQMAxRLWFxIUILPG9CMI+Ix3 t5nbiRQLlRLoGvNBzIurC53X+Z175AAC6SWNLQ554p2dcserm6SljdP0AVAs4SOmD4+TyNAggoBP eHVDsbyztYwggB743+ZS5ynkFx4ziDDcyJxA8ebGXLnm2bWSV1FPIAAolvAtJ3CLEfiIl9YWyYc7 uEYJcIf30sulxdYulx4/mDDcYHtejVzzj9Wyck8RYQCgWML3JESHyPiUaIKA5f1rdaGs2FVBEIAb me+pljaH/GLOEAkIII/uKKttlbte3iRPfriLMABQLOG7jh8bL7xXAKUSwKGszaiS9vZ2+dVJqYTR Ba02hyz9aJ/ctGy91DW3EQgAiiV8lymUx43lNFhY27/XUCqB3paWWS3hoUGcFttJH6YXy2/+8Zlk ltQSBgCKJXzfuMFR0j8mlCBgWWajno93UiqBvvD5BziUy0PLLK6TBf9cK29vyyMMABRL+I9jx3C0 Etb11pZSdn8FPFAuzS2qLp7FbrFfVd3YJve/tlUeems7984FQLGEfzFvDMxtRgCrvrl9fWMJQQAe 8MH2comNCJYzpyb5fRY2R7v869MDsuiFNKlsaObJAYBiCf8zZWisRIQGEgQsZ+OBGnlxTSFBAB70 6vpiidFyebwfX6e/Zm+ZXPX0KtmWV8kTAgDFEv7rmNH9CAGWs7eoQZ7+JE840wzwLPMt+NynBRIV FiTThsX61Z89r7xRfvevdbI87QBPBAC9ikNA8HoRoUEyeWgMQcBSCiqb5cn3c5ynngHwPHMt4VMf 50lWaaNf/HkbWuzyh1e3yaiFyymVACiWgHHkiFgJDuTulbCOmkabPP5utjS12gkD8CLmXo1PvJ8j FfW+e59GU6BfScuR0Qtekttf3ihtNl6HAFAsASdOg4WVtDnfuGZLZQM3GAe8UW2T+eAnS5paHT73 Z9uSVSXH3/GWXLj4QymuaeLBBkCxBD5nNlsYNyiaIGAZS1fkS3YZb+gAb1ZY1SJ/+zBHHD5yqnpJ TbNc8bdVMuOWVyUtkx2oAVAsgW+ZMTxWAjgLFhbx382lsjmrhiAAC9hVUC8vpRVZ+s/Q3OaQx97a JSPmvyRLV+7lQQXgUewKC6925AjuXQlr2JpTK//dxJECwEo+3lkhw/pHyHEWuw2JOc767pYCueqZ 1ZJdVscDCYBiCRyO2RZ+3KAogoDXK6pucd1WhCgAy3lhVYEMjg+X4UkRlvj97imolWueWSMf7izg wQPgVTgVFl5r+vBYCWQ3WHi5FptD/vpBjvOUNADW02Zvd34P1zXbvPr3WdXQJoueXScTr3+ZUgmA Ygl0xQxOg4UFPLsy33nEEoB1mV2cvfWsA1N8l360T4Zfs0wefXeHtHNqBAAvxamw8EoRoUEyIYXd YOHdPtlVIRsOsFkP4At25tfL21tK5ZzpyV7ze1q5s0Su+scq2VVYzQMEgGIJdMeUoTESzGmw8GJ5 Fc2y3OI7SgL4ujc3lcqYgVEy1sPX92eXNsjC59bK65tyeFAAWAanwsJriyXgrcx1lUs+yhWbnXPS AF/iaG+Xpz7Ok/pmu0f+/+Y6zzte2iKjF75EqQRAsQR6/KQMCJAjUimW8F7L1hRKcQ3XVQK+qLqx Tf75aX7fFlpHuyxbnSUj578k97y+WewOPrQCYD2cCguvM3pgpESGBhHE/7N3H/Bx14X/x9/ZO033 gJa2QGmBlj2VoQzZIFv98VcBEVRkKeAERUVFQfzpT0UEFdllQwu0ZXYkHdmjGc3eyeVGcnvkf987 B1TozO3X8/E4U0vbXN53uXzf91mISxXtNq1tNBMEkMSqOsLf5588KPLnW25qMelrj6zT5rYhggdA sQQm0rJ5xYSAuGRz+vT399nmH0gFT23o1eI5BZpWlB2Rf7/X7NKdj5fpsXUthA0gKTAVFnHnsP2Y Bov49Lf3ujUW52fdAZgYbm8gfATJBM9KdXoCuu/lGi286SlKJYCkwogl4sqM4mzNmpRDEIg765vM qu4cJQgghbQMOLSqZlhnLpu21/+W0U9f2dylGx5Zq16zg3ABUCyBSFrKNFjEIavDp6c3cLQIkIpe 2jKgw+cXh9743FO1XVZ9/S/r9F4jryMAkhdTYRFXDtm3kBAQdx5f1yOHx08QQAry+AJ67P092yXW NOoJFsr1WnbHckolgKTHiCXi58mYnqaDYnwoNbC98jZraCdYAKlra69d728d0UmLp+xyGX14TZNu f7JMdjfrsgFQLIGoMo4Zyc5kEB3xw+UN6Mn1jDIAkJ4t6w/tWj4pf8eXTmuq+/S1v65TU5+V0ACk FK7iETeW7MM0WMSXFzb1hw5LBwCnxx8slx//RlPrwJjO/fmbOv3eFZRKACmJEUvEjYP34ZgRxI8u k0vv1I8QBIB/29hi0cmLp2jRB5Zt2Jxe3ft8lX75WrUCE302CQAkEEYsERcKczO03/Q8gkDceGJd DxeJAD5kPPTa0Bt6bfAHxvX3d1s0/8an9fNXq3i9AJDyGLFEXFg8p1BpxIA4saHZEjq/DgC212N2 6Zcv1evJ9U2q7mJWAwBQLBFX2A0W8cLYzfH5jf0EAeC/DJqtKm3u1OCYkzAAgGKJeLSIYok48XrV EBv2APgQh8uljU0dahlmUx4AoFgibhXlZmrO5FyCQMwZhfLN6mGCABDiDwRU3dqlqp4h+fwBAgEA iiXi2YGz8gkBceGlzQNy+7h4BCC19Q6orK1XY25mMAAAxRIJgWmwiAf9FrfWN1sIAkhxJuuoNjR3 qN/GBl4AQLFEghXLQkJAzL24eUCBAMcFAKnK5XZrc0unGgfN4uQQAKBYIsHkZ2do36msr0RsdZlc Km9jUw4gFQUCAdV1dKuiazC0KzQAgGKJBLRwZj7nVyLmXikfEAMUQOrpGhhWaWuPrE43YQAAxRKJ bP8ZbNyDGF9YmlyqbLcRBJBCrKN2lTZ3qMsyRhgAQLFEMlhAsUSMMVoJpA6Px6fylnbVD5gVYCEl AFAskRzS0qSFM/IIAjHTY2a0EkgF48ESubWzV1s6+uXy+QkEACiWSCazJuUoLzuDIBAzKyuHGK0E klzv8Ig2tHTJ7GAdJQBQLJGUFjINFjFkGvNqUys7wQLJatTuCK2j7BgZJQwAoFgiqYvlTIolYmdV zRDnVgJJyOfzq2Jbp2r7huXnexwAKJZIfgumUywRG05PQOsazQQBJJnm7j5tau+Xw+MlDACgWCIl nngZadpncg5BICbWNo7I5eUgdCBZDJotKm3u0uCYkzAAgGKJVLLP5Fylp6cRBKLOmBi3ps5EEEAS cLhc2tjUoZZh1ksDAMUSKWneNI4ZQWzUdI7KNOohCCCB+QMBVbd2qapnSD4/sw8AgGKJ1C2WU3MJ ATHxbgOjlUAia+sdUFlbr8bcrKMEAIolKJaMWCIGjCNGaro4egBIyO9fq00bmjvVb3MQBgBQLAEp PS1N+05hxBLR9/7WEY1z+gCQUFxutza3dKpx0Mz3LwBQLIH/mDkpW9mZ6QSBqDKuRzc0ccQIkCgC gYBq27tV2T0oj491lABAsQS2sw+jlYiB+u4xjdhZkwUkgs6BIZW19srqdBMGAFAsgY82ZzLFEtG3 ntFKIO5ZRu0qbW5Xt8VOGABAsQR2VixzCAFR5fYFVNFhIwggTnk8Pm3Z1qGG/hEFWEgJABRLYFfM LmHEEtFV0W6TlzVaQNwZD5bIho4elXcOyOXzEwgm9vn15DVxcT/SPvcXHowou/vSI3XXJUfE/H78 6LkK3b28nGIJREJGeppmTcomCERVWYuFEIA40zs0og3bumR2sI4SACiWwG6aOSlH6cFyCUSLw+1X Q88YQQBxYtTuUGlThzrMnCkLABRLYA+xvhLRVt5ukz/Ami0g1nw+vyq2dai2z8T3JABQLIG9LZas r0R0bWmzEgIQY81dfdrU3ieH10cYAECxBPbejGLWVyJ6nJ6AtvYyDRaIlYERi0pbOjU05iIMAKBY AhRLJKa67lH5/Ey5A6LN4XKprLFd20wc8wMAFEsgEsVyEmssET3VnVzUAtHkDwRU1dqp6p5h+fwc 8QMAFEsgAvJzMlQQvAHRYJyxXtPFrpNAtLT1DqisrVdjbi9hAADFEoic6UVMg0UUL3KHHBpzceA6 EGkmq00bmjvUb3MSBgBQLIHIYxosoqmum017gEhyud3aFCyUTUOW0AwBAADFEoiKmZMYsUT01Hcz DRaIhEAgoNr2blV0D8nrY1YAAIBiiSibWkixRHQYx4y0DjEtD5honf1DKm3tkc3lIQwAAMUSsSqW WYSAqGjutysQYG4eMFHMo2Mqbe5Qj8VOGAAAiiViazLFElHS1MfFLzAR3B6vyrd1qKHfrAALKQEA FEvEg6kFFEtEhzFiCWDPjQdLZENHj7Z0DsjNOkoAAMUS8aIwN0NZmekEgYjz+AJqH2Z9JbCneoZG VNrSJbPTTRgAAIol4suUAjbuQXS0DzlZXwnsAZvdobKmDnWY2VEZAECxRJyazDRYREnroIMQgN3g 9flUua1TNX0m3pQBAFAsEefFko17QLEE4k5TV582tffJ6fURBgCAYokEKJYFPNUQHW2DrK8EdmZg xKINzZ0atrsIAwBAsUTiKMrlqYbIszl9sji8BAF8DLvDpY3N7dpmshEGAIBiicRTnM9TDZHXZWK0 Evgofr9fVa1dqu4dls8fIBAAAMUSCVosGbFEFHQMM60P2N623gFtauvVmJvRfAAAxRKJXizzeKoh 8rpHKJbAvwxbbSpt7lC/jZF8AADFEhRLYJf1mSmWgMvt1sZgoWwesmic00MAABRLJIuczHRlBW9A JAWCV9D9FjdBIHW/BwIB1bZ1q6JnSF6fn0AAABRLJBc27kE0DNo88nG4O1JUR/+Qylp7ZHN5CAMA QLFEcirIySAERL5YWrmgRuoxj46qtKlTPVY7YQAAKJZIbnnZFEtEoVjamAaL1OH2eLWlpUNbB8yh aeAAAFAskfTyKZaIRrFkxBIpYDxYIhs6erSlc0Bu1lECACiWSKliyVRYRKNY2iiWSG49QyaVtnTL 7GR0HgBAsUQqFktGLBEFpjGKJZKTze5QWXO7OkbGCAMAQLFEChfLHI4aQeSZx7yEgKTi9flUsa1T tX0mBdjxGABAsUTKF0tGLBFhdrdfbl+AIJA0Gjt7tbmjX06vjzCQcMafvIYQ4jCPydc8JosjsrN7 7r70SN11yRE86P9kZBEPeTy4sk43/72UYonEl5NFsURkWeyMViI5DJjM2tDSpWG7izAAAAmFYomI y8tmKiwiXCwdjOogsdkdrtA6ylaTjTAAABRL4KNkZaQRAiJqzEWxRGLy+/2qau1Sdc+wfAGmcwMA KJbADoolI5aILEYskYhaewZU2t4jh5vnLwCAYgnsVG4WxRKRxYglEsmwxar1zZ0aHHUSBgCAYgns qgymwiLCnB4/ISD+n6dutzY1dah52KJxTg8BAFAsgd2Ty66wiDDjuBEgXgUCAdW2dauie0heP89V AADFEtgj2YxYIsIYsUS86ugfUllrj2wuD2EAACiWwF49ySiWiHixZDdNxBezbVQbmjvVa7UTBgCA YgkAicDrp1giPrg9Xm1p6dDWAbMCLKQEAFAsASBxuBixRIyNB0tkQ0ePtnQMyM06SgAAxRKYeHnZ bN6DyPIFGBlC7PQMDau0pUdmp5swAAAUSwBIVG4vI5aIPuuYXWXNHeo0jxEGAIBiSQQAAOw6j9en ytZO1faZFGC0HAAAiiUAALujsbNXmzv65QyWSwAAQLEEAGCX9ZvMKm3p0rDdRRgAAFAsAQDYdaMO hzZV16m1u18qnCRl5xIKAAAUSwAAds7n96u6oVnVjc2hX4fYRoI/NbOkoilSBrtdAwBAsQQA4GNs 6+xWWXWdHA7nRzROr2QekHLyggWzJPgbaQQGAADFEgCAsOERs9ZX1GjQNLLzP+wOlk6PS8ovlvIK CA8AQLEkAgCJLicrXQ6PnyCwRxwud2gdZUtHl8bHd+P4EOPP2q2Sc1Qqmixl5RAmAIBiCUSKM3jB n5fNeiRE8IUsnemI2H2BQEA1TS2qrG+S1+fbm39IspqCxTJbKg4WzDRe7wAAFEsASDi52emEgN3S 0dun0ooajdodE/ePej2SaSD4hCwI7yALAADFEgASR1YGxRK7xmy1aUNljXoHhiL3SVx2yR0srAXB cpmbT+gAAIolMBF8/nFCQETlMWKJnXB7PNpc06DG1nYFxqPwmmR8jjGL5BiViqeEjykBAIBiCew5 D8USES+WrGnDx/W7cdW3tKq8bmuwXHqjfwcCfskyJGXnhM+/TGM9MACAYgnsEZfX2K2Td+sROQU5 FEv8t+7+QZVW1shiG439nfG4JVOflFcYfMIW8+AAACiWwO7yM2KJCGPEEh9kHRsLbczT1TcQf3fO OSa5HOHNfXLyeLAAABRLYFe5vAFCQEQV5vJSBsnj9aqivkl1zdtCR4nErfHgfRs1/2f9ZQbPXwAA xRLYKa+fYonIKsnnpSzVNbZ2aHNtvZwud+Lcab9PMg9K2blS0WTWXwIAKJbAjoslU2ERWYxYpq7+ YZM2lFfLZLEm7hfhcUmmfim/MHgr4kEFAFAsgY/i9DBiichixDL1jDoc2lRVp9auniT5isbDU2ON MzALS8KjmAAAUCyB/3CHdoUFIlgsC9h1OFX4/H5VNTSpprEl9OukY6wNtY2Ez700jifJYGMqAEBi SLv2oWrmKSKiPnvMTJ1z+AyCQER949E6uX2MjiezbR3dKquuk8PpTJ0v2tg5tqjE+HHNEwDYTeNP XhMfF9uf+wsPRpTdfemRuuuSI2J+P370XIXuXl6eMrkzYomIc7i52EfkTS7MUr/FTRBJaHjErPUV NRo0jaTeF+92htdg5hdLeQU8GQAAFEukcLH0MBUWkTe1MJtimWyvHS6XNlXXq7m9M7WDGB+X7FbJ ORrePTYrhycHAIBiiRS8OHRTLBF5M4qzVUcMScEfCKi2qUWV9U3y+nwE8i/G+kurKVgss8MFM531 lwAAiiVSqVgyYoloFMtJ2YSQBDp6+lRaWaNRu4MwPo7XI40MSLkFUuEk8gAAUCyRGpwUS0SjWBYz PTCRma02ra+oVt/gMGHsKuNoEnewgBcEy2VuPnkAACiWSG5MhUVUiiUjlonZjdwebalt0NbWdo2P s0n5bjMyG7OEz8AsnhI+pgQAAIolkpHVwRopRKFYFmcrMz1NvgDlJBEEgoWooaVV5XVb5fZ4CWSv A/VLliEpOyd8/mUax5MAACiWSDLG2YJe/7iyMrjQQeSkBy+kZ5XkqHvERRhxrrt/QKWVtbLYRglj onnckqlPyiuUCorJAwBAsURysTm8mlrEVEVE1uzJuRTLOGYdG1NpRY26+gYII9KcY5LLEd7cJyeP PAAAFEskSbF0+iiWiLh9p+Rq0zZyiDcer1fl9Y2qb25VwDgyA9ExHsx61Bxef2lMj83kRz4AgGKJ RC+WLtZZIvL2m5ZLCPHUa8bH1djaoS11DXK63AQSK/7g669lUMrODZ9/yfpLAADFEglbLNnAB1Ew dypT/uJF/9CwNlTUyGSxEka88LgkU7+UXxi8FZEHAIBiicQzyogloqA4L1Ml+VmyONhlNGbf63aH NlbXqq2rlzDi0nh4aqxxBmZhSXgUEwAAiiUShdlOsUR0LJiRp4p2imW0+fx+VTY0qbaxJfRrxDlj rattJHzupbH+MiODTAAAFEskQLEc40If0bFwRn6wWNoIIopaOrq0sbpeDqeTMBLuHYHga7N5QMrO k4pLgr/B+ksAAMUS8Vws7RRLRK9YIjqGRsyhdZSDphHCSHQep2RyhddeGmdgAgBAsUQ8GrF7CAFR MX96ntLT0xQIjBNGhDhcLm2qrlNzexdhJJPx4PeM3RY+A9PYPTYrh0wAABRLxJcxl19eX0BZmemE gYjKDj7H5k/LU+uggzAmmD8QUE1ji6oamoLfz6ybTlrG+kurKXiFkC0VBwtmOusvAQAUS8QRk92r WZN4BxyRd+CsAorlBGvr7tXGqtrQrq9IET6PNDIg5eRLRSXkAQCgWCI+GBv4UCwRDYtmF+iN6iGC mAAjVmtoHWXf4DBhpCq3I7wGs2CSlMsaZgAAxRIxZmJnWESJMWLJOsu943J7tLmmQY1t7RofJ8eU ZzwHxizhMzCLp4SPKQEAgGKJ2BRLNvBBdORlp2vh9Dy1DDBtc3cFggWivrlV5XVb5fHyZhC2f4L4 JcuQlGWsv5wqpXE8CQCAYokoG7BSLBE9B+9bRLHcTd39A6Fpr9bRMcLAjnmDr+emvvDRJAXF5AEA oFgieoZsbkJA9IrlPoV6ecsAQewC69hYqFB295EXdpNxNInLIRVOknLyyAMAKJZA5A3aGLFE9Cyc ka/C3IzQUTf4aMZU14q6RtW1tCpgHDEB7Inx4HNn1Bxef1lkrL/k0gIAKJZABDncftmDt4IczkRD 5BlLv5bOLdKGZgthbN8DxsfV2NqhLbUNcrqZSYAJ4vdJlkEpOzdYMCez/hIAUgyn1SOqBq1cxCJ6 ls1j7df2+oeG9cKqd7R2SyWlEpHhcUmm/vAIJgAgZTBiiegWS5tHC2ZwDhqi45B9i5SZkSafn+My Ru12lVXVqb27lycGomA8XCxddqmwJDyKCQCgWAITWSyBaDGOHVk8p1C1Xak7cuLz+1VZ36Saphb5 /aw3RZQZa3dtI1JGllQ8OfiRyw4AoFgCE6DX7CIERNVRCyalbLFs6ejSpuo62Z183yHG/F7JbKy/ zJOKSlh/CQAUS2BviyVruhBdR84v1j/WpskfSJ3psIMmszZUVmso+BGIKx6nNOKS8ovCZ2ACACiW wJ4YsLoVCF7gp6fzbjWiIz8nQ0v2SY3psA6nS5tq6tTc3sUDj/g1Pi7ZbeEzMI3dY7NyyAQAKJbA 7jFGjfqtHs2ZzIUEoue4A0qSulj6AwHVNLaosqFRPh/rKJEgjPWXVlPwSiQ7vP4ynaOoACCRpV37 UDXbJSKqrj99XmjdGxAtbl9AtzzWIG/wY7Jp6+7VxqpajdodPNBIbDn54fWXAICExIglos5YZ3nU AnJAFK9XM9N1xH7F2rjNkjRfk8li1YaKmtC5lEBScDvCazALJkm5HEsFABRLYCf62BkWMXDioslJ USxdbrc21zaosbVD4+NMOEGSMZ7TY5bwGZjG9FhjmiwAgGIJfJTuEYolou/gfQs1pSBLI3ZvQt7/ QCCg+pY2lddtlcfr5QFFcgv4JcuwlGWsv5wipaWTCQBQLIEPG7B65PEFlJ3JhQKix9iH+IRFk/Va xWDC3feuvgGVVtbIOjrGA4nU4vVIpn4pt0AqZG0+AMQzruwRdYHxcUYtERMnLZ6SUOeyW21jev39 DXojeKNUIqW57OGC6XaSBQDEKUYsEROdw04tnMHmDIiuqYVZWjq3SNWd8X30iMfjVXn91tDUV2MK LICg8eD3wqg5vP6yaErwCoZLGACgWIJiaWLEErFxypKpcVssjc14tra2q7x2q5xuNw8W8FH8Psky KGXnhAtmIk1DAACKJTDBxXKY6UyIjaXzijS1KFumUU9c3a++oeHQ8SEjFisPErArPO7w9Ni8Qqmg iDwAgGKJVNRjdikQGFd6Ou80I7qMZ9xph0zVM6V9cXF/Ru12lVXVqr27jwcH2G3jknNUctuD5bJE ysklEgCIETbvQUz4/OPBcslUP8TGJw+aotys2L78+Xx+baqp1/LX36JUAnvLWIs8OiKZh8JTZQEA FEukjrYhByEgJvKy0/WJgybH7PM3t3fq2ZWrVNXQJL/fzwMCTBS/N1guByWb2Vi0TB4AQLFEKmgd oFgids5YOj3qU7EHTSN6efW7endjuexONrACIsbjlEb6JSfH9ABAtLDGErErloMUS8SOcfTIMQsn qazFEvHP5QiWyI3VtWrp6CZ4IFqMEUu7LVgu7VJRiZSVQyYAQLFEMuq3uuX0+JWXnUEYiImzD5+u jcFiGakJc/5AQNVbm1W1tSm0phJADASC33tWU/CKJ1sqniyl8zMHACiWSCrGm8mtg04dsm8hYSAm 9pmcq8PnF6ui3Tbh/3ZbV29ot9cxByPzQFzweaSRASknPzyCCQCgWCJ5tA06KJaIqfOPnKnKYLGc qFFLk8WqDRXV6h8yES4Qj9yO8BrMgklSbj55AADFEslgG+ssEWNzp07MqKXL7dbmmgY1tnVonN0o gfhmfI+OWSTHaHh6rDFNFgBAsUTiMnaGNS7B04gCMbQ3o5aBQEB1za2qqG+Ux+slTCCRGOsvLcNS lrH+ckrwhxGb5QMAxRIJyeHxq9vkCo0aAbFiPP+OXDBJW9qsu/X3uvoGVFpZI+soRxoACc3rkUz9 Um6BVDiJPACAYolE1NQ3RrFEzF109ExVdNgUCOx83NJqG9OGYKHs7h8gOCCZuOyS2xkulzl55AEA u4E5H4iDYmknBMTcrJIcnXjgjneK9Hi8Kq2o0XNvrKFUAslqPCCNmiXzoOTzkQcA7CJGLBFzzf1s 4IP4cOHRM7Vpm1VuX+DD15nj49ra2q4ttQ1yuT0EBaQCf7BUWoLlMjtHKjLWX7IbAADsCCOWiLlR l0+9ZhdBIOZK8rN05rJpH/q93sEhPb/qba3bUkWpBFKRxx1ef2kfJQsA2AFGLBEXjFHLOZNZZ4nY O+uw6Xp/q1ldQxaVVtapo6eXUICUNy45g8XSbZcKSqQcfl4BwPYYsURc2NrLrpqID9mZ6TplUa6W r1xDqQTwYQFj/eWIrj52thbPLCQPAKBYIh6LJUfKI16cd8x8Hb9kH4IA8F8OnT9DD910tmp+fZke uPLw0BR6AADFEnFizOVXx5CTIBA3fnfjWcpIZ7MOAP9h7N/z+2+eHXptyMxI180XHqWm+y/VV0+e z+sFAIolESBe1PewMQLix+H7z9IN5x9NEAD+7fOfXqqTl8770O9Nn5SvP95wmrbcc55OWTSNkABQ LIFYa+hhnSXiy8+u/rTmTC0iCAAqzs/Rr647/WP/+2ELZ+idH12oZ772Cc2fmk9gACiWQKy09Dvk 2e78QCCWivKz9duvf4YgAOi+YKmcNWXnG/ZcdtJiNdx/me656BAV5GQQHACKJRBtvsC4GvvsBIG4 cslJS3TRJw4iCCCFnXrYfrru3CN3+c/nZmfq+1ccr8ZfXaLPH7tvaG0mAFAsgSiq62Y6LOLP/33z HJUUcm4dkIrycjL151vP26O/u8+0Ij1+y2e07gdn6Zj9SggTAMUSiJaaThshIO7MnlKo39xwJkEA KejHXzxVB8yZslf/xglL9lHZvZfo0auP06ziHEIFQLEEIm3Q5lG/1U0QiDtfPPMwnXvcgQQBpJAT D9lXt156/IT8W8Z02C+dcaiaf3OF7jhrkXKyWH8JgGIJRFRVB8eOID795bbzNW0Suz0CqaAwL1uP 3XGR0id4gWRhXpZ+/sWTVPfzC3XhslkEDYBiCURKNdNhEadmTi7QQ7ecSxBACnjghjO1cPbkiP37 +8+ZrBe/c65W3f5pHTK7kMABUCyBidYy4JDD4ycIxKXPfmKxrj7rcIIAktgFJyzStWcfEZXPdfoR C1T1q8v1v184QlMKsgkfAMUSmCiBwLhqu5gOi/j126+fpYPmTiUIIAnNmVqkh287P6qfMyM9Td84 70g1P3CZvn7qQmVmcHkGgGIJTIjqTool4ldBbpae/v4lbL4BJBmj4D35vYs1PUZrqacU5ep3X/2U Kn5ynk47aBoPCACKJTARxdIXGCcIxK3DFs7Ur6/nCBIgmfzoi6fq5KXzYn4/Dp0/XavvvlAvfvNk LZzKhmEAKJbAHnN6/GroGSMIxLWvX3C0rjj1EIIAksCZRy3Udz/3ybi6TxeecKAafnO57r14qYpy M3mQAFAsgT1R3mYlBMQ94wiSJfOYsgYksrnTi/WP73xWE3yyyITIzszQnZcdq8ZfX6IvnTA3Lu8j AFAsEdcq2m2hjXyAeGast3zurstUlM9ujkAiys3O1PN3Xx6zdZW7avaUQj36zTNVdvfZOn5+CQ8c AIolsKvsbr8a++wEgbhnjFgaB6kzkgAknj/edI6OXjQ7Ye7vMYvmaMO9l+ixrxyvfUpyeQABxI2M I8+/4W5iQLzKzkzXsnnFBIG4t3iuMR02Te9UdRAGkCBuvOgYfSfO1lXuqmULZuj60w9WmtelTe1m NrwDEHOMWCKulbfbNM7PSiSIu646WZectIQggARw+pELdH+C7+ycn5upn1z1STXc91ldcsRsHlQA FEvg44w6fWrsY3dYJA5jSmwiTasDUpExfX35Dy9TZkZyXAbNn1mi5befo3e+e4aW7VPEAwyAYgl8 lLIWCyEgYeTlZOqVe64M7TIJIP7MKCnQip99TpMKcpLuaztl6TxV3HeZ/nDVUZpemMWDDYBiCXzQ ljYba0eQUGZNKdRrP03OC1cgkRlv/Lz04ytCI3xJe2GXlqbrzzlcTQ9coZtP2z9pRmUBUCyBveb0 +FXTOUoQSChLF8zQiz+6InQGHYDYy0hP05PfvVjHL9knJb7eksIcPXDtqaq59wJ9Zsl0ngAAKJaA gemwSESnHrafHrvzotAIAoDYMb4FH7rlPF144kEp97UvnjtVr//wAr168ylaNCOfJwMAiiVSW3Wn TU5PgCCQcC4/5WD97zfOIggghn529ad19VmHp3QG5x53gGp/fYXuu2yZinMzeVIAmHCcY4mEYCyx nFWSo7lT8wgDCeeYg+YoKzNDb1W2EwYQZbdccpzu+dKnCELh6cAnLtlH15x6oCwWmyq7bWIHAwAU S6Qcl9evExdNJggkpJOXzpM7+BxeW9tFGECU3HD+Ufrt15kxsL2C3GxdcOz+uuDw2aprH1an2UUo ACiWSB2mUa9OCBbL/Bw2Q0FiMg5kN9mc2tjYSxhAFErl/33zHILYgdlTCnX1aUu0eFquNrUOyery EwoAiiVSQ352hg6aU0gQSFjnHHuABi12bW7qIwwgQr5w2lL9+dbzlMbGWbvk0PnTdf3pByvL71FZ m5kjvgDsETbvQUJZ12RmPQgSnjGKYoymAJh4V52+TH+/40J2Y95Nxhmfd33+RDX++mJdedQcER+A 3cWIJRKKsTPsgbMKNL04mzCQ0M497kBZ7W6VNvQQBjBBjDdsHr7tfEYq98KkghxdeuKBOu2g6apq G1KfzU0oACiWSE7+gHTUgkkEgYR31jH7s6EPMEFuvfR4NuqZQPNmTNJ1ZxyifQsztLHVJLuH9ZcA KJZIMoM2tz59yFRlZTCTG4nP2NAnLydLayraCAPYQ9//wkn6+bWnEcQEMwZ+jzxglq779GL5nE5t 7jSH3twFAIolkoKxp0BJQZYWzMgnDCSFTx46V3OmFmnFxhaNs4gY2PWLmPQ0Pfi1s3TnlZ8gjAjK yc7QmUfspyuPnafWXpOahxyEAuC/MOSDhPRug4kQkFS+cs6Revr7l4Q20ACwc9mZGXrqe5foxouO IYwoOXDfqXr1+xfo9ds+pSUzCwgEAMUSia/X7FZTn50gkFQuOWmJVv3ifzSlKI8wgB0wNph58xdf 0KUnLyGMGPjM0QtV/evL9ZsrD1NJHmdLA6BYIsG9U8+oJZLPJw6Zq3UPfkkLZpUQBvAR5s8s0foH v6xTlu1HGDGUmZGumy48Ws0PXKHrT9ovNC0ZAMUSSEgV7TaNOn0EgaSzeO40lf3umlDJBPAfxvfE xt9fo4P3m04YcWLapDz94Wunq/ye83TqAZMJBKBYAonHFxjX+41mgkBSmj4pX2/96ip94bSlhAEE Gd8LxveE8b2B+LNs4Qy9fc/FWv71T2rBlFwCAVIQu8IioQ3Z3Dpt6TQxAQdJ+QKdnq6LP7lYBbnZ equyjR1jkaLfB2n6+TWn6dfXnxH6nkB8O3jeNH31jIOVN+5VWduIvH5euACKJZAAnJ6A5k3L06yS HMJA0jKm/51w8L56rawl+Jxn+jdSx9TiPL34oyt01RnLCCOBGOsvTz50rr508v4aHLKopm+UUIAU wFt/SHiraoYJAUnvjKMWatPvr9ERB8wiDKSEow6crfI/fEWnH7mAMBKUcT7vY7eepfU/OEvHzism EIBiCcQ349iRLpOLIJD0Fs6erA2/vTp05iWQzK4790ite/DLmjdjEmEkgeOX7KPSn1+mv159rGYX ZRMIkKSYCoukYKzhOGI+74Yi+RlTzM4/YVGoZK4ub5PH5ycUJA3jfMq/33GR7rzyE6HnOpJHWpp0 +P4z9dXTl2jc7dSmdov8AdZfAsmEV20khY0tFtk4egQp5P+dsSw0TZCpsUgWxy6eE3pOX37KwYSR xArzsnXvF09Ww32f1UVLZxAIkEQYsURSMN70zMlM10FzCgkDKcPY2OTLZx0uu8ujsq09BILEvBBJ T9MdV3xCj93xWU3jKJGUMbkwV1eedJBO2n+KyrcNaXDMQyhAgku79qFq5iEgKRTlZeoXn1usrAwO H0HqeauyXV/65UvqGrIRBhLG/nMm6++3X6QTD9mXMFKYMSX2Tysq9IMXajXi8BIIkKAYsUTS8PgC mlyQpfnT8wgDKWfBrBJdfdYR6g4Wy+q2QQJBXDPW2331vCP1wt1XhMolUlt68AlxzKLZuu7TB8lu G1N5t1UsvwQS8LWdEUskk+nF2frJ5YtCP6SAVPVKaZNueHCFeoY5Ow7xx3gT5E83nxs6Qgf4KHUd Q7rl0XVa1WgiDCCBMGKJpOJw+zVncq72Cd6AVHXQvlN1zdlHaMBsV1VrP4EgPi440tN088XHafld l2nx3GkEgo81o6RAV526WEfMKdSmbUMyszkfQLEEYmHI5tEpS6YQBFJabnamLjzxIJ2ybL7KGno0 bHMQCmLmsIUz9dKPr9DVZx2urMwMAsEuWTx3qq4/82AVyqeytmF5/EyyAyiWQBRZnT7tPzNfM4pz CAMpb/6sktBh8zlZGSpt6JbPHyAURI1xLuV9152hh287X/tO56xh7MGFanq6PnnIvrr6lEUaHjar undM1EsgPrHGEklp8ZwC3XYu63eAD2ofsOiWP7ypF9c1EgYie3GRJl11+rJgqTw9NK0RmCibmnp1 8yPrtb7DShgAxRKIju9euL8WzOBMNGB7b2zeplv/uEr1HUOEgQl33OJ9dP/1Z3KECCLqibfrdPtT 5eqxcf4lEC+YCoukZXb4dPwBJQQBbOeAOVN0/XlHafbUQm1q7JXdxblx2HvGbq9/vOkc/eZrn9Hc GUx7RWQtXTAjtP4y3e3Spg6LfJxPAsQcI5ZIaoxaAjs26vDol8+s12+eL9OYk3f+sfumTcrXnVd+ QjdedIyy2ZgHMdAxaNW3H12rZyvZBRugWAIRcujcIt101nyCAHbCOJrkZ0+u1R9f2SKPz08g2KmS wtzQ8SHGzdikB4i1d6s7ddNf16uqz04YAMUSmHiMWgK7rmvIpp89sVaPvF5JwcRHKszL1jcuPEa3 X3GiJhdyZjDiS2B8XA+vrNT3X6jR0BjT/AGKJTCBGLUE9rxg/vXNKrk8HE4OhUrkjRcdq29+9lhN Lc4jEMQ1q92tux9fp9+/2y4v6y8BiiUwURi1BPZM/8iYHnxho/746hZZxlwEkoJmTynUrZcerxvO P1oFuVkEgoSytXNYtz76vlZuHSEMgGIJ7D1GLYG9Y3O49dBr5frdS5vUMcD5cang8P1n6aaLj9Xn P30om/Ig4a3YuE23/L1UTSbeIAMolsBe+vZ5C7VoNgd1A3vDHxjXC2u36sEXyrS2totAkkx6Wpou PPEg3XzJcTp56TwCQVLx+gL631c268cv1cvqZg05QLEE9tD+M/N15wX7EwQwQWraBkNTZB9bXR06 tgSJa87UIl1z9uG69uwjNG/GJAJBUhuyOPS9f6zVX9Z3ieWXAMUS2CPf+Mx+OmweB3cDE8k4//Lp d+r06BtVWlfHKGaiyEhP0znHHqivnHtE6KPx/4FUUtEyoJsfXav3Wi2EAVAsgd2zz5Rc3XXJgeLy CYiMpm5TaCfZx9fUqnOQtZjx6KgDZ+t/Tl+qz33qUM2czPIA4Jn3GvTtxzer08bMC4BiCeyGaz41 V8cfUEIQQIQZo5ePr6nRc+9v1aCFA8tjadG+U3XpSUtChXLJvGkEAmzHOFbpF8vL9MvXG+XwcmkM UCyBXTC9KFv3XL6IaV9AlBgHlr9b1aEX1m0Nlcxe0yihRMHSBTN08ScX69KTl+jQ+TMIBNgF3cM2 3f7o+3qqol/jXCEDFEtgZy4/frbOWMq79kAsbGnu06ulzXplQ5PKW/q4eJsgudmZOmXZfjr72AN0 7nEH6IA5UwgF2EPrarv0zUfXqbyX2RYAxRLYgfycDP3sioNUkMPZbEAsGVNk39zSqtXlbVoV/Mho 5m78AE+TDtlvhk49bD+defRCnXbEguBrWxbBABPEeNPr0Ter9N1nKzVg9xEIQLEEPtpph07TlSfM JgggjjR2mfRudYfer+kMfewashHKPxlnTC6eNy10vqRRJj91+HzNKGHzHSDSjOOU7nlyvR58u1Ue P5fNAMUS2I6xxvLHlx6oGZNyCAOIU8YI5ob6bm1s7FVp8GNV64CsdndKfO2zphTqyANm6cRD5urY g+bo+CX7qig/mycFECMtvWbd+sh7eqVumDAAiiXwYYfvV6yvn7kfQQAJpLXPrPLmftW0Daq2fVD1 HcPBC74R+fyBhPx6CnKzQru2Gru1Hr7/LB22/8zgx5mMRgJxypi+f/PfNqhhyEUYAMUS+I9vn7dQ i2ZzAQckMq8vECqc24K3lp6R0MeOAWtoKm3XoFVDVkfM7psxhXX21ELNmzHpn7diLZg1WQfNnapF +0zRvtOLeQCBBOMPjOv3L2/W3S/Xyez0EwhAsQSkfafm6oefPUBpaRw/AiQrt9evAfNY8GYPlUzj 15Yxd/DmknnMGVpDNebyyBP8czZHeKqt0+0L/b1//8AMvkRMKvjP1PnCvOzwLTf8saQwV8X5OZo5 uUDTJuVrevBm/NoYeczMSOdBAJKQyebUD/6xVn98v0Pj4joCqS2TCJDK+oeG9cKbNZqeeaK+dsHR BAIkqZysjH+PGALARJlanKcLj12oP7xQJuUXBm9FhIKUxVuoSEmjDofe2rBJr769ViaLVT/46zuh dx0BAAB2lTEN/5u/fyP4q3HJMSqN9Ese1l6CYgkkPZ/fry21DXpu5Rq1dvX8+/dHRp363qNvERAA ANhl9z9XqqZu039+IxCQbCOSZUjys/YSFEsgKW3r6NYzK1aror4xVDC39+fXKrSluY+gAADAThnH If30ifc/+j/6vJJ5QBo1KzSaCVAsgcQ3PGLWy2ve09tlm+Vwfvx018D4uG783esEBgAAdupbf1od 2vhrh9zB6w5Tv+S0ExgolkCicrhcendjuV5c/a4GTSO79HeMg9gfeb2S8AAAwMdaU9GmJ9+u3bU/ PD4u2a3h9ZdeN+EhabErLJKOPxBQbVOLKuub5PX5dvvv3/7n1brghEWh4wIAAAA+yOPz62u/Xbn7 f9FYf2k1SVnZUtFkKT2DMJFUGLFEUuno6dPylau1qbp+j0qlwdgd9rY/rSJMAADwX3759PoPb9iz u7weaWRAGrMSJiiWQLwxW2167Z11WrWuTKN2x17/e4+trtZble0ECwAA/q21z6yfPrF2Yv4xl10y 9QU/OggWFEsg1lxuj9ZtqdLzb76tvsGhCft3jeUQNzy4Qm4vW4UDAICwr/7mNbk8von7B40LjjFL eATT2EkWoFgC0WXs4FrXvE3PrFilhm1twdflid/K25jm8rOJelcSAAAktL+vqtbq8rYIXdj4w2df 2kzhsglQLIHI6+4f0PNvrNGGihp5vJF9d+8XT6/T1q5hQgcAIIUNWx269Y9vRv4Tedzh6bF2G6GD YglEinVsTG+8v0Gvv7dBFttYVD6nMRX2y/e9HBohBQAAqenmP7wZ2twvapxj4fMv3U7CB8USmCjG qGRpVa2ee/0tdfUNRP3zlzb06LcvbOSBAAAgBa3Y2KLH19RE/xOPB6RRs2QelHw+HgjEPc6xRNwy 1k02tnZoS12DnK7YHij8vUfe1nnHH6gD5kzhgQEAIEVY7W5d98Crsb0T/mCptATLZXZu+PzLtDQe GMQlRiwRl/qHhvXiqne0dktlzEulweH26upfvcJ6egAAUoixrrJneDQ+7ozHFZ4e6xjlgQHFEtgZ 4wzKNRs26tW318pkia+Dg9+v6dT/vbKZBwkAgBSwakurHn2jMs7u1Xi4WI70h4smEEeYCou44PP7 VdnQqNrGbaFfx6s7H16jc487QPNnlvCgAQCQpGwOt669/9X4nakUCATv5EjwSj5LKpoiZWTwoCHm GLFEzLV0dOmZFatVWd8U16XSMOb06Iu/eIkpsQAAJLGbfv+GOget8X9HfV7JPBAsmWaFRjMBiiVS 0aDJrJfXvKd3yrbI4Uyc7bTfq+nUfc+s5wEEACAJvbS+UX99syqx7rTHGV5/6RzjAUTMMBUWUedw ubSpuk7N7V0J+zX88G/v6Kxj9teyhTN5QAEASBLDVoeue+C1xLzzxnQquy1cLo3dY7NyeEARVYxY Imr8gYAqG5r07IrVCV0qDW6vX1f94iV5fH4eWAAAksRXHnhVgxZ7Yn8RxvpLq0myDAd/zXUKKJZI Mm3dvVq+crU219TLmySH/Fa3DoTOtwQAAInv4ZUVenFdY/J8QT6PNDIgjVp4cBEVTIVFRI1YbNpQ Wa2+weGk/PruX16q809YpJOXzuPBBgAgQTX3jOiWP7yZnF+c2xFeg1kwScrN58FGxDBiiYhwuT1a u7lKL6x6O2lLpSEwPq7/ufcFmcc4SwoAgETk8wf0heDPcmPn96RlrL8cs4RHMI2dZAGKJRKhaNU1 b9MzK1Zpa2tb8HUs+be+7hqy6epfvcyDDwBAArrrb+9qU2Nvilyo+SXLkGQdFmengWKJuNXdP6Dn Xl+jDRU18nhT690wY03G/728mScBAAAJZE1Fm37+1LrU+8K9HsnUF95FFpggrLHEXrOOjmlDZY26 +wZSOofb/rRKJy2dp6ULZvCkAAAgzg1ZHbrq5y+GZlulLONoEpdDKpwk5eTxpMBeYcQSe8wYlSyt rNVzb7yV8qXS4PL4dMVPnpPDzdoFAADi3f/7xYvqGxkjiPGANGqWzINSkuzcD4olEuX1Z3xcW7e1 h86jrG1qUcA4LwkhDZ3Duun3bxAEAABx7L5nNuj1TdsI4oP8wVJpCZZL2wjrL7FHmAqL3dI/NKz1 5TUasVoJ42MY52CdvGyerjp9GWEAABBn1tV16buPvEUQH8fjkkz9Un5h8FZEHqBYYmKN2u0qq6pT e3cvYeyCGx5coSMOmKVD57PeEgCAeGGsq7zyp8+HjhjBjoxLjlHJZZcKS6TsXCLBTjEVFjvk8/u1 ubZey19/i1K5G+wury750fLkPhMLAIAE8q+zp7uH2Al110MLhKfGmofCU2UBiiX2REtHV+g8ysr6 JvmDBRO7p6nbpKt/9QpBAAAQB+75x/t6c0srQewJvze8uY/NzPpLUCyx6wZNZr205l29U7ZFDqeL QPbCs+/V68EXNhIEAAAxtHJji3782HsEsbc8TmmkP3xMCbAd1lji34wSuam6Ts0dXYQxgb790Cod e9AcnXDwvoQBAECUtfaZ9YV7X0jt8yonkpGj3RYul0WTpawcMkEII5aQPxBQZUOTnlm5ilIZAV5f QJf86Fn1mkYJAwCAKHK6ffrs3c/KPMYMrAlnrL+0miTLcPDXLJkCxTLltXX3hs6j3FxTL5+PF4VI MQ5gvjj4g81DxgAARM1XHnhV1a0DBBFJPo80Esx41EIWFEukIpPFqlffXqs16zdqzOEgkCgo29qj 63+zgiAAAIiCXz27QY+vqSGIaHEHrydNfZKL68pUxRrLFONyu7W5Zqsa29o1zlqDqHv0jUodeeAs fePCYwgDAIAIeWPzNt358BqCiDbj2nLMEj4Ds3hysGlkkwnFEskmEAiovqVN5XVb5fF6CSSGbv3j mzp0/gydeth+hAEAwARr7hnR5376vPwB3kCP3YWnP7z2MitYLIunSGlMkkwFPMopoKtvQM+98ZZK K2solXHA2Mzn8nuWq32AtQgAAEwkm8OtC37wNJv1xM1Fj0cy9UtjVrKgWCKRWW1jev39DXojeLOO ct5QPBmyOnTu954K/QAEAAB7zzhO5LIfL9fWrmHCiDcue7hgup1kQbFEIvF4vKHRyefeWKPuPnZC i1f1HUO6/J7nOFcLAIAJcOPvXtebW1oJIl6NB6RRs2QelHw+8qBYIq6/X4MFpWFbm55ZuVq1Tdso LAnA2FzA+EEIAAD23O9f3qz/C96QAPzBUmkJlkubKbzZD5IGm/ckid7BIZVW1mrEwhz2RGP8IFw8 d5puvIidYgEA2F2vb9qmm37Pm7QJx+MOT4/NK5QKisiDYolYG7XbVVZVq/buPsJIYLf84Q0dMGey zj72AMIAAGAXVW7r1+U/Wc4OsAkr+Lg5RyW3PVguS6ScXCJJYEyFTVA+n1+bauq1/PW3KJVJwPiB eMVPn1NFSz9hAACwC7qHbKGN8EYdHsJIdAFj/eWIZB4KT5UFxRLR0dzeqWdXrlJVQ5P8fj+BJAnj B+M533uSY0gAANgJY1d142dmr2mUMJKJ3xve3MdmZv0lxRKRNGga0cur39W7G8tld3I+UzLqHxnT Wd95QiYb23EDAPBRjPOgL777WdW0DRJGsvIEr4NG+iUnx+VRLDGhHMES+U7ZZr285j0NjpgJJMk1 dpl0wQ+fktPNVBAAALZ31S9e1JqKNoJIdsaIpd0WLJgDkpdzvymW2Cv+QEAV9Y16ZuUqtXR0E0gK WV/Xrc/f+zxHxgAA8AG3/OFNPf1OHUGkkoBfspoky3D416BYYve0dvXo2RWrtaW2IbRRD1LPi+sa dcODKwgCAICg+57ZoN88X0YQqcrnCY9ejrIXRbziuJE4Y7JYVVpRrb4hE2FAD71WrumT8vWTL3+K MAAAKeuR1yt1x8OrCQKS2xFeg1kwScrNJw+KJbbncru1uaZBjW0dGmf6Iz7gp0+s1eSiPN126fGE AQBIOc+v3arrHniVTULxH8aTYcwiOUal4snBRpNNJhRLBAIB1TW3htZSerxeAsFH+vZDq1RSkKNr zj6CMAAAKcPYpOdzP30+dN4z8N8X0v7w2susYLEsniKlscqPYpmiuvoGVFpZI+soWyljx4w35r76 m9c0qSBXl568hEAAAElv49ZeXfjDp+VhrwnsjNcjmfql3AKpcBJ5UCxTh9U2pg2V1eru5/wl7Drj 3dov3PtCsFzm6IyjFhIIACBplTf36cw7/yG7i9lc2A0uu+R2hstlTh55RBnjxVHk8XhVWlGj595Y Q6nEnj2HfH5ddNczeruynTAAAEmptn1QZ33nCVntnF2IPTAekEbNkjl4re3jTHCKZbI9v8fH1bCt LXQeZW3zNs4mxF5xuL067/tPaV1dF2EAAJLKtl6zTr/9HxqyOggDe8cfLJWWYLm0mcTOTxTLpNA7 MKTnV72tdVuq5HJ7CAQTVi7P/d6TofUnAAAkS6k89Vt/14DZThiYOB53eP2lfZQsKJaJadRu16p1 ZVrx7jqZLTYCwYQzpggZ608olwCAZCmV3UNcMyESxiVnsFiOBAum20UcFMvE4PP5tam6XstXrlFH Tx+BICrlsqaNNbsAAEolsEMBY/3liGQeCk+VBcUyXjW3d+qZFatUtbVJfuOJC0SpXJ727cdU0dJP GAAASiWwM35veHMfm5n1lxTL+DJoGtFLq9/VuxvL5XAxvI7oMzY5+FTwBzPTYgEAlEpgF3mc4emx Ds6Up1jGmMPp1Nulm/Xymvc0NGImEMQUay4BAImiuWeEUon4YIxYOoLPw5EBycsRNxTLKDOmuVbU N+qZFau1rbObQBBX5fL0Ox7jnEsAQNwyzqn8xE2PUioRXwL+4IWUSbIMh38NimWktXX16NkVq7Sl tkE+P086xJ9Rhyd0ziXlEgAQb8qb+/Tpbz3GOZWIXz5PePRy1KLQbrLYrWLJosBdYLJY9erb72vN hk0aczgJBHHNOOfSKJevlTUTBgAgLqyr69Knv02pRIJwO8LnXzo5V3VXEzOKpYUcPp7L7db7myv0 4qp31D9kIhAkVLm8+O5n9cRbtYQBAIipVVtadeYdj4eWbAAJw1h/abeGRzCNkUzsiDnT+J/gbRZZ fFggEFBdc6vK67fK6+WcGyQmj8+v//n5C7KMufS1C44mEABA1D2/dqs+99PnQz+TgMQsBv7w2sus bKl4ipTGasKPYDGKZV/wtoQs/qOzt19llbWyjrH1MBKf8Wbb1/93pUZGnfr+F04iEABA1Dy8skLX /+Y1+QOsVUMS8HrC02NzC6TCSeTxYX3/KpYwarZtVKXBQtndP0AYSDo/+Os7oXJ5//VnEgYAIOJ+ 8vj7oZ89QNJx2SW3UyoIlsvcPPII6zWKZUeqp+D2eFRe16iGllYFxnlHDcnrgefKZB516aFbzlNW JtM4AAATz7iUuuUPb+jBFzYSBpL4iR6QxszhMzCN6bGZWameSIdRLFtS94VvXA3b2oKlcqtcbhbk IjX89c0q9ZpGtfyHl6koP5tAAAATJrS2/94X9ex79YSB1BBafzkkZedIRcb6y7RUTaLFGLJoSsWv vHdgSM+velvry6splUg5b25p1Sm3/U39I6wjBgBMDGOjuDNu/welEqnJ4w6vv7TbUjWB5rRrH6ou Cv7CGrylRL22jdlVVlWrjh6WlgLzZ5Zo5b2f0+K50wgDALDHuoZsOus7T6i+Y4gwgPR0qaBEyslN la/YWEs4KVQmg+Vya/DDQcn81Xp9PlXWN6q2aZv8gQBPeOCfphTl6eV7rtAnDplLGACA3VbR0q/z vv9UaJkFgA/IyAyvvzQ+JrdGPXXt4n/t3rElmb/SpvZOPbtitaq2NlMqge0YO8Wefvs/9NTbdYQB ANgtL61v1Cdv/iulEvgofp9kHpRs5vCuVskr1CUzP/B/Pp9sX+GAaUSlFdUaGrHwxAZ2wOXx6fP3 Pq+mHpN++D8nEwgAYKfuX16q2/+8mjMqgZ3xOKURl5RXJOUXJn2xTKr9oO0OpzZW12lbZzdPZGAX GW+k3fW3d9XYZdIj37pAOVkZhAIA+C8+f0A3/u51/fHVLYQB7M6FlnE0iXEGZlGJlJWTTF/dxu2L pSN4y0/kr8iY5lrV0KzqrU3BFz0/T2BgDzzxVq3aByx64e7LNaOkgEAAAP9mHnPp0h89q7cq2wkD 2BPG8SRWU7CFZUvFk6X0hH8j3/GvYvnvnWCvfaj6teCHcxL1K2rt6tHGqlqNOZw8YYEJYOwY+8pP rtCh82cQBgBAW7uGdf73n1ZL7whhABMlJ18qmqQEPqBjhZ669lzjF+kf+M3VifiVmCxWvfrW+3pr wyZKJTCBjFHLE296VC+uayQMAEhxKze26PgbH6FUAhPN7Qiff+m0J+pX8O8O+cFiuSqRvgKX2633 N1XoxVXvqH/YxJMSiIBRh0cX/+gZ/fBv7yT5ZmYAgI9z75PrdP4PnpLV7iYMIBKMiyy7VRoJFkyf J9Hu/b875IfGXK99qLon+GFOPN/zQCCgmqZtqmxolNfr44kIRMkFJyzSP+78rIryswkDAFKA3eXV l+57ScvfayAMIJqyssPnX6alx/s97dVT1+7zr/+z/b19Pp7veWdvv5a/vkabqusolUCUvbyhScd+ 4y+hXWMBAMltW685NPWVUgnEgNcTnh47Zo33e/qh7rh9sXwiHu+x2Taqle+u15trS2Ubs/NkA2LE 2LjhuBv/EiqZAIDkZLzGH/31h1XbPkgYQCwZR5MYBdMVt/vIPL6jYlkavHXFyz11ezxaX1GtF954 Sz0DvLgB8cBYY3PRXU/rjofXcCg2ACSRwPi4vvOXt0Kv8ZYxF4EA8WA8II2ZpZEByeeNp3tmdMay D/7Gf+1re+1D1b8Ofrg1pvkFX9gatrVpS+3WULkEEJ9OWbafnvrexZo1pZAwACCBDVkduvInz3E+ JRDvsnOkImP9ZcyPJ7lfT1172wd/46NWhD4Vy3vYMzCk5958W+vLqymVQJx7t7pDR9zw59BHAEBi eq+mU4d/9SFKJZAIPG7J1CfZbbG+J//VGT+y6l77UHVl8MNh0bxnxtrJsspadfT28YQBEkxGepp+ 8uVP6c4rP0EYAJAgjBMOfvbkWt31t3dY2gAkovR0qaBEysmN9meu0lPXHr79b2Z+zB/+Y/D2h2jc K6/Pp8r6xtARIsZRIgASj3FBYqzLMUYu/37HRZo+KZ9QACCODVrsuurnL+rNLa2EASQqozuNjkiO zPDxJBmZ0frMH9kTP27EskjGuSRSRBdONbV1alNNvZwuFogDycJYb/n32y/UGUctJAwAiENGmfx/ v3hRA2Z22geSSnauVDQ50usvx4K3OXrq2tFdKpb/LJd/Cn64LhL3ZmB4RBsqqjVstvAEAJKQ8Xp2 ++UnhqbHZmakEwgAxAGvL6Dv/GWN7n+uNDQNFkCSXoTlFUn5ERsffChYKr/6kZ96B8VymYz5sxPI 7nCqrKpOrV3dPOhACjhu8T564ruf1cLZkwkDAGKoqdukz//sBW1pZi8LICWkZ0iFJeFdZCfWYcFi Wb1bxfKf5XJl8MNZe/vZ/X6/qrY2qzp48wV/DSB1FOfn6Hc3nqWrTl9GGAAQA396tVy3/elN2V1e wgBSTWZ2eHpsRsZE/GuvB0vl2R/7qXbyl+/d22K5ratHGytrZXc6eWCBFGRzuPX/fvGSXlrfpD/d fK6mFucRCgBEgbFBzzW/fkWvljYTBpCqfB7JPCDl5AcL5iTtZFxxZ362o/+403/52oeq1wU/nLi7 n9VYP7mhokYDwyYeUAAhxsY+f7ntfJ1z7AGEAQAR9NL6Rn3l/lc1ZHUQBoB/Nr9g9csvlvIK9uRv r9dT1+7wXLmdjokeef4Ng8EPn9/Vz+h0u0OFcn15tcYcvJgB+I8xp0dPvl2rvpExferwBcrOzCAU AJhAVrtb1z3wmr77yFtyuJn6CmA7XrfksktZ2eF1mLvuBtW+vMPpD7ty2MlrwVtF8HbEjv6QcQZl bdM2VTQ0yuv18aAB+EjGToTGep+3Ktr1yLcu0CcPnUsoADABVm5s0VceeFU9w6OEAWBHxU2yDIfL ZbFxPMlOC2Z58LZiZ39olybZXvtQ9enBD6s+7r939PaprLJWtjHOQwKw69LT0nTjRcfop1d/WgW5 WQQCAHvAGKX81p9W6S+vV3CMCIDdl1ug/8/efYDZWZZpAP5IJwmEIi0iJKHXhARIABGjh44FV5AV kF0FRERCBxGCHhDpEEQFYd217Yoo6konOtKbCCGShDYEQoAUSCG97vuf/7BYCKScmdPu+7qeLxNK knnnZOZ/5vtL6tnrvf6LvdMvjh5ZkWJZLpd3lX7RvzFtxsz08Ki/pomvT/YBAVZa3w3XKu1efrT/ poYBsAJ+//Cz6SsjbrNLCaya7PrLHlEuu3X/x39zd5TKfZbrl1iBYjkg5dugq81fsCA9/vTYNO75 8WmJb40BFfp8duyBA9Olx+yd1ujexUAA3sPUGXPSST+4K/38D6MNA6ic7LrLNddJqVPpTLKs6A2M YvlkRYtl5ovXPvmzsS+8ePhfnn4mZeUSoNI2Wb9XunbYAWl/d44FeFc/HflUOvXau93xFWg7Xbpm z7/8ebrx2COW939ZsQeZFIrZXTbGRHqaNtCWDt1r2zTi+H1LjygBIKUXXp2Wjhtxaxr5lxcNA2hr syLbppHDJyzv/7Bi9/pvbZmZ+g3N7l29j1kDbenpl6akG25/Iq3RvWvaZcvepVNlAZrRwkVL0iU3 PpgOu/DX6dlX3jQQoD2cHaXyjhX5H1b8UK1QzB5Rkl1ruYN5A+1h1617px+efFDq328DwwCaSrY7 +bVr7kjjJkw1DKC9PBUZFMVyhZ4huXJ7AIXi7rE+YOZAe+nUsUMadvCu6bwj93JzH6DhvTx5Rjrl 2rvTr+8baxhAe8pu2LNHlMqHVvR/7LhSv11ry4TUb2jvUpMFaAfZHagfGvNK+q+7RqX11+5h9xJo SAsWLU4X3/hg+twFN6enWicZCNDero9S+YOV+R9X/qqlQnGNlG+T9jF/oL3tvt3G6Xtf2z8N2GxD wwAawp1/fqF02utzE11HCVTF+MiOUSxX6sG4q3Y7jEJxz1j/FOng4wC0t44dVkvHHDAwXfilj6W1 e3YzEKA+j+QmTS89PuTm+8cZBlAtSyJ7Ram8f6WPy1bpt29teTn1G9o93vqwjwXQ3pYuTenPz76W rr/tibR6l05p0JYbpQ4d3D4WqA/TZ81L5/xnS/rCxb9Lfx0/xUCAarokSuWPVuUXWPUjsEKxa6yP RPr7eADVtOXG66aLj/54+vQeWxkGULOyx4d8738fS+f/7L705ltzDQSotlGRwVEs51e3WOblcttY H4308HEBqm2vHTdNlx+3dxq0xUaGAdSU7C6vZ97wh/TCq9MMA6gFsyO7RKlc5VtQV+6csULxiFh/ 6mMD1ILV4rPbER/fMX37i0PTh9Zb00CAqnp47MR02nV3pweenmAYQC05Mkrlzypy7FXRP1ah+P1Y v+LjA9SKbl06peMOGpTOOXzPtO6aqxsI0K6yO7x+40ct6Vf3jSldFw5QQ74XpfKESv1iHSv6R+s3 9K6U3U0opU19nIBasGjxktJOwfd//+fSdU3Z6bFdO3c0GKBNvfj69HTKD+5KX77q1vTX8ZMNBKg1 90YOT60tSyr1C1b+9omF4vopv95SuQRqzgd6dU9n/+uH01c+Mai0mwlQSROmzEwX/vf96Ud3PJkW LFpsIEAtGp/ym/VU9LtebXNf/vxmPg9FXNgE1KTsustvfH7P9MX9BqTOnTyKF1g1r785K11844Pp 2lseT/MWLDIQoFbNjOwWpXJMpX/htnvgW6H4sVjviHT28QNq1Sbr9yrtYP77fv1Tl05OkQVWzBsz 56bLbnoojfjNI2nufIUSqGkLI/tFqfxjW/zibfsk8ULx0Fj/J2I7AKhpG63TM5152B7pywcOdIos 8L6yHcrLf/VwaYdy1twFBgLUuuxaysOiVN7UVr/Bam3+LhSK2V1iv+9jCdRTwTzmgJ1S965OuAD+ Xvb8yUtvejD95x2jXEMJ1JPjo1T+oC1/g9Xa5d0oFL8W69U+nkC9yG7y87VP75K++sldPKYESE+1 Tkrf+cUD6Vf3ji3dbRqgjpwYpfK7bf2brNZu706hOCzWq3xcgXrSc/Uu6Uv7DUinHrJb6YY/QHN5 8OlX0oX/c3+67dHnPIcSqEcnRakc0R6/0Wrt+m45LRaoU9mdY/916Pbp9EN3S9v3Wd9AoIEtiQb5 uwefSVf++pF03+iXDQSoV21++mv1imVeLg+L9SfJ3WKBOrRafNb8+E5900mfGZwO2HWL0s+BxjBz zvx0w21PpGt+91h68fXpBgLUq+zur0dGqbyxXY+RqvKuFop7x/qr5DmXQB3bcuN104kH75r+bZ/+ qUc33yuDevXsK2+k7/72sfRfd41yh1eg3mXPqfxslMq72/s3rt732gvFbWO9NdLHxx+oZ2v17JaO 3n+ndPwnd059N1zLQKBO3P14a7rq5kfSHY+9UDr9FaDOjY8cGKVyTDV+8+qexFUorhdrtkU71OsA qHcdVlst7bvLZum4gwalg4ZsUfo5UFumzZqXfnL3U+m6Wx5PY1+eaiBAo2iJfC5K5ZRq/QGqf9RT KHaM9duRM70egEaR3UH22AMHlnYyN1ynp4FAld07+uXS9ZM33TsmzVuwyECARnJx5BtRKqv6cN3a +XZ6obhvym/q43aLQMPI7ib7qd23KhXMfQZt5mY/0I7emDk3/fiuUemHt/0lPTPhDQMBGs3kyBei UN5ZC3+Y2jrEyU+NzR5H8lmvE6DRbLzemqUb/Ry1z45p897rGAi0kT8+Ob60O3nz/WPT/IWLDQRo RNmNUI+v5qmvtV0s3ymYh8R6dWRDrxmg0WS7lntuv0n69/0GpEM+sq07ykIFZNdL/mzk6PTzP45O L02aYSBAo3o9cmIUyptq7vimZkdWKGaPIvlmaXApdfQaAhrRGt27pE/vvnU6/OPbp8LAfqljB+fK wvKaNG12+p+Wv5YK5ePPvWYgQCPLTr+4utSPRg6fWYt/wNo/gikUt4n1qsg+Xk9AI1t/rR7p0L22 jZK5QxqyzQcNBN7F7HkL028fGJd+GmVy5F9a0+IlHhMCNLy7IidFoRxby3/I+vnWeKF4UKxXRLbw 2gIaXb+N1k7/OnS7dFhk+z7uaUZzmzt/Ubr9sedLd3S95eHn0qy5CwwFaAbPRU6JQnlLPfxh6+uc q0KxS6xfiwyPrOm1BjSDzXqvXboW81/23CbtvOVGBkJTmDlnfrr1kefSr+8bl2579LlSuQRolk+B kWLku1Eq6+Y7afV5MU+hmH37/oLI0XX7PgCshE3W7xUlc5v06T22Tnts9yGPL6GhTJs1L/3m/nHp Nw+MS3c/3uqOrkCzyc7tvyFyThTKyfX2h6/vQ5JCcUDKL2Ld0+sQaDYbrN0jHbDrFumgIVukfQb1 Sz1X72Io1J1nX3kj3f7YC+n3Dz2b7h39Ulq4aImhAM3ovpTf7fXJen0HGuN73YXiobFeEtnUaxJo Rl07d0x77bhpOnDwFumTu2+Z+mywlqFQk7JdyJYnx5eumbztkefT86++aShAM3spckYUyl/W+zvS OCdRFYqrx3pa5KxId69RoJlts8kH0t6D+qW9B/ZLQwf08axMqnvUNGlGuuWR59IdUSb/+MT4NGf+ QkMBmt2cyEWRy6JUzm2Ed6jxrs4pFLN79Ge7l5/3egVIqUunjmm3bTdOhYF90747b5YGbblR6uDi TNrQ5OmzS7uSfxr1UmoZNT49M+ENQwF4x3+nfJdyYiO9U417ZFEo7hbriMguXrsA71hnjdVLN/7Z q/+m6aORAZttmDp2UDRZeVNnzEn3PPVSqUhmefqlyWmpx0sC/KPHIsOiUD7UiO9cYx9JFIrZ+3dU 5MKIe/QDvIvspj8f3v5DUTL7lH7cZavepV1OWJaJU99KD415JT3w9IRSkRzV+roiCbBsr0XOjvw4 SmXDfrZsjm9RF4prlD+YJ0e6em0DLFt2I6CdNt8wDdlm4zR46w+mIdt+0M2Amti8BYvS48+9lh4e OzHySqlQZsUSgPc1P3Jlyja5Rg5v+E+czXXuU6HYN9bLIwd7nQMsv+zRJlnR3HXr3mng5huVimf2 z2gsi5csLT3+4y9/UyRHtU7yCBCAFfebyKlRKF9slne4OS+qKRSHpvz6yx285gFWzkbr9EwDt9go Ddhsg9KPWdnsu6GdzXoxc8789FTr5PTkC6+nUS9MKv349EtT0tz5iwwHYOWNTvl1lC3N9o43790a CsXsAqJjI8XIB/wdAFh12fWa2aNOttt0vbRdn/XSttmPkU036GU4VTJ73sLSLmR2Z9Zn4se3i+SL r083HIDKmRoZHvlhlMrFzTgAtwEsFNeO9bzIVyOd/J0AaJvCudXG66YtNl4nbd57nbRZ77VLP24e P264Tk8DWkVLli5N46Movl0e3y6Sz058M70yZaYBAbSd7DSP70W+FYVyWjMPQrF8p2BuE+sVkf0M A6D99OjWuVQy+260VvrQemtGeqVN1n/nx43WXaPpH4eS7Tq+PHlGKS9NmpEmRFl8++cvT55ZKo8L Fi32YgJoX3dETolCOdYoFMt3K5gHlgvmloYBUH2dOnYo7Wr2XrdnWq9Xj9K1neut1T1tuHbPtP5a PdL6a/eIt3uktXp2K6V718518X69NWdBmjR9Vpo6Y26aMmN2mjRtdul5kFMib7/9+puzSiXyzbfm eiEA1I5ny4XyVqNQLN+vXHaJ9YSUnyK7poEA1I/OnTqktXuuXi6aXdNaPbqlNbp3TWus3iWt3rVT 6tq5U+rVo2v8dx1Lp+h2j3/29nM7O3RYLa3Z/e+fStWxQ4fSj4uX5HdGzU47nTl7/v//+2yncE75 hjfzFyxKs+YtKJXGGfHfzJq7oPTz7Mf8n80rvZ3dOGf+QjuMAHUmu7bgW5FrolQuMA7FckUK5vqx nh85OjveMBAAAGg6SyPXR86NQjnZOBTLVSmYA2K9KrKXYQAAQNO4J3JSFMonjUKxrGTBPCTWSyJ9 DAMAABrW+MgZUShvMorl09EIVkBry5jUb+gP463sLgpDIp0NBQAAGsaclF9HeUSUylHGsfzsWK6s QvGDsV5UetEBAAD17meRs6JQTjQKxbIaBTPbuRwR2dUwAACg7jwaGRaF8mGjWHnudLqq8hdgVi6P irxmIAAAUBdeKx/DD1EqV50dy0oqFHvGenbKHpiaUlcDAQCAmpM9jPiKyIVRKGcZh2JZywWzb6yX RT5jGAAAUDNujpwWhfJFo1As66lgfjTl11/uaBgAAFA1T6X8Oso/GUXbcI1lW8pfuAMjx0WmGggA ALSrqeVj8YFKZduyY9leCsW1Yj0vckKkk4EAAECbWRS5JmXPpBw5fLpxKJaNWDC3ivWqyH6GAQAA FXdH5KQolM8YhWLZDAVz/3LB3NIwAABglT1bLpS3G0X7c41lteQv+O1T/miSGQYCAAArZUb5mHp7 pbJ67FjWgkJxvVgviByt7AMAwHJZErkhck4UyinGoVjyTsHsn/LHk+xlGAAAsEz3pPzxIaOMQrFk 2QXzs7FeGuljGAAA8P/GR06PQvkro6gtHY2gBrW2jEn9hl4Xb82NDIl0MRQAAJrY7JQ9OiSlI6JU PmUctceOZa0rFHvHelHkSMMAAKAJ/TRyVhTKV41CsWTVC+bglF9/OdgwAABoAo+k/DrKR4yi9rkD ab3I/0LtFvlCxHdrAABoVK+Wj3l3Uyrrhx3LelQo9oj17JQ/r6ebgQAA0ADmRa6IXBiFcrZxKJa0 X8HsG+slkc8aBgAAdSy7y+sZUShfNArFkuoVzI/GelWkv2EAAFBHsudQnhSF8k9GUd9cY9kI8r+I gyLHRaYYCAAANW5K+dh1kFLZGOxYNppCsVes50VOiHQ2EAAAasjCyDWRYhTK6cahWFL7BXOrlF/8 fIBhAABQA25L2c0nRw5/xigUS+qvYO5fLphbGwYAAFUwrlwobzeKxuUay0aX/wXeMXJyxOkGAAC0 l+nlY9AdlcrGZ8eymRSK66XsfPaUjk2+qQAAQNtYEvlhZHgUSjeWVCxp4IKZ7WCOiHzUMAAAqKA/ RYZFoXzKKBRLmqdgfibWyyN9DAMAgFUwPnJqFMqbjaI5dTSCJtbaMjb1G3pdvDUnMiTSxVAAAFgB syPfjBwRpXK0cTQvO5bkCsXesV4YOcowAABYDj+OnB2F8lWjQLHkHwvmrim//nKIYQAA8C4eTvl1 lI8aBW9zZ1D+Xv4JYveUnc6Qku8+AQDwtlfLx4i7K5X8IzuWLFuh2CPWsyKnRboZCABAU5oXuSxy URTK2caBYsnKFsw+sV4SOcQwAACayk2RM6JQjjcKFEsqVTA/EuvVkf6GAQDQ0EZFToxCea9RsDxc Y8nyyz+xDIx8OTLFQAAAGs6U8rHeQKWSFWHHkpVTKPaKdXjka5HOBgIAUNcWRr4bKUahnGEcKJa0 d8HcMtYrIwcYBgBAXbotcnIUymeNAsWSahfMfWO9KrK1YQAA1IVxkZOiUN5pFKwq11hSGfknpB1K n5xSmm4gAAA1a3r5mG0HpZJKsWNJ5RWK68Z6QeSYSEcDAQCoCYsj10fOiUL5hnGgWFIvBTPbwRwR GWoYAABV1RIZFoVytFGgWFKvBfPgWC+P9DUMAIB29WLk1CiUvzEK2pLTFGl7rS3jUr+h18ZbcyKD I10MBQCgTc2KfDNyRJTKvxoHbc2OJe2rUNwo1u9EvuD1BwBQcUsjP4l8PQrla8aBYkmjF8xdU/54 kt0MAwCgIh5K+eNDHjUK2pvHjVAd+Se8PSKHRyYaCADASsuOpY4oHVsplVSJHUuqr1DsHutZkdMj 3QwEAGC5zItcGrkoCuUc40CxhLxgbhrrJZFDDQMA4D39MnJGFMqXjALFEt69YH4k5ddf7mQYAAB/ 54mUX0d5r1FQS1xjSe3JP1HuHDk2MtlAAABKx0THlo6RlEpqkB1Laluh2CvWcyLDIp0NBABoMgsj IyIXRKGcYRwolrBqBXPLWC+PHGQYAECTuCVyahTKZ40CxRIqWzD3jfXKyDaGAQA0qLGRk6NQ3mkU 1AvXWFJf8k+wO6b81NhpBgIANJBp5WOcHZVK6o0dS+pXobhurMXIlyMdDQQAqFOLI9dFhkehfMM4 UCyhOgVzh5SfHvtxwwAA6swfUn7a62ijQLGE2iiYn075DX76GQYAUONaU35jnt8aBY3A6YM00Kfn lnGp39DsNJJZkSGRLoYCANSY7DhleOTIKJVPGweNwo4ljalQ3DDW70SO8joHAGrA0siPI1+PQvm6 caBYQn0VzJ1jvTqym2EAAFXyUOTEKJR/NgoalceN0NjyT+B7RD4fmWggAEA7mlg+BtlDqaTR2bGk eRSK3WM9M3JGpJuBAABtZF7kksjFUSjnGAeKJTRmwdyk/Mn+c4YBAFTYjSn7JvbI4S8bBYolNEfB /HDKr7/cyTAAgFX0RMqvo7zfKGhGrrGkeeWf+LOb+xwdmWwgAMBKmFw+lthZqaSZ2bGETKG4Zqzn RE6KdDYQAOB9LIxcFbkgCuVM40CxBP62YG4e6xWRTxgGALAMv4+cEoXyeaMAxRLeq2DuE+uVkW0N AwAoGxM5OQrlXUYBf881lvBu8i8Y/VN2EX5K0wwEAJratPIxQX+lEt6dHUt4P4XiOrGeH/lypKOB AEDTWBy5LnJuFMo3jQMUS6hEwdwu5RfpFwwDABreyJTd1G/k8KeNAhRLaIuC+alYL49sZhgA0HBe iJwahfJ3RgHLz2l9sKJaW55J/YZeG2/NjgyOdDUUAKh7b0XOixwZpXKMccCKsWMJq6JQ3CDW70T+ zd8nAKhLSyP/Ffl6FMpJxgGKJVSzYA6KdURkD8MAgLrxQGRYFMrHjQJWjceNQCXkX5D2jHw+MsFA AKCmTSh/zd5TqYTKsGMJlVYodo/1jHJWNxAAqBlzI5eUMnL4HOMAxRLqoWBuEuvFkcMMAwCq7heR M6NQvmwUoFhCPRbMD6f8+ZeDDAMA2l12qmv2PMr7jQLajmssoa3lX8h2jXwp4m5zANA+JpW/9u6q VELbs2MJ7alQXDPWb6TsO6cpdTEQAKi4BSk/U+jbUShnGgcoltDIBXPzWC+LfMowAKBifhc5LQrl 80YBiiU0U8HcO9YrI9sZBgCstKcjJ0ehvNsooDpcYwnVlH8BHBA5ITLNQABghUwrfw0doFRCddmx hFpRKK4T67ciX4l0NBAAWKbFkR9EzotC+aZxgGIJ/HPBzE6LzU6P3dswAOCfZDuT2WmvTxsFKJbA +xfMT8Z6RWQzwwCA9ELklCiU/2sUUHucbge1qrXlmdRv6LXx1luRIZGuhgJAE8q+Dp4b+UKUyjHG AbXJjiXUg0Jxg5Q9jyulL/p7C0CTWBr5Ucqe/zxy+CTjAMUSqFzBHBjriMiHDQOABnZ/ZFgUyr8Y BdQHjxuBepJ/gf1I5LDIBAMBoMFMKH+N+4hSCfXFjiXUq0Jx9VjPiJwZWd1AAKhjcyMXRy6JQjnX OECxBNq/YG4c66Up/w4vANSbX0ROj0L5ilGAYglUv2DuHuvVkUGGAUAdeDxyYhTKB40C6p9rLKFR 5F+Yd035nWPdPQ+AWjWp/LVqV6USGocdS2hEheIaKbs9e0onR7oYCAA1YEHkypQ9Pmvk8LeMAxRL oH4KZr9Yr4h8yjAAqKLfRU6JQtlqFKBYAvVbMD8e61WR7Q0DgHb018hJUSj/YBTQ2FxjCc0g/4K+ U+SrkTcNBIA29mb5a85OSiU0BzuW0GwKxbVj/Vbk+EhHAwGgghZHvh85LwrlNOMAxRJo/IK5bcpv orCPYQBQAXel7KZxI4ePMQpQLIHmK5ifiPXyyBaGAcBKeC5yahTK3xsFNC+nwUGza215NvUbel28 ld36fXCkq6EAsBxmRs6NHBWlcqxxQHOzYwm8o1DcINYLIl/y+QGAZVga+Y/IOVEoJxkHoFgCyyqY 2R1kR0T2NAwA/sZ9kWFRKJ8wCkCxBJa3YH4u1osjmxoGQFN7KXJmFMobjQJ4N66xBJatteXp8vWX C1J+/WVnQwFoKnNSfonE56NUPmkcwLLYsQSWT6G4ccp3Lz9vGABN4b9Tvkv5ilEAiiVQ6YK5e6xX RXYxDICG9FjkpCiUDxoFsLw6GAGwQvIDjSGRf4+8biAADeP18uf2IUolsKLsWAIrr1BcI9azI6dE uhgIQF3KrqO/InJhFMq3jANQLIFqFcx+sV4WOdgwAOrKbyOnRqFsNQpAsQRqpWB+LOXXX+5gGAA1 bXTKr6P8o1EAleAaS6By8gOUgZHjI28YCEDNeaP8OXqgUglUkh1LoG0UimvHel7khOSZuQDVtjhy TeRbUSinGQegWAL1VjC3ifXKyL6GAVAVd0ZOjkI51igAxRKo94J5YLlgbmEYAO3iuXKhvNUogLbm 9DSgfbS2PJf6Db0u3pqR8udgdjUUgDYxM/KNyL9FqRxnHEB7sGMJtL9Ccf1YL4gc7fMQQMUsjdwQ OScK5WTjABRLoFkK5oBYr47saRgAq+S+yIlRKJ80CkCxBJq1YB4S66WRTQ0DYIW8FDk9CuVNRgFU k2ssgeprbRlTvv5yXsqvv+xsKADvaU6kGDk8SuUo4wCqzY4lUFsKxQ/GenHpYAmAd/PzyJlRKCca BaBYArx3wcx2LrPrL3cxDICSx1J+HeXDRgHUmg5GANSk/MBpcMpul5/SawYCNLHXyp8LByuVQK2y YwnUvkKxZ8qfyXZy8vxLoHnMj1wZ+XYUylnGASiWAJUpmH1jvTxysGEADe43kVOjUL5oFIBiCdA2 BXNorCMiOxgG0GBGR4ZFoWwxCqCeuMYSqD/5AddOkeMjUw0EaABTy5/TdlIqgXpkxxKob4XiWrF+ M/LVSCcDAerMosj3Sp/HRg6fbhyAYglQ3YK5dcpvcrGfYQB14o6U3ZRs5PBxRgEolgC1VTAPKBfM LQ0DqFHPlgvlbUYBNArXWAKNJT9Q2z5ld1NMaYaBADVkRvlz0/ZKJdBo7FgCjatQXD/W8yNHJ99I A6pnSeSGyLlRKCcbB6BYAtRnwRwQ61WRvQwDaGf3RE6KQvmkUQCKJUBjFMxDYr0k0scwgDY2PnJG FMqbjAJoBh2NAGgarS1jUr+hP4y35kYGR7oYClBhcyLfihwRpXKUcQDNwo4l0JwKxQ/G+p3IkYYB VMhPI1+PQjnRKADFEqC5CuaQlF9/OdgwgJX0SMqvo3zYKIBm5S6JQHPLDwR3ixwVedVAgBXwavlz x25KJdDs7FgCvK1Q7Jmy09jy58x1NRBgGeZHLk/Z6fQjh88yDgDFEuDdCmbfWC+N/IthAP/g15HT o1C+aBQAiiXA8hTMj8Y6IrKjYUDTeyoyLArln4wC4J+5xhJgWfIDyIGR4yJTDQSa0tTy54CBSiXA stmxBFgeheJasZ4XOSHSyUCg4S2KXJOyZ1KOHD7dOAAUS4BKFsytYr0ysr9hQMO6PXJyFMpnjAJA sQRoy4K5f7lgbmUY0DCeKRfK240CYMW4xhJgZeQHnjuUDkJTmmEgUNdmlP8u76BUAqwcO5YAq6pQ XC/W8yPHJN+wg3qyJHJ95NwolFOMA0CxBKiFgpk9luTqyF6GATXvnsiJUSifMgoAxRKgFgvmv8R6 WaSPYUDNGR85LQrlr40CoHI6GgFAhbW2jE39hl4Xb82NDIl0MRSoutkpe3RISkdEqRxtHACVZccS oC0Vir1jvShypGFA1fw0clYUyleNAkCxBKjngjk41hGRwYYB7eaRyLAolI8YBUDbcvdCgPaQH9ju lvKdS7sm0LZeLf9d202pBGgfdiwB2luh2CPWr0dOjXQzEKiYeZHLI9+JQjnbOAAUS4BmKJh9Yr00 8lnDgFX2q8jpUSjHGwWAYgnQjAUze+5ldv1lf8OAFTYq5ddR3mMUANXjGkuAassPiAdGjotMMRBY LlPKf2cGKpUA1WfHEqCWFIq9Yj0vckKks4HAP1kYuSZlz6QcOXyGcQAolgAsu2BuFesVkQMMA/7f bZFTolA+YxQAiiUAy18w9y8XzK0NgyY2rlwobzcKgNrkGkuAWpYfSO8QOTky3UBoMtPLr/0dlUqA 2mbHEqBeFIofiPX8yDGRjgZCA1scuT5ybhTKqcYBoFgCUPmCuWOsV0WGGgYNqCVyUhTKp4wCQLEE oO0L5mdivSzS1zBoAC9GTotCebNRANQfp1IB1KvWlrGp39Dr4q05kcGRLoZCHZoV+WbkyCiVo40D oD7ZsQRoBIVi71gvjBxlGNSRH0fOjkL5qlEAKJYA1E7B3DXWEZEhhkENezgyLArlo0YB0Bg8bgSg keQH6rtHjojYBaLWvFp+be6uVAI0FjuWAI2qUOwR65mR0yPdDIQqmhe5NHJxFMrZxgGgWAJQfwWz T+mAPqVDDYMq+GXKvsExcvh4owBQLAGo/4L5kZRffznAMGgHT6b8Osp7jQKg8bnGEqBZ5Af4gyLH RqYYCG1kSvk1NkipBGgediwBmlGh2CvWcyMnRjobCBWwMHJ15PwolDOMA0CxBKB5CuaWsV4ROdAw WAW3Rk6JQvmsUQAolgA0b8HcN9arIlsbBitgXOSkKJR3GgVAc3ONJQCpXAx2KJWElKYbCO9jevm1 soNSCUDGjiUAf69QXDfWCyLHRDoaCH9jceT6yDlRKN8wDgAUSwDer2BmO5jZ6bEfMwzCH1N+2uto owBAsQRgRQvmp1N+g5++htGUXkz5jXl+axQALItTnAB4b60t41K/odfGW7MjQyJdDKUpzIqcFzki SuXTxgHAe7FjCcDyKxQ3jPWiyBd8DWlYSyM/iZwVhfJ14wBAsQSgrQrmLrGOiOxmGA3lociwKJSP GQUAK8LjRgBYcXnx2CNyeGSigdS9ieWP5R5KJQArw44lAKumUOyestMmUzo90s1A6sq8yKUpO715 5PA5xgGAYglAtQvmprFeEjnUMOrCLyNnRKF8ySgAUCwBqLWCuWfKr7/cyTBq0hMpv47yPqMAoFJc YwlAZeWFZefIMZHJBlIzJpc/JjsrlQBUmh1LANpOobhmrOembIcspc4GUhULU76DfH4UypnGAYBi CUC9FswtYr088gnDaFe/j5wahfI5owBAsQSgUQrmvrFeEdnWMNrUmMgpUSjvNAoA2oNrLAFoP3nR 6Z/yU2OnGUjFTSvPtr9SCUB7smMJQHUUiuvGWox8OdLRQFbJ4sh1keFRKN8wDgAUSwCarWDukPLr L/c2jJVyd8qvoxxtFAAolgA0e8HcJ9aLIwMMY7k8GTkzCuVdRgFAtbnGEoDakBekgZGDI48byDI9 Xp7RQKUSgFphxxKA2lQo7pWyO5umdFDyjdAlkVtSdkfdkcPv8eIAQLEEgBUrmB+K9UuRoyJ9muy9 Hx/5ceQ/olBO8GIAQLEEgFUrmNnXrMGRQ8r5UIO+p1mBvKmcR6JQLvXBB0CxBIDKl8zs1Ng9Ivul /G6yg1L9ni6bneaaXTeZ3d31jsgDUSaX+CADoFgCQPsWzbVjHZq9FRkSyR5h0qlG/7SLItmjQR6O jIy0RJGc5oMIgGIJALVVNLvGumPKdzIHlYvmZpEPtPOfZGrkhXKRfLycp6JIzvdBAkCxBID6LJy9 Yt28XDL7lovmBpH1IuuWf94jkhXTzpHu//ArzIksjGTFcHa5OL4RmRKZVP75i+Uy+XwUyBmGDkAz +D8BBgDBLefdDxkILQAAAABJRU5ErkJggg== "
       id="image988"
       x="275.36813"
       y="208.67046" />
  </g>
  <style
     type="text/css"
     id="style1951">
	.st0{fill:#7289DA;}
</style>
</svg>
