<?xml version="1.0" encoding="UTF-8" standalone="no"?>
<svg
   xmlns:dc="http://purl.org/dc/elements/1.1/"
   xmlns:cc="http://creativecommons.org/ns#"
   xmlns:rdf="http://www.w3.org/1999/02/22-rdf-syntax-ns#"
   xmlns:svg="http://www.w3.org/2000/svg"
   xmlns="http://www.w3.org/2000/svg"
   xmlns:xlink="http://www.w3.org/1999/xlink"
   xmlns:sodipodi="http://sodipodi.sourceforge.net/DTD/sodipodi-0.dtd"
   xmlns:inkscape="http://www.inkscape.org/namespaces/inkscape"
   width="1280pt"
   height="720pt"
   viewBox="0 0 451.55557 254"
   version="1.1"
   id="svg8"
   inkscape:version="1.0.2 (e86c870879, 2021-01-15)"
   sodipodi:docname="thumbnail_078.svg"
   inkscape:export-filename="thumbnail_078.png"
   inkscape:export-xdpi="57.593498"
   inkscape:export-ydpi="57.593498">
  <defs
     id="defs2">
    <rect
       x="178.85125"
       y="137.41308"
       width="29.734019"
       height="21.066324"
       id="rect203" />
    <path
       sodipodi:nodetypes="czzc"
       inkscape:connector-curvature="0"
       id="path5167-5-3-6"
       d="m 165.68141,140.85891 c 8.75775,2.20625 -7.63349,52.69351 2.40542,59.60111 10.03891,6.9076 10.02941,-24.36935 19.24342,-17.6398 9.21401,6.72955 15.82865,43.17979 14.69981,64.9465"
       style="fill:none;stroke:#000000;stroke-width:1;stroke-linecap:butt;stroke-linejoin:miter;stroke-miterlimit:4;stroke-dasharray:none;stroke-opacity:1" />
    <clipPath
       id="clip1-3">
      <path
         inkscape:connector-curvature="0"
         id="path1008"
         d="M 0,340.15625 H 481.89062 V 0 H 0 Z m 0,0" />
    </clipPath>
    <clipPath
       id="clipPath8">
      <path
         inkscape:connector-curvature="0"
         d="M 76,2 V 48 H 54 V 71 H 35.580737 c -0.07818,0.665694 -0.141485,1.332869 -0.205737,2 -1.151162,12.530963 1.036422,24.087546 6.0625,33.96875 L 43.125,110 c 1.011403,1.81678 2.191241,3.52297 3.4375,5.1875 1.244725,1.66248 1.685716,2.58262 2.46875,3.6875 C 62.319911,133.81083 82.129473,141 105,141 155.64836,141 198.63299,118.56201 217.65625,68.15625 231.15302,69.54122 244.09968,66.080358 250,54.5625 240.60137,49.138835 228.52163,50.877226 221.5625,54.375 L 240,2 168,48 H 145 V 2 Z"
         id="path10" />
    </clipPath>
    <clipPath
       id="clipPath4558">
      <path
         inkscape:connector-curvature="0"
         d="M 76,2 V 48 H 54 V 71 H 35.580737 c -0.07818,0.665694 -0.141485,1.332869 -0.205737,2 -1.151162,12.530963 1.036422,24.087546 6.0625,33.96875 L 43.125,110 c 1.011403,1.81678 2.191241,3.52297 3.4375,5.1875 1.244725,1.66248 1.685716,2.58262 2.46875,3.6875 C 62.319911,133.81083 82.129473,141 105,141 155.64836,141 198.63299,118.56201 217.65625,68.15625 231.15302,69.54122 244.09968,66.080358 250,54.5625 240.60137,49.138835 228.52163,50.877226 221.5625,54.375 L 240,2 168,48 H 145 V 2 Z"
         id="path4556" />
    </clipPath>
    <clipPath
       id="clipPath4562">
      <path
         inkscape:connector-curvature="0"
         d="M 76,2 V 48 H 54 V 71 H 35.580737 c -0.07818,0.665694 -0.141485,1.332869 -0.205737,2 -1.151162,12.530963 1.036422,24.087546 6.0625,33.96875 L 43.125,110 c 1.011403,1.81678 2.191241,3.52297 3.4375,5.1875 1.244725,1.66248 1.685716,2.58262 2.46875,3.6875 C 62.319911,133.81083 82.129473,141 105,141 155.64836,141 198.63299,118.56201 217.65625,68.15625 231.15302,69.54122 244.09968,66.080358 250,54.5625 240.60137,49.138835 228.52163,50.877226 221.5625,54.375 L 240,2 168,48 H 145 V 2 Z"
         id="path4560" />
    </clipPath>
    <clipPath
       id="clipPath4566">
      <path
         inkscape:connector-curvature="0"
         d="M 76,2 V 48 H 54 V 71 H 35.580737 c -0.07818,0.665694 -0.141485,1.332869 -0.205737,2 -1.151162,12.530963 1.036422,24.087546 6.0625,33.96875 L 43.125,110 c 1.011403,1.81678 2.191241,3.52297 3.4375,5.1875 1.244725,1.66248 1.685716,2.58262 2.46875,3.6875 C 62.319911,133.81083 82.129473,141 105,141 155.64836,141 198.63299,118.56201 217.65625,68.15625 231.15302,69.54122 244.09968,66.080358 250,54.5625 240.60137,49.138835 228.52163,50.877226 221.5625,54.375 L 240,2 168,48 H 145 V 2 Z"
         id="path4564" />
    </clipPath>
    <clipPath
       id="clipPath4570">
      <path
         inkscape:connector-curvature="0"
         d="M 76,2 V 48 H 54 V 71 H 35.580737 c -0.07818,0.665694 -0.141485,1.332869 -0.205737,2 -1.151162,12.530963 1.036422,24.087546 6.0625,33.96875 L 43.125,110 c 1.011403,1.81678 2.191241,3.52297 3.4375,5.1875 1.244725,1.66248 1.685716,2.58262 2.46875,3.6875 C 62.319911,133.81083 82.129473,141 105,141 155.64836,141 198.63299,118.56201 217.65625,68.15625 231.15302,69.54122 244.09968,66.080358 250,54.5625 240.60137,49.138835 228.52163,50.877226 221.5625,54.375 L 240,2 168,48 H 145 V 2 Z"
         id="path4568" />
    </clipPath>
    <linearGradient
       id="linearGradient4702-3">
      <stop
         style="stop-color:#ff0000;stop-opacity:0.58431375;"
         offset="0"
         id="stop4704-1" />
      <stop
         style="stop-color:#ffcc00;stop-opacity:1;"
         offset="1"
         id="stop4706-8" />
    </linearGradient>
    <linearGradient
       id="linearGradient4696-5">
      <stop
         style="stop-color:#ffb638;stop-opacity:1;"
         offset="0"
         id="stop4698-6" />
      <stop
         style="stop-color:#f0ae26;stop-opacity:1;"
         offset="1"
         id="stop4700-2" />
    </linearGradient>
    <clipPath
       id="clip1-3-3">
      <path
         inkscape:connector-curvature="0"
         id="path1008-6"
         d="M 0,340.15625 H 481.89062 V 0 H 0 Z m 0,0" />
    </clipPath>
    <mask
       id="mask0"
       mask-type="alpha"
       maskUnits="userSpaceOnUse"
       x="0"
       y="0"
       width="256"
       height="256">
      <path
         style="clip-rule:evenodd;fill:#ffffff;fill-rule:evenodd"
         inkscape:connector-curvature="0"
         d="m 181.534,254.252 c 4.032,1.571 8.63,1.47 12.7,-0.488 l 52.706,-25.361 c 5.538,-2.665 9.06,-8.271 9.06,-14.42 V 42.0181 c 0,-6.1492 -3.522,-11.7543 -9.06,-14.4193 L 194.234,2.23681 c -5.341,-2.569942 -11.592,-1.940466 -16.279,1.46737 -0.67,0.48682 -1.308,1.03036 -1.906,1.62936 L 75.149,97.3862 31.1992,64.0247 C 27.1079,60.9191 21.3853,61.1735 17.5855,64.63 L 3.48936,77.4525 c -4.64789,4.228 -4.65322,11.5401 -0.01151,15.7749 L 41.5926,128 3.47785,162.773 c -4.64171,4.235 -4.63638,11.547 0.01151,15.775 L 17.5855,191.37 c 3.7998,3.457 9.5224,3.711 13.6137,0.606 l 43.9498,-33.362 100.9,92.053 c 1.596,1.597 3.47,2.8 5.485,3.585 z M 192.039,69.8853 115.479,128 l 76.56,58.115 z"
         id="path994" />
    </mask>
    <filter
       style="color-interpolation-filters:sRGB"
       id="filter0_d"
       x="-21.489599"
       y="40.522499"
       width="298.82199"
       height="236.149"
       filterUnits="userSpaceOnUse">
      <feFlood
         flood-opacity="0"
         result="BackgroundImageFix"
         id="feFlood1013" />
      <feColorMatrix
         in="SourceAlpha"
         type="matrix"
         values="0 0 0 0 0 0 0 0 0 0 0 0 0 0 0 0 0 0 127 0"
         id="feColorMatrix1015" />
      <feOffset
         id="feOffset1017" />
      <feGaussianBlur
         stdDeviation="10.6667"
         id="feGaussianBlur1019" />
      <feColorMatrix
         type="matrix"
         values="0 0 0 0 0 0 0 0 0 0 0 0 0 0 0 0 0 0 0.25 0"
         id="feColorMatrix1021" />
      <feBlend
         mode="overlay"
         in2="BackgroundImageFix"
         result="effect1_dropShadow"
         id="feBlend1023" />
      <feBlend
         mode="normal"
         in="SourceGraphic"
         in2="effect1_dropShadow"
         result="shape"
         id="feBlend1025" />
    </filter>
    <filter
       style="color-interpolation-filters:sRGB"
       id="filter1_d"
       x="154.66701"
       y="-20.6735"
       width="122.667"
       height="297.34698"
       filterUnits="userSpaceOnUse">
      <feFlood
         flood-opacity="0"
         result="BackgroundImageFix"
         id="feFlood1028" />
      <feColorMatrix
         in="SourceAlpha"
         type="matrix"
         values="0 0 0 0 0 0 0 0 0 0 0 0 0 0 0 0 0 0 127 0"
         id="feColorMatrix1030" />
      <feOffset
         id="feOffset1032" />
      <feGaussianBlur
         stdDeviation="10.6667"
         id="feGaussianBlur1034" />
      <feColorMatrix
         type="matrix"
         values="0 0 0 0 0 0 0 0 0 0 0 0 0 0 0 0 0 0 0.25 0"
         id="feColorMatrix1036" />
      <feBlend
         mode="overlay"
         in2="BackgroundImageFix"
         result="effect1_dropShadow"
         id="feBlend1038" />
      <feBlend
         mode="normal"
         in="SourceGraphic"
         in2="effect1_dropShadow"
         result="shape"
         id="feBlend1040" />
    </filter>
    <linearGradient
       id="paint0_linear"
       x1="127.844"
       y1="0.65998799"
       x2="127.844"
       y2="255.34"
       gradientUnits="userSpaceOnUse">
      <stop
         stop-color="white"
         id="stop1043" />
      <stop
         offset="1"
         stop-color="white"
         stop-opacity="0"
         id="stop1045" />
    </linearGradient>
    <clipPath
       id="clip1-3-3-3">
      <path
         inkscape:connector-curvature="0"
         id="path1008-6-6"
         d="M 0,340.15625 H 481.89062 V 0 H 0 Z m 0,0" />
    </clipPath>
  </defs>
  <sodipodi:namedview
     id="base"
     pagecolor="#ffffff"
     bordercolor="#666666"
     borderopacity="1.0"
     inkscape:pageopacity="0.0"
     inkscape:pageshadow="2"
     inkscape:zoom="0.7"
     inkscape:cx="555.78763"
     inkscape:cy="496.43607"
     inkscape:document-units="mm"
     inkscape:current-layer="layer1"
     showgrid="false"
     units="pt"
     showguides="true"
     inkscape:guide-bbox="true"
     inkscape:window-width="1205"
     inkscape:window-height="1029"
     inkscape:window-x="0"
     inkscape:window-y="24"
     inkscape:window-maximized="0"
     inkscape:pagecheckerboard="true"
     inkscape:document-rotation="0" />
  <metadata
     id="metadata5">
    <rdf:RDF>
      <cc:Work
         rdf:about="">
        <dc:format>image/svg+xml</dc:format>
        <dc:type
           rdf:resource="http://purl.org/dc/dcmitype/StillImage" />
        <dc:title />
      </cc:Work>
    </rdf:RDF>
  </metadata>
  <g
     inkscape:label="Calque 1"
     inkscape:groupmode="layer"
     id="layer1"
     transform="translate(0,-43.000005)">
    <rect
       style="fill:#ffffff;fill-opacity:1;stroke:none;stroke-width:0.94669914;stroke-miterlimit:4;stroke-dasharray:none;stroke-opacity:1"
       id="rect891"
       width="451.60654"
       height="254.14574"
       x="0.0023248347"
       y="42.995995" />
    <text
       xml:space="preserve"
       style="font-style:normal;font-weight:normal;font-size:10.5833px;line-height:1.25;font-family:sans-serif;letter-spacing:0px;word-spacing:0px;fill:#000000;fill-opacity:1;stroke:none;stroke-width:0.264583"
       x="9.0871811"
       y="70.889969"
       id="text230"><tspan
         sodipodi:role="line"
         id="tspan228"
         x="9.0871811"
         y="70.889969"
         style="font-style:italic;font-variant:normal;font-weight:normal;font-stretch:normal;font-size:22.5778px;font-family:'DejaVu Sans';-inkscape-font-specification:'DejaVu Sans';stroke-width:0.264583">tuto fonctionnel 78</tspan></text>
    <text
       xml:space="preserve"
       style="font-style:normal;font-weight:normal;font-size:10.5833px;line-height:1.25;font-family:sans-serif;text-align:center;letter-spacing:0px;word-spacing:0px;text-anchor:middle;fill:#000000;fill-opacity:1;stroke:none;stroke-width:0.264583"
       x="282.2988"
       y="113.89332"
       id="text234"
       inkscape:export-filename="thumbnail_41.png"
       inkscape:export-xdpi="72"
       inkscape:export-ydpi="72"><tspan
         sodipodi:role="line"
         x="282.2988"
         y="113.89332"
         style="font-style:normal;font-variant:normal;font-weight:bold;font-stretch:normal;font-size:22.5778px;font-family:'DejaVu Sans';-inkscape-font-specification:'DejaVu Sans Bold';text-align:center;text-anchor:middle;stroke-width:0.264583"
         id="tspan91">Getters/setters, </tspan><tspan
         sodipodi:role="line"
         x="282.2988"
         y="142.11557"
         style="font-style:normal;font-variant:normal;font-weight:bold;font-stretch:normal;font-size:22.5778px;font-family:'DejaVu Sans';-inkscape-font-specification:'DejaVu Sans Bold';text-align:center;text-anchor:middle;stroke-width:0.264583"
         id="tspan99">UFCS et lens </tspan><tspan
         sodipodi:role="line"
         x="282.2988"
         y="170.33781"
         style="font-style:normal;font-variant:normal;font-weight:bold;font-stretch:normal;font-size:22.5778px;font-family:'DejaVu Sans';-inkscape-font-specification:'DejaVu Sans Bold';text-align:center;text-anchor:middle;stroke-width:0.264583"
         id="tspan97">(Nim + Haskell)</tspan></text>
    <g
       transform="translate(3.3265185,22.356119)"
       id="layer1-6"
       inkscape:label="Calque 1">
      <g
         id="g1005"
         transform="rotate(-1.4139041,-2772.7956,-22.807463)">
        <ellipse
           id="path618"
           style="fill:#188a17;fill-opacity:1;stroke:#000000;stroke-width:1.03158987;stroke-miterlimit:4;stroke-dasharray:none;stroke-opacity:1"
           cy="204.13069"
           cx="60.581951"
           rx="44.654301"
           ry="41.961315"
           transform="matrix(0.93969262,-0.34202014,0,1,0,0)" />
        <path
           style="fill:none;stroke:#000000;stroke-width:1;stroke-linecap:butt;stroke-linejoin:miter;stroke-miterlimit:4;stroke-dasharray:none;stroke-opacity:1"
           d="m 83.655359,181.27231 c 8.01809,12.56167 -7.834319,53.36705 2.40543,57.46295 10.239741,4.0959 17.434311,-20.06297 24.856081,-15.76891 7.42176,4.29407 19.73209,31.75136 23.74112,68.36729"
           id="path5167"
           inkscape:connector-curvature="0"
           sodipodi:nodetypes="czzc" />
        <path
           style="fill:#e4b037;fill-opacity:1;stroke:none;stroke-width:0.26458332px;stroke-linecap:butt;stroke-linejoin:miter;stroke-opacity:1"
           d="m 83.655359,181.27231 c 5.329557,10.80172 -2.256648,34.96266 -1.164362,51.45181 2.355187,-3.99293 4.229975,-9.91384 8.543604,-12.27473 l 18.400639,1.52534 c 11.92386,7.83973 20.70982,38.87213 25.22275,69.35891 l -27.46963,-0.3864 c -1.44141,-18.06646 -1.10305,-41.22541 -8.23526,-59.62662 -5.546631,6.50744 -8.635629,7.68954 -11.297355,8.07228 l -12.662203,-0.28348 c -13.536594,-3.57681 3.267304,-40.90184 -4.153828,-60.26716 z"
           id="path5184"
           inkscape:connector-curvature="0"
           sodipodi:nodetypes="ccccccccccc" />
        <path
           style="fill:none;stroke:#000000;stroke-width:1;stroke-linecap:butt;stroke-linejoin:miter;stroke-miterlimit:4;stroke-dasharray:none;stroke-opacity:1"
           d="m 70.839714,178.84226 c 8.018085,12.56167 -7.834325,55.50521 2.405425,59.60111 10.23975,4.0959 11.77188,-20.01319 19.24342,-17.6398 7.471541,2.37339 15.768891,48.22756 14.699801,70.14367"
           id="path5167-5"
           inkscape:connector-curvature="0"
           sodipodi:nodetypes="czzc" />
        <text
           xml:space="preserve"
           style="font-style:normal;font-weight:normal;font-size:10.5833px;line-height:1.25;font-family:sans-serif;letter-spacing:0px;word-spacing:0px;fill:#000000;fill-opacity:1;stroke:none;stroke-width:0.264583"
           id="text5228"
           x="-90.336311"
           y="29.104166"
           transform="translate(-128.04817,17.497611)"><textPath
             xlink:href="#path5167-5-3"
             id="textPath5230"
             style="font-style:normal;font-variant:normal;font-weight:normal;font-stretch:normal;font-size:8.46667px;font-family:'DejaVu Sans Mono';-inkscape-font-specification:'DejaVu Sans Mono'"><tspan
               style="font-style:normal;font-variant:normal;font-weight:normal;font-stretch:normal;font-size:8.46667px;font-family:'DejaVu Sans Mono';-inkscape-font-specification:'DejaVu Sans Mono';stroke-width:0.264583"
               id="tspan5224"
               y="149.50342"
               x="22.300737">  = getLine  &gt;&gt;=   print.toUpper</tspan></textPath></text>
        <ellipse
           transform="matrix(0.93969262,-0.34202014,0,1,0,0)"
           ry="41.961315"
           rx="44.654301"
           cx="48.920635"
           cy="194.79691"
           style="fill:#188a17;fill-opacity:1;stroke:#000000;stroke-width:1.03158987;stroke-miterlimit:4;stroke-dasharray:none;stroke-opacity:1"
           id="ellipse5142" />
        <path
           style="fill:#55beff;fill-opacity:1;stroke:#000000;stroke-width:1;stroke-linecap:butt;stroke-linejoin:miter;stroke-miterlimit:4;stroke-dasharray:none;stroke-opacity:1"
           d="m 46.580184,169.20253 c 0,0 3.584168,-16.07383 -1.037477,-16.31343 -4.620296,-0.23951 -11.822284,8.6561 -11.822284,8.6561 0,0 7.181228,-13.61669 14.521908,-13.48354 9.176684,0.16646 4.66429,15.51714 4.269441,22.97196 -0.510268,9.63391 -2.059249,24.30368 2.465125,24.30369 4.524376,-1e-5 10.240251,-4.82745 10.240251,-4.82745 0,0 -5.641599,10.32074 -13.431335,10.48722 -7.789729,0.16646 -5.111095,-24.80308 -5.111095,-24.80308 l -21.46961,24.80306 -7.668561,-0.16645 z"
           id="path5115"
           inkscape:connector-curvature="0"
           sodipodi:nodetypes="cscssscccccc" />
      </g>
      <path
         sodipodi:nodetypes="czcc"
         inkscape:connector-curvature="0"
         id="path5167-5-3"
         d="m 201.09531,164.64129 c 10.64763,20.34911 -5.34664,41.15968 3.09652,54.1149 8.44316,12.95522 26.33325,-16.78101 26.33325,-16.78101 0.35282,8.71659 15.43326,38.10492 14.27598,71.73107"
         style="display:none;fill:none;stroke:#000000;stroke-width:1;stroke-linecap:butt;stroke-linejoin:miter;stroke-miterlimit:4;stroke-dasharray:none;stroke-opacity:1" />
    </g>
    <flowRoot
       xml:space="preserve"
       id="flowRoot1086"
       style="font-style:normal;font-weight:normal;font-size:40px;line-height:1.25;font-family:sans-serif;letter-spacing:0px;word-spacing:0px;fill:#000000;fill-opacity:1;stroke:none"><flowRegion
         id="flowRegion1088"><rect
           id="rect1090"
           width="29.226282"
           height="44.835529"
           x="1146.4677"
           y="512.46112" /></flowRegion><flowPara
         id="flowPara1092" /></flowRoot>
    <flowRoot
       xml:space="preserve"
       id="flowRoot1130"
       style="font-style:normal;font-weight:normal;font-size:40px;line-height:1.25;font-family:sans-serif;letter-spacing:0px;word-spacing:0px;fill:#000000;fill-opacity:1;stroke:none"><flowRegion
         id="flowRegion1132"><rect
           id="rect1134"
           width="737.41138"
           height="939.44183"
           x="-30.304577"
           y="101.37035" /></flowRegion><flowPara
         id="flowPara1136" /></flowRoot>
    <text
       xml:space="preserve"
       style="font-style:normal;font-weight:normal;font-size:10.5833px;line-height:1.25;font-family:sans-serif;letter-spacing:0px;word-spacing:0px;fill:#000000;fill-opacity:1;stroke:none;stroke-width:0.264583"
       x="204.19391"
       y="0.86537212"
       id="text1144" />
    <g
       id="surface0"
       transform="matrix(0.14432951,0,0,0.14432951,293.70064,197.72516)">
      <g
         id="g1021"
         clip-path="url(#clip1-3-3-3)"
         style="clip-rule:nonzero">
        <path
           id="path1013"
           d="M 0,340.15625 113.38672,170.07812 0,0 H 85.039062 L 198.42578,170.07812 85.039062,340.15625 Z m 0,0"
           style="fill:#453b61;fill-opacity:1;fill-rule:nonzero;stroke:none"
           inkscape:connector-curvature="0" />
        <path
           id="path1015"
           d="M 113.38672,340.15625 226.77344,170.07812 113.38672,0 h 85.03906 L 425.19531,340.15625 H 340.15625 L 269.29297,233.85937 198.42578,340.15625 Z m 0,0"
           style="fill:#5f5286;fill-opacity:1;fill-rule:nonzero;stroke:none"
           inkscape:connector-curvature="0" />
        <path
           id="path1017"
           d="m 387.40234,240.94531 -37.79297,-56.6914 132.28125,-0.004 v 56.69531 z m 0,0"
           style="fill:#8e508a;fill-opacity:1;fill-rule:nonzero;stroke:none"
           inkscape:connector-curvature="0" />
        <path
           id="path1019"
           d="m 330.71094,155.90625 -37.79688,-56.691406 188.97656,-0.0039 v 56.695316 z m 0,0"
           style="fill:#8e508a;fill-opacity:1;fill-rule:nonzero;stroke:none"
           inkscape:connector-curvature="0" />
      </g>
    </g>
    <image
       width="69.470245"
       height="52.67886"
       preserveAspectRatio="none"
       xlink:href="data:image/png;base64,iVBORw0KGgoAAAANSUhEUgAAAnkAAAHgCAYAAADZiHu3AAAABGdBTUEAALGPC/xhBQAAACBjSFJN AAB6JgAAgIQAAPoAAACA6AAAdTAAAOpgAAA6mAAAF3CculE8AAAABmJLR0QAAAAAAAD5Q7t/AAAA CXBIWXMAAC4jAAAuIwF4pT92AAAAB3RJTUUH4gsEBgYWyenYCgAAXBlJREFUeNrt3Xd4HNX59vHv GRXLXSsbU00ngOkl2CvT7JUpaSSkEBKSvOkVkhBCfimQQkghCSEkEEIJHRJ6b9bKuGllG1xxwwY3 uVtaybLVd877xxkFAy6Stbvacn+uay+Dq/TMzM69Z855DoiI5IF4LHJOPBZ5Ph6LjFM1RCQfeCqB iORBwCsHbgQ+BNwYj0XOUlVEJNcZlUBEclVj5cX4AxvHAX8HjtvhlxYDlxcVmOigMypVKBFRyBMR yRabY+eYQgonADcDR+/ktywDvl9QyEtDPhi1qpiI5Bo9rhWRnLM1dq5XSOFHgFt3EfAAjgJuSXRy 0ZZpEb0XikjO0UieiOSUxljE8+Fi4C/Awd34I2uAq/B5PDQ2mlAFRSRX6NOriOSMeGxcgQ+XADd1 M+ABjARuwuNzddMnFKiKIqKQJyKSQRpmjisE7zLcCN6BPfzj+wN/8jz/S42zzi9UNUUkF+hxrYhk vcbpE4p8z/9/wPXAPr34q7YA13j4dw0NT+pQZUUkm2kkT0Sy2tbpE4p9z34D+H0vAx7AcOB6H+/b dbFx/VRdEclmGskTkaxVPyNSYny+A/wCCCXxr24Afoc1fw+VV7aq0iKikCcikiYN1ZH+1vAD4P+A ISn4J5qAP1rP/LVsdGWzKi4iCnkiIilWH6sYaLBXAVcBg1L4T223cKOx9oZQedU2VV5EFPJERFIW 8CYMNvg/BX4A9E/DP9kC3Azmd6Fw5VYdARFRyBMRSbJ4dWQohmuB7wAlafyn24DbsPwqVB5t0JEQ EYU8EZFkBbyaSBmWXwHfBIr74EtoB+40xl5bOqaqTkdERBTyRER6qT42frjBXAd8FSjqwy+lA7gH +EUoHN2kIyMiCnkiInspXj1+X4z5PfAFIBN2o+gEHgT701C4ar2OkIgo5ImI9DTg1UQOwHID8Fkg k/aVTQCPAFeHwtFaHSkRUcgTEemmhtj4gy3mz8AnyczdeXzgKQs/KgtHV+qIiYhCnojIHsRjkSOA G4GPkNnbL1rgBeAHoXB0uY6ciCjkSTpvlqfh9vOsDIWjnaqIZP45W3E02L8B52XRe9REsN8PhasW 6whKFtwXCoFzsMRD5dHZqkju8lSCnL5ZlgDfA+4HfhiPRYaoKpLJGmIVo8DeCpyfZR9CJ4C5NR6L HK+jKJmsPlYxGLgCeAjD5fXV40tUFYU8yUbGng5cCAwHfgPcFK+uOEyFkQwdXTjRYv8JjM/Sb+Fc 4J/x2PiTdTQlI6+xmvEHG+xfgOuBEcCFxpgPqjI5HANUgty0Zfr44gLP3IxrHNvFB6YBP/cLTPWw Myp9VUoyJOCdBvwDGJMD385M4HuhcHSWjqxkgoZpE4wt8McE4e5s3r1S/faEtZcPL69qV6Vyj0by clShZ04BPrqT4302cJ+XsF+sq5mgYXrJhIA3GrgtRwIewBnAbfWxSFhHV/r8A3/1+H62wP88cB8w jve3IvpIoTGnqFK5SSN5ufiprXp8oTXmr7j5eLvSCPwTzF9D4Up17pe0s3YCDTX+WcDfgZNy8Fuc j+WKLWXe5KOOmagDLmlXX1Mx3Fj7A9xez6Hd/NZ/YPhhaIwW5+UajeTl4s3TmBOBi/bw24YCV4G9 PR6LnKCqSVo/iLz6IRpq/PG4EbyTcvTbPBHDbcPj/oS2KWfpA7WkVbxm/Chj7T+Bn+wh4AFcZDAn qmq5R288uXbznHlmgU30uwG4skcjDnANHi+ERuuTnKTW5rkRU9jC+cDfgA/kwbe8HPh+QaLfi0PO fMHqDJCUhrvpEwrw/AuA3wIn9+CP/tUWdFxVdsYUzdXOIRrJyzE20e844OIejzjAHfj8MFheL5IS W14/zxS28BHgljwJeABHArckCtouik87V++5kjJ11ZFBeP73gTt7GPAAPmESRWoBpJAnmWpT7BwD XAocuhd/fATwG4O9KR5TmxVJvvppE7yC9sQncatoD8+zb/9Q4O8UFHw6PnNcgc4GSbZ4TeQQz3Aj bgRvv708Ry+tmz1OT/gU8iQTFVF4DPCpXvwVJcCXwd4Tj0XOqp85QRe7JCfgVUcKTIF/CXATcHCe luEg4EYS3qXxWEWhzgpJhu2xcSZeEynH8m/gq0D/Xvx1nzJt3jGqqkKeZJhtM0YDXIJ7NNQbBtdm 5R6T8P9fvCbSX9WV3miIRQqN4TLgL8CBeV6OA4A/gf1SXWxCkc4O6Y14dUVJO97nsdyHayLe23v6 kQY+21itD/gKeZJROuygo4DPJPGvPBz4K5ZfxmORfVRh2aub0Ixziyx8BbgB2F8VAdyjtD94+F9t qBlXrHLI3qivrhiGsdcANwNHJPGv/oxvEkeqwgp5kiE2TL3QYPkUkOxh9qG4Vbp3xGMVarMiPdJQ PaEYv+CbwO9wcz7lHcOB6631vr21Znw/lUN69OEpFhlljL0d+DF7bo/SU0eD+fSWmvM0mqeQJ5mg X1H7obgFF6m4KIuAi8A+EI9FPlZXU6FJ47JHjbHz+lnjfw+4DhimiuxUGfDrhDVX1E/XJvHSjeuq ZlxBPBb5MPAArotCKh75G+DSApvQAjyFPOlrK9++AiyfBEal+J86EbjDs/bK+pqI2qzILtXNiPT3 SVwF/AooVUV2ayhwjfHM1fXTKzT/VXYpHosM8q13OXAXkOptyI4FLt468VQVXiFP+vQOsXHRwcDn eP9+hKng2qxY/toQixyq6sv7bkTTxw/wfP4P+CmgDwPdMxj4ifHszxuqKwaqHPL+gFdxCG7h0u+A fdPwTxYAn+scFDpE1VfIkz5lPw6ks4FlCfAVC/fFY5Fztk4/R/M2BICGWGQQnrkGN09IYaVnBgA/ ssZeq4bk0qV+0gUmHqsYC/Ye4Ov0rj1KTx1v4OM6Cgp50lef7moiBwKfJzXzMnbHAGcBdye8wv8X rx6vx0z5fi5WR4Za93j2h2m+EeWSEuD7Bvvrhtj4UpUjzz801URKTEnHF8DeC5xL+rchLQI+F6+O HKijoZAnfcHyUXq+dU0yHQbchDG/iddEtHoyX0cbYpEyDNcBlwNaKdo7/YDvWcz19TURLVjJ12uq OrKPtVxL8tuj9NTJGD6mI5K99Kgte98E9jWGx4GxGfDldAAvAteUDiqeb054UQcoX0YbqiPDreG3 uE772sUheTqBeyz252Xhqk0qR/6IxyLHA78BPkL6n9LsTDXYT4bCVRt0dLKPRvKyNZ0bPgycniFf ThHwMeCBhm3tFzXVjFeblfz4oLGfNfwJ+JoCXtIVAl82mD/FY+MPUDlyX+OM8QXx6ooPA/cDn8iQ gIe7z5gP6whlaVZQCbJPQ01kH2t5FDgnA7+8TcCfDfZfpeGqrTpaGTlSAAyGzm1Q4BlMVybvAOz7 PwcmLLRaS9EIKBlGaPQ/iMciBwF/BD6rD4sp5QOPgvlxKFy5Jj7je9BaBx2boMQYCkzwW977th7k A5uAhG8pHAQ0EQpHVdGMfE+vGGyt/RpwNW5HlEwzxWA+VRqu3KyjpZAnqb9JfwG4HTdROxO1AQ8C vwmFo6t0xFJjSyxS6Fk70BgzALc6c0BwTpS4FMeQHV4Dg5/vt8Pv6edeJngfsEW8vxVPO9COpR1D R3Bs23Erus9VwEtb0JsCzAeKgX5YijAUB///3q3REmA6gmNqg2PWBrRiaMXSGvz/dmDrDq8moDV4 NQPNFtvse2b78NHRTh2GlL2fHwr8HLgsg9/TW4FvhMLR+3XEFPIklZ/4YhXDLPa/QCTDv1QLTAX7 8wLPqx4yutLX0euexhnnGmu9gdaagUE4G4TbBusA3P6vI4L/Lw0C3OAdfhyAW91aEFzfO75E3nuN 7vhKAC1BwGt6T/iLA3XARmB98NoCbAO73WC2GfzmoeFJVmXtnq0zKryE75eDuR7XrSDTr9GowVxS Gq6s09FTyJPUfer7LPBvsqdNxdvA9Rj/odCYSa06gl3H8dxCbMEgDAPBDgb2A3MQMBI4NAh0w3Fb gg0LjndhEN40eiZ9xQ/CYGcQCOuC12YXAM06YA3YNRizFksc7Hbr221lY6s0Gtj1Qa5mXIlvvc8C 1wCHZ8mX3QL2y6Fw1X91BBXyJAUaqitKrbEPARdm24dW4HYDfy4NRzfmy/FaPy1CiUc/DAOAwWAO BHsIrvXMYcDBQajbB/eYphg3mUohTrKVxU3u7AhC4EagFlgNphbsarArMWYVvmnwrGkusqZtwJmv 5NEHvIoRYK8EvoXb1i6bvGiwl5aGqxp1qivkSdLfHCKfAO7DPb7LNp3A88A1oXB0QU4dlycisD+F vDMXbmTw6fwI4MjgNTL4tf7B79O1J/moLQh/W13wYznwFpjVYFcYwwprTQPGtDJ8QGfoyKdz7T38 eOA64MNkzurZntiG5Yuh8uiTOpUV8iSJGmLjB1nM/WT/NjPzgWs8678wtHxS1j2+iVefiecVF/rW 9LOwj3Fh7ijcht7H4h61luLmyJXozBXplvYg+MWBFcBiYGnw329jWYdbONKZjSuEG6dNKPAL/AuA 64GTsvxYPW2t/UJZeVWTTluFPEneJ8APAQ+RfcP7O7MR+JO15vay8sqMfqNomHqeSRT7/YxvDzAu wB0bvEkfg2t1MDw4JnrEKpJcFrfoow5YCywKPiQuA1aBWYOlJVRemdGLPYIP6N8ArsItnMp2jcDn Q+Ho8zpFFfIkCepjkQEG7gY+k0PfVivwH4P9TWm4akXGhOnqSCGGEbjHqx8ATghehwWhboiuG5E+ tS34oLgKWAjMAxaDqfV8s2Ho2IntGfN+UhM5GMsvcO1RcmlP50fB+3IoPHG7TkeFPOntG0Usch7w HyCUg5/UpwG/wCuYGhr9Slo/kW+c8VGvyG8eZrAHgDkUOBE4BTdiNxK3qlXXiEjmv4804Eb7VuJG ++YBS61lbYdXVL/vmJfS2sIpPvM8QyIxFvgtrj1Kro30x4HPhsLRV3T6KeRJ7z4J9sdyJ/C5HP42 VwC/wyQeCI15tTV1tawotr7dB8MhxgW604BRuHl1w3mnt5yIZLdOXB+/t3CPd+dhmY1hlTF2U+mY qpZU/cONsUg/3+0E80vcE4Bc9SDWfj1UnrpaikJe7oe8WGQc8EgQQnJZE3Ablr+EynvfZqUuNs4Y vMG4xREfAE4FjsPNqTsMt0JZe+yK5IeuRs+rcYs6ukb7FlvLJoO/NVQ+qdejfcGWk1cC3yY35k/v zhbgM6FwdJJOL4U82Qv1NZESY7kV+HIeffp+Efh5T9usNMwYV2ht4RCsHQn2RNw8ulHBawRuPowW R4gIuKbOrUA9sCQIfXPBzAdba/CahlLSbsLP9uQD+fHAb4CP4hqX54N7rOXbZeVRNbpXyJMefyqM Rc608Biwb5596/OBa4zhxdIx0Y73/uKm2NkUUlSMYYixHI5b7XoicDKunclQ1L5ERHqmFbdydJUL fMyx8Iax9k0wjYWJzrbBZ01+/4fx6opCY+z5uPl3J+dZzTYazKdLw5VTdfoo5EkPxGORYuDvwDfy tAQbgRutsbdtHz5o66AtzcX4dhjmfyteTwneUA/CLUgp0lkjIknUiVvQsR43p+81MIvw7BJg49Zh xe1D69oGW2u+BvyY3GiPsjduB3t5KFzVrlNGIU+6G/KqI6MxPJnHbxzg5tA8inuccipuPt1+QajT o1cRSSeLG+nbALwBzMb1y/wUMCCP67IOy8Wh8ugMnSIKedINW2LjCwswfwW+p2qIiEiGu8U33g+H jZnYoVJkFo2GZKBCzEnARaqEiIhkgYsKrH+iyqCQJ3vQOPU8z8Lncc14RUREMt1BFj6/dWqF2lIp 5Mnu+IWJE4BPqBIiIpJFLk4U2ONVBoU82YWGWWca4FLctloiIiLZ4hAMlzYtuFhz/RXyZGdsZ79j gU+qEiIikoU+1bmt8ViVQSFP3mPdyx8G+AxwpKohIiJZ6AgDl9gZH1MlFPJkR/2HtB4FXKJKiIhI trLwmQa/+ShVQiFPAtsnn2OATwNHqxoiIpLFjgb7mS2xszU3TyFPANqLCg/DLbjQRSEiItnMAJ8t oPAwlUIhL++ti50FhotxW3aJiIhku2PBfHLTJK0jVMjLc/0pPgT4HKAmkiIikgsKgEuLSxoOUSkU 8vLdRYAaSIqISC453sLHVQaFvLwVrxl/IG4LsyJVQ0REckgR8Ln66siBKoVCXn6y5qPAySqEiIjk oJONQU3zFPLyT3xGZF/gC0CxqiEiIjmoGLisoXr8fiqFQl5+8fkIcLoKISIiOex0a8yHVQaFvLwR j0X2QaN4IiKS+4qBLwb3PVHIywOWC4HRKoSIiOSB0cCFKoNCXs6LV0eGYfgiUKJqiIhIHugHfCle HRmmUijk5azWWNhguBAoVzVERCSPhDF8aHPsPG3fmUYqdjrC3fxP0LK96UCwnwe+BWhPPxERyTer gDsM3G+bC9aEIq9YlUQhL6vVxypKDfZjwHeA04BCVUVERPJUApgD3IaxT4bGVNWrJAp5WacuNr6/ hxmPG7kbBwxUVURERABoAaZYuMXHrxwentSikijkZbzNsQleAf5JBr4HXAyUqioiIiI71QA8A/Yf FPivh8541VdJFPIy80yNVYy02C8DXwEOUUVERES6ZQ1wr4G7SsPRlSqHQl7GqK+uGGKMvZh35t1p 1bKIiEjP+MBc4B/Ak6FwtEElUcjrMw3Tzy2ynjcazPeBDwEDVBUREZFeaQFeAXOT5zF96OjKDpVE IS9t4tPONrag6BADXwe+BByoqoiIiCTVeuAB4DYoWhEKv6SWKwp5qVVfExloLBcBVwInAwWqioiI SEokcI9wbzKWp0rLo9tUEoW8pItPr/CsZ08w8EPgk8AgVUVERCQttgFPWvgLnregbPRErcJVyEtS wItFyoDPA5cDR6kiIiIifWI58HeMfUCNlBXyeqVxZoXnJ+wZwE9wCyuKVRUREZE+1Q68BPzBKzAz hp5RqVE9hbyeaYhFhlv4Mq6p8cGqiIiISEZZDfzDYO8tDVdtUjkU8vaocfo4zzfeaAw/A85Do3ci IiKZqgOoBK7zPWYMGx3VqJ5C3s7FayJDsHwBuAo4VBURERHJCquAG8HcEwpXblU5FPLepaE6Msq6 0buLgf6qiIiISFZpAR7HmN+HxlQuUjkU8miIRYqt4UNYrsX1vVPwFRERyU4WmA/8xlrvubLyie0K eXmqPhYZbtx+s98D9tG1ISIikhPqgFsx/D00JrpZIS/PxGMVo8BeB3wUKNL1ICIiklM6gOeAX4bC 0QV5GfLi1ZGzDSwqLY9uyYtwN21cgSnwLrBwHXo8KyIikuvmAb8whhdLx0QT+fANN9RMCFnrjzLx WORVwAMewfCKtf5bZeFJOVmEeE1kAJZvAP8H7KvzXkREJC9sAv4A/r9C4UnNuRnszi2wtuBQ4ELc 9qu+icci/wS+hdsE+G3gRTCP+9bOGVYebcqZb766YoQ19qfAN4ABOt9FRETySgtwpzVcXzYmujFX vql4TcUg49sTreHjuCloRwEFwG0mHot8Fbh5h+BjgQZgGvAIxkzCmvWhcPZuBhyPRY4Bfgd8LPjG RUREJP8kgGeBn4XC0cVZm2tmRAzW7I+143Gt384ChvHOFLRm4AoTj40/BczTwMid/D2twGLgGTDP GsPC0jGVrVkT2V/5CK2DWsZg+BNwps5tERERAWLAVYUFVA8+I5o1X3RD9bh+1pijwXwUuAg4ASjZ yW9dA1xk4rFIKfAUcM5u/l4fWI/bOuQxLNM96zcMHTvJZmohGmvOM75NfAi4ARil81lERER2sBj4 cXFR+wsDT5+asXmmaeaH6Ey0lWIZi3skex5wILt/MjnFuJBXUQj2T8APuvnvbQXmAE+AedHgrSgN v9KZSQXZUj2hoMD4nwoC3sE6j0VERGQnVgE/sX7hY2VjX86oRaf1U8cXmEJzCHA+7pHsGcCQbv7x m6DgxwYgHot8CbiLns1XSwBvAS+DedwaM6tszMQ+X7ESj00oBP+LwPXAfjp/RUREZDc2AT83hntL x0Q7+vqLaZwW6e8X2FPAfAL4MHAkPevnmwC+GgpH7y0MfmIxsLmHoagA+IB72UuNtTXxWORRA9GB bZ3ris6dnPahz3jN+H5Y/xvAr4AynbciIiKyByOAG6xlUEN15LbS8mja1x7YzVfT+Nbs/ay143z4 NJixwde1NzYHuc6twmiYHimzHi8Dp/fy62wHFgLPgnnKGBana6FGQ2z8AIv5PvBTYLDOWREREemB bcAfwN4UCldtT8c/GI+NK8Z6R2P4GLtfSNETr/lw/rBwtL4QwPfYalxH6N6GvGLgFOBksF+zlmg8 VvGob22s2RRsGRl+JUVFigy08GPcSz3wREREpKcGAT8HU1Ifi/yxLBzdlop/pPmlMbQNGVQG9gzg 0xgqcB1OkrUD17wCa7ey418Yj0W+BfwzBd/PduB14EkDL1i8t0PhiUlbqNFQExlkLVcDP1LAExER kV5qAW4E/hgKJ29TiPiMSAHWHIK1F+B2pPggqXny+O1QOHrbe0Pe2cCTpG4uWyewEngBzFMG+1ph UVHToNNf2vuC1UQGY/k/3MpgBTwRERFJVtD7q4E/lPYi6LVPPIvmQYUDLd7J8L8dKQ6nZwspeqIe +EQoHJ3yrpBXH4scYOBF4MQUF84GX8Q04DGDrcKyobS8qkc7ajTUjB9srfk5cAXQX+ejiIiIJDno 3Yzxrw+NmdSjoNc443zj+537AeODcHcOMJzkPZLdlfnABaFwdD1A4Q6/sAlYkoaQZ3Bbb1wEnGcx izE8G49VPGOs90Zp+Svte4ypschAa/mpAp6IiIikSH/gCqxHPDb+t6Fw1R7n6NVPG19kCsyxvt/5 4SDcnZDmnLLEWjbvGLj+Jx6LXAX8qQ8KaYF1QBXwKJ6ZVtdh40ee+f6tRhpqIgOCgHclekQrIiIi qdUC3ARcHwpH37fq9mUsY6ZXDPE9yoFPAROAgwCvD77WH4fC0T/vKuRNwG1x1pfhqYn/7ajBi4UJ /63BZ05KAMSrIwMw/B9aZCEiIiLpDXo3Wvh9WRD0ts7+iJdobz0Ua8/HLaQ4HRjah19jM9iPh8JV E3cV8o4AngOOyYCCdu2o8QrWPGKNXWrgO8DV6BGtiIiIpD/o3WDhVmM5CsPFwAW4jSEKM+DrWwx8 JBSOvt31E+/6ogp8ahMeyzMk5L2zo4axnzUu8B2ngCciIiJ9oD/wIwMXYDgCt5Aik7xV4LN2x594 1/PiIWOjbbhHpZlmODAa16hQREREpC8MCvLI8Az82mYHOW7nIS8wC7c9mYiIiIhkvnbgtff+5PtC nsUsx610FREREZHMtw5YvseQZwy1wDLVS0RERCQrLANbu8eQFxpT2QS8oXqJiIiIZIU3QuGqpj2G vIDm5YmIiIhkvvYgt9HdkPcGEFfdRERERDJaHFjYk5C3HliquomIiIhktKUWu67bIa/d718HLFLd RERERDLaorZD+9Xt7Bd2ug3HvmOfs/FYZA7QARSpfiLSx3zcVoc7/rjjy+7wY9d/d+n6ufcyvLO1 o9nh5b3nvwuCH70d/r+A92wLKSLSBzrAzNl//xdtt0NeYA7QBJSphiLSSzYIZ+99tQFbg/eapuC/ twLbcPtENgev7WCaLbbVQJuBNuv+bNerE2wHmE6M6cD6nVjrBznMYkz7e4KeAYqxvgtqxvMwpghr izC20FhTZN37Yz+gBOiHpR+GfsCAHV4DcVsdDQQGA0OCV9d/DwzeZwt2+LErNIqI9FYT2F3uVLa7 kLcGWKGQJyJ78N7Q1gjU4yYDx4EtwKbgxwZraTSGRqxtwJhtGNrxaQc6LLR7mPbCoqKOgQz0zQcf y/hvftui80xnU2eBtRRba4qNe/pRDBRjKMEy1FpKjWEoMDR4Tx0BhILXsODHsiAY7hgGNVooIruz IshrPQ15fh14C4DTVEORvNY1CtcehLbNwWsdsBbYEIS4jRbiJhh9M5YW69HcUdzRNuLUKTZXizNo 1CsW6Axezd39c5umVnjFhX6JxRsIDAA7AGwpmBHAvsHrgCAQDsPtlTkiCIqFaDRQRGCBy2s9DHmh 8KSOeCwyDze3RW8mIrmvE6gLAltdEOTWAKuD1yYsjWAbjbEN7a2JbSPG5W54S7URZ1X6vPM4epe2 zIgUFFozxEIpllLwh4M5CDg4eI3cIQAOxz1iFpHc5wPzQuFJHT0OeY6ZC3YrUKpaiuSMZtyIXB1u FO5t4E1gOZj1Fn+T9UwdtqC5/8xmO+CKaapYHxo+OprgnUff77Lm5XGUDDElhZgyNwJoRwTB7wjg SOAQ3Chg16NgfWAXyR2NLqft2h5CHm/iHsko5Ilkn/YdwtxyYHEQ5NYCG8Ffh+/VW0PnVm+If+iY J1SxLDPy/EkArcH79P/6ZG2uOd8UdnYW4NnBGG8/YD+wBwfBb1QQAofj5gIOUCVFstJ6sG/2IuT5 cTALgjcFEclMFjc614gbmXsTWAp2KZgVYFbj27pEoe0YPrrKV7ly3z5jXu6aJ9g1ArgYYPOsiCns pMhahhjDSNxI3weAY4GjgQODD/WD0KifSKabzx52J9vjyq14LPJ/wO9VS5GM0dV2ZDVuK5sFYN4G uxxLrTWm2fheW2jsK5ovJ3u0ac4FFLV2Fhtsf+vm9R0VBL9jgBOAw3GLPUrQal+RTPLTUDj6h939 hsJu/CULghvKENVTJO0SuH5xm3CjMYuC1wIX8kxTEQWtg8Ivq1KyV0ac8hK4R/vtuNHgZcAL9bFI ETDYYPYHe3wQ+EYFr/1xj3kLVUGRPrHVuvsAvQt51izC2M0KeSJpC3VbgxvtItxI3TzcnLo63/Oa ho2eqBE6SbmycLQD1++wHli4ae7ZjxQ2Fw0whmFgDgN7EnAScDxu9G+wQp9I2mw23dh+ds8XpLGb gKW4iboiklwWN3ryFvAG8JrBvAZ2pcHfMjQ8qVMlkkww4uQpFtgevFYDk+MzxhViveHAgWBOwdow bqTvA7i5fZrXJ5IaS8Bs6nXI29zf375Pi/c68CHVVCQp6oNQtwiYBcwGs8rAxtJwZULlkWwRGj2p E7fYZwPwet2sc//tJQqHY+2hGE7EmnKwJ+Lm9YVUMZGkeX1dR9H2Pf2mbk2ijccinwQewE28FZGe aQNqcfMnpliYCXZZkenYMnjMVK12lZy1bdp4r7PAjLCudcupwFm4R7wjdT8R2WutwGWhcPTxPf3G bs6fsIvBbMQttxeR3fNx+7S+BcwEphnsAgsr168taRv1qRdUIckLg86s8glG+n7z1M3TLt/v2dsM 9mBr7QlAORDGBcB90KNdke7aSNAWaU+6N5JXExmE5VngXNVWZJefrGpxj1+rgdlgF9kETWVnVukR rMh71MUmeAXYwRaOxdgPYjkLN9p3ANBfFRLZpVex9qOh8qpte/qN3RrJM9ZrtvizFfJE3qVrAvo0 MFMsxDB+bfHgzrZBx01RdUR2Y1h4oo9bdFRTF7ugxtBxh8EeCGY0cA5wJm6LtoGoP5/Ijl43xjR3 K79192+MxyKfB+4FClRfyVMW2IbbUWK6+zTFa3h2Y2hMVbvKI5Ic8eqKYmvsCAOnAeNwj3aPwe3E ocAn+SwBfCkUjj7Ynd/c/Z5GliUYNuKG0kXyKdg14baPmQZMNjAX324pHVul9iYiKRAqr2zHTX+o bYhVPIdhH2s5Aex43Cjf8Qp8kqc2Aku6+5u7HfI87Ns+Zo1CnuSJFlyLkynAi2DneNi6oeFJakQs kkZBW6ENwIaG2PioxQwHTgQuBM4GjkNz+CR/rPGMfTvpIc83NOJaQIxWjSVHteN2lpgMvIjhdd9P rB9W/qqCnUhGBL4qH7fFX2X9zAlROv39MJxmXOA7B7fzRrEqJTlsvu/bxu7+5h4Ndcdjka8Dt6vG kkM6gZXADOB5IFbQWbR6yFkvqX+dSJaon1nhmYQdCZwBfBjXj+8QNIdccs/XQ+Hond39zT3dZ3Ah rlt/meosWa4OeB142mAqMbxdOqZSc+xEslDZGZU+sApY1TAj8qS1HInlXOBjQfArQ/P3JAc+z9CN /Wp7E/JW4EY9FPIkG7UCy4BXDPZZrJld0NneNPjsqaqMSI4oHR3tBJasnxJZUlLAg3icClyA25rz KDR/T7LXSjArUhbyOk3nxkJbuBTXsFIkGyRwq5GqwTwHtgrfW1c6dqIaFIvksP3PjoJbGT+5vnrC NA//Fms4B/gIbv7eCPQ4V7LL0kRB4aae/IEeD1/HY5ErgT+joW/JbG24bV+exPIs1iwNja1sVllE 8ltDrKK/xY4Kwt5HcatztY+uZDoL/CgUjv61J3+ocC/+oTlAM64LuUjGvYfjGhU/BqbS87x1Q0e/ okUUIgJAabiyBXi9MTZutsXcaTER4GLcYo0QGsCQzNQMzO3pH9qbkLcSN8F1lGouGcLHbS/2MvAo xrwWGlPZqLKIyK4EPS/XAvfVxyqeMHAq2E/j5u8dDniqkmSQlWBXpjzk+cau86xZqpAnGaAt+GTz JJjnsCwNlWuFrIj0TFm4chswpSE2odpi/wH2I8AngVPQo1zJDMus763r6R/aq2HpeCzyS+BXqrn0 kW1ADfCAgZeGNp++0UT+qKqISNLEayaMwPoVwOeAsUCpqiJ9xAK/DoWjv+7pHyzcy39vFphWfcKR NKsDJoF5CMurofLKuPvpqCojIkkVGjNxE/BQPDb+WTDlwGXAebhVuSLp1AbM2ps/uJchzywD1gOH qfaShk8w64EXgQetsTPKxkS1SlZE0hP2wlVNwMsN1RWTrbGn4Ub2PgIchObtSXqsx/V4TVvI2wB2 iUKepDjcrQSeAB7B2nmh8qo2lUVE+kJpeWUrML2hZvwsLLdbzGeAT+MWaajfnqTSYgwb9iqt7e2/ GI9F/ghcrdpLCsLdauAxA/fhm0WlY7WYQkQyS111pNAzHAl8NngdhUb2JDVuCIWjP9mbP1jYi390 Nm6bKM3Lk2SFuzXA48B9BhaWhqMdKouIZKJh5W77tPpYxXUG+zBwafA6UmFPkqg1yFt7Ze9DnmUB hjiwv46B9FIt8JiF+4xhQWhMVCN3IpIVysKVCWBpfU3Fdcbah3Fz9j6rsCdJEgcWpD/kuefDSxXy pBfWAY+Dvdf6dl7Z2EkKdyKSnWFvzP/C3q+NtQ8FYe/zuDl72kVD9tYS2Lv5eL0Kef1ahsTb+m+d D5yrYyA9VAc8C/wrgf/a8LDCnYjkTNjzgaUNsYpfW3gE7JeBS3CrcUV6akFxmxff2z/cq08X8Vjk K8A/gWIdB+mG7UAlcCuWKaHyaKtKIiK5rGnmBYWdiY5TgW8DHwWGqSrSTe1gvx0KV/17b/+Cwl5+ AfOARmAfHQvZjTYgZuBfWPtCaXnVVpVERPLB4DNe6gRm1sfGzwfzsIFvAhOAwaqO7EEjeHN78xf0 NuStwvUyU8iTnUkEHwTuspbHhw4q2eid+LyqIiJ5pyxc1Qq8Uh+riBnsBcB3gDDQT9WRXVgJdnVv /oJerfzx8RtxG8SLvNc64AYMnzLW/LOsPKqAJyIKe+HKpn5+yaPG2EtwvWYX41pIibzXXN/S2Ju/ oNcrfuI1ke9iuRktFRdnO24Lsr/hmxmhsZXqdScishP1088zxkscA3wDtxJXT8Wkiw9cEQpHb+nN X1LY6y/DsgDXx0WTSfNbAngd+JvFPFsWrmxSSUREdq1s7CsWWByvjvwEY58F80OgAm0yIBC3veiP l8SQZ5Zi7HqFvLy2Bvg3cFcoHF2jcoiIdF+oPNoOVMWrK2Zj7CeAy4GT0BOyfLYe7Ju9/UuScALZ RmC+jkdeagYeBfPphM91CngiIr0Je5UNoXD0buCTwJ+BTapK3ppv8Br6POQFvc5m63jkFYubLPwD i/lqKFw5Y/jYaEJlERFJQtgLR1cY7C+Ay3C9RTW3Of/MDoUre91LtjBJX8wbuH55Q3Vcct5W4DGD +Qt+5+LQ2Fe1KkxEJMlKw1UdwMR4LDIf+H+4lisHqzJ5oTHIVb2WrOf9S4CNOi45zQfmgPmWsd7l peHKRaUKeCIiKRUKRzda7J/BXgI8BrSoKjlvI5YlGRPyrAt4S3VcclYc+Lu19tOmpPDh0vKJzSqJ iEh6lIWrEqFwVY2BrwNXAstUlZy21BqTlIGzpIS8UAetwGs6LjnH4ppdfyth+ElZedVbpae8pKqI iPSB0nC0AQpuB3MJ8Cig/b9z06yh8SOTcmxNsr6ieCzyMeC/qL9PrmgBHgH7h3bbuWTf8imqiIhI hojHxofAfAn4AXCIKpIzWoFLQuHoM8n4y5LYg8cuw21lJdnvLeAHGC4PhasU8EREMkwoXBVP4N0M 5jLgJbQCN1esA95M1l+WtJBnrFkFrNDxyWodwNMWLi0u6LwjNCaqXStERDLU8PBEPxSunGbhi8D1 aAFkLlhhsKszLuR1+iUtqF9eNtsAXGsxXy0LR2cNPGOyVs6KiGSBsnB0c6HheuBLQAzXDUGy0+yO guKkraBOWsgbfubzFrf4Qk1xs4vF7Tn7Vd/6fyoLV9apJCIi2WXwmGhnKBx92WI/B9wObFdVsk4C zGv7nPFS0gZZkr0v3pu4ESHJDi3A/QY+n8C+MKx8kgK6iEgWKwtXrTSGqzD8GFilimSVDcnYrzZl Ic9auxLNy8sWm4FfY80VpeHo0uHhKlVERCQHlI6Jbi9q9/6Fe3w7FffERjLfCmtZmbEhb3Djogaw C3WcMt4C4Ov49sZQeWWjyiEiklsGnT3RD4Wjk61rs/JvtFNGNnhjqD+kIWNDXtGFGwAzE036zFQ+ 8DyWy0Lh6NOhsVVaci8iksPKwpUrrLE/BK4FNqkiGX1/nlVw5pNJ/Uu9FHyhbwANOl4ZpwW4DezX Q+XR+SqHiEieBL0xVU22gJuAbwKLVJGM1BDkp4wPeatxzXQlc2wCfoHnXR0KV61XOURE8izonRHt DIWjTwXNk19B8/QyzXIwq5P9lyY95PmFnZuAxTpemXTi8N0Ca/4WGj1RS+pFRPJYKFw5x2C+BtwN tKkiGWOpX9yR9MfpSQ95wz442cc1RVY7jr5lcU0xvzLQ8PiQ8kodDxERoTRcucZY/0fAH9D0qkyQ AF4fdtrkpK9nSMXjWgx2NtCs49ZnfOA54KuhcHRq8ZiohuVFROSdoFc+qSEIeT8G1qoifarZwJxU /MUpCXnW7WOrJox9owO4D/hOKBzVY3MREdmpUDjaajx7N/BtYKkq0mdWWZLbHy+lIQ/P24jm5fWF FuBmrP1RKBytVTlERGR3SkdXJULh6LNYvobbmlTSbxEUbMyakBcaM7ENmIdW76RTE/B7i702VF5V r3KIiEi379vl0WnAV4FKVSOtLDA/FH4lJYtgvBR+4a+jeXnpEgd+aTzvhrJwlWouIiI9D3rh6Hzg W8BTaFODdGkO8lJKpCzkGfd8f4OOX8ptBK62eP8oHT1Ry+FFRKQ3Qe8t4HvAQ6hLRjpsMCmcD5my kGdhC6B9bFNrPfBj3+PusvBEbVEmIiLJCHprwV4J3IVbzCeps9DHbsm6kBcKR5uABTp+KbMGuNJ6 PDRsdFSftkREJIn38KrNxtqfAf8C2lWRlFlQFq5qyrqQF5iL5uWlQi1wpbX+I2UKeCIikgKl5VV1 Fq4BblHQS4nmICelTIpDnlkAaKVncq0DrsL4T5SVT9LEWBERSZmycLQBY3+toJcS9UFOytKQZ+1G 1GAxmTYAP/aNfSw0RgFPRERSLzSmqhFjfwX8E83RS6alYDem8h9IacgrHWC3dibs3ISvdnlJUAf8 1Pe9/w4bU6VHtCIiks6gt9X6/Aq4E+hURXon4Vs6E3ZuaT/TmLUhz5xc5ce3dsxfUdvSbpXzeqMB uNaDB4aNnaiAJyIiaVc2NtpgMNcA96M+envNWli5tqU9vrVjvjm1MqXpKNULLxg8oPD1pSu2165a 34LnGR3dntsG/A7DHUPDUX16EhGRPlMarqwz8DPgEbSrVc9Dl2dYvb6FJW9vrx00oPD1lP97qf4H 9jvnlCVbt3c+URmro6NDwb+H2oCbjfX+ERoT1TwIERHJgKAX3QD8BHhB1eiZjg6fypo6mrZ3PrH/ OSenfM1CykOeMTcmDty3331TX4+vnLNkKwUazeuuBHC3B38qLZ/YonKIiEimCIWjq7FcBUxRNbqn wDPMWdLE1NfjKw/Yt+R+Y/6a8qdzXjq+sY99d/zCjVvaHr/v6XVsb01glPO64ylj+dXQcLRBpRAR kYwLeuXRJcBVwHxVY/eMgebWBPc9vZaNW9qf+Nh3x6VlRzAvPd/cX/zmVv+xaE3dxkkz6vCU8vZk KvDT0vLoRpVCREQyNuiFo7OAq4FVqsZuwpYxTJpZT3RG3caWdv9RY/6SlkWUXrq+wY4Of86m+vbq u55Yy5aGdo3m7dpi4OpQOLpMpRARkUzXlih4BfgFEFc13s8Y2NLQzl2P17Kprr26o8Ofk7Zwma5/ aMnK7W0Jn2emzY53PjNpk476zm0BfhEKR2tUChERyQb7nfmKBftf4M9Aqyryfs++upmps+OJhM8z i97a1pZzIc+x09va/bf//cRaVq5tQWsw3qUF+IPnmWdUChERySahcFUH1vwduA+1VnknZBlYta6V ux6vpa3dfwvs9LT++2mNeJa3gelvLGvigefW05nQedBVGuBeC7cNHV2pXngiIpJ9Qa+8sgnsdUCl quF0+pYHn1vHgmVNANODHJSbIQ/XFuR539L23xfXM3dpkxokO5Ms/K4sHN2uUoiISNYGvXBVLZif A0vyvRaeZ5i3pImHX1iPtbQBzwc5KGdDHsAsYOmaDa38+4m1NLfkfUuV5cAvysLRNXp7EBGR7A96 lbOAX+L2XM9LxkBzS4K7nljLmg2tAEuD/JPeoNkH3/saguaJz0/exKuz6jH5m/KagOsTrQVaaCEi IrkTcjBPArcAeblbkzGGybPqeX7y/xaaTgnyT86HPIvbCmV7Q1Mntz+2hi3xvGyp4gP3AP8dPu4V TU4UEZGcURqu7MDyD/Jw6zNjYEu8ndsfq6WhqRNge1CHtN/rvT6qwRzgDYDqOQ08XZWXLVWmg70x FI5qyzIREck5ofLoZgPXkWfz8wzwzKRNTJ/zv7aBbwS5J+36KuRtACYBtLX73P1U0FIlfxZhbAR+ GwpXrdTbgIiI5KqhC497HfgDsC0fvl/PM6xY28LdT66lrd3v+ulJQe7Jm5AH8DLQAJBnLVU6gVv9 Ai+qy19ERHKZ+drNgHkUeCgfvt9EwvLgc+u7WqYQ5JyX+yx09mEt5hMMX1oLD7+wnrmLt1KQ+6N5 Vcbyr2FnTEzo8hcRkVwXClc2Y7gBeD2Xv88CzzB3ydaulild5gR5J+9CXj2uYaIFWLuxlbueqKW5 NadbqmzA8ofS8uhGXfYiIpI3QW9M9C3gj0BjLn5/BmhuTXDXE7XUbvzfzm42yDn1+RjyCL75zV3/ 8/yUzbw6qx4vN1OeD9zpG3+KLncREck3xthngf/k4vfmeYZXZ9Xz3OTNO/70Zvp494++DnmL2aE5 YGNTJ7c/Wsvm3GypUoMx/xoWnqTHtCIikndKx1S1AjcRdNfInfAKWxraueOxWhqb3rUz6awg5+Rt yGsCXmGHbT6mz4nzzKSca6myFctfQ2Mqa3WZi4hIvgqFo0uAvwOtufR9PTNpE9Nmx3f8qUSQb5ry OeQBvAqs6/qftnafu58MWqrkzmjekwb7oi5vERHJd9baR4MAlPU8A6vWva9lCkGumdTnX18G1GgZ ENvxJ95Y1sSDz+dMS5WVwC2l5VXbdWmLiEi+KyuvigN/w/WMzWqdCVzLlDffN2AXw+1Nn/chrwXX Q+Z/+9v5XS1VljRle4NkH7jPM3a2LmsREZH/xY9pZPkiDM8zzFvqWqb47x6T6ghyTZ/vaOVlSK2m Aqt2/InaDUFLlZasbqky31juHTqmSostREREAqHwxHbgDrJ0yzNj3mmZsmbD+6YXrgpyTd8H0Qyp 18qdFaSrpYrJzpTXDtxRWh59W5eziIjIuxUVFS8C7sHtBJVVPGOYPLOe59/dMqXL1CDXKOQFOoAX gbYdf7KxqZM7HqtlS3a2VJkJPKHLWERE5P0Gnf6ixZr/APOy6es2BjbH27n9sVoamt6XT9uCPNOh kPduM3CLMN5l2uw4T0WzrqVKK/DvUDi6QZexiIjIzoXKK1fhRvPas+nrfrpqE9Pf3TKly7Igz2SE TAp5tbh2Ku/S3uFzz1NrWbG2JZsWYczA8JwuXxERkT16AsiKBYqeZ1i5toW7n1pLW4e/s9/yapBn FPLewwdeAt7XauSN5U08+FzWtFRpB+4PjYlu1nUrIiKye6FwdB3wAFkwN68zYXnwufW8sWynPY63 BznGV8jbudeBRe/9SWvhPy+sZ+6SrRRk/mjebOB5XbYiIiLd9gwZPjevwDPMW+JaptidjzktDnJM xsi0kLcBqNrZL9RubOXOx2tpbs3olio+mIc1F09ERKT7QuHoGuBhICMf2b3TMmUttRt3uSNbNMgx Cnm78RLQuLNfeCFoqeJlbspbAlZz8URERHruGeDNTPzCPGOYPKue5ybvciHoVlwD5Mz6ujOwlgvY xZBtY1Mntz9ay5aGjG2p8tSqlqPVF09ERKTHipcHQS+jGANbGtq5/dFaGpt2OW1wLjBfIW/P6oBK djFkO31OxrZUWQ88efL4W3WdioiI9FAo/KK1bqVtxt3kn67axLQ58V39sg1yS51CXve8sqtitbX7 3N3VUiWzRvOmYHlDl6mIiMjeMZ6ZT4ZsCQbgGVzLlCfX0ta+y0WzdUFuyTiZGvIWA7N29YsLlzXx 0PMZ1VKlFXgqVB5t1SUqIiKyd0KjK5uBJ3nPDlh9pTNheej5XbZM6fIaGboHb6aGvK3ARCCxs1/0 g5Yq85Y2ZUqD5MXANF2eIiIivTYlE0KT5xnmLW3i4RfW4+96TCmBG8VrVMjrmSiwcVe/uGZD0FKl JSNaqlQ1bm1fq+tSRESkd3x/YC27aKeWLju2TFmzYbcP6Tb29dearSHvLaB6d7/h+cxoqdIIvHjo +VOtLk0REZHeGTb2GQu8iHuq1zfhyBgmz6zn+cl7XANSjduvViGvh7bjhkB3uWlxY1MndzxWy+Z4 +lqqGOOGcAs8g+cZPGPme5h5uixFRESSda+1cz2PBTveb9N5n98cb+eOx2ppaNrtTmvtQU5pVsjb O5PZw0a/02bHeboqdautDW51TUFworW2+ayobeal6Vv4890ruOOxNXOGjKmo0yUpIiKSHENHn7Pl 9kdqX7/+X2/xzKubWL56O80tif/di1MZ+gyuZcrU2fE9/dbaIKdkbljO8OPcD/gX8KXd/abjjhzE A384kcNHDsD3e//U1Bgwxp1Abe0+dQ0drKhtZtYbjcxe3MTC5U2s2dBKe4cFmOH79gtk8HCtiIhI ljmywDP3+9aOKS7y2H+ffhx35CBOOWYIpx8/lKMOHsDwUBH9SwqwFqy1u9pPtkc8z/B2bTNf+L8F e1pRC3Av8E0yZCVwNoY8gM8BdwL9dxfKrvziofzsG4fv1WpbY4IRO8/Q3mlpbOpg9fpW5izeyuzF W5m3tImVa1vY3pwg8f4QaYEHgCuABl2XIiIivTIUuBn4wntziucZBpR4HLxff048ejCnHDuYU0cN 5bAD+1M6uJB+xR5+L0Kfb+F3t7/Fjfeu3NOfbwG+BjyUyYXMhpB3MG4C5qjd/aaD9i3h3t+dwAeP H7qzILbTYOd5hkTCsr0lwfrNbcxb2uSC3aKtLF/dTENTBx2d3TpL2oDfADcAnbo+RURE9kohcBXw K9zTvN3/5gLDkEGFHHZQf049dginHDuEk44ezMH7lzCwfyFFhQbft3TnIV+BZ3htYSNf/OkCajfu se3tIuBCYHWmFzPTrQMm7Snk1W5s5a4nahl1xCD6l3jvS+Bdoc76ltZ2n0117Sx6axtzljTx2sJG lqzYzpZ4O61t/t58jf2AHwYH/SldoyIiInvlw8CV3Ql44JoV1zd2UN/YwesLt9KvyGNYaRFHHjKA Dx4/lJOPGcJxRw7igH36UdLPw/Nc6NtZRnAtU2q7E/AAXg3ySUYzWXLQL8I9Eh20u980dHAh//rl cXzorH3wrcUzBgt0dvrUNXbw5srtzH9zGzPnN7DwrW2s39zGtuZEMr/O+bjh5fm6TkVERHrkhOBe f2Ky/sIBJQXsO7yYYw4byOgTSzn56MF84NCBjCgrpqjIwxjwfZcXXpi6mW/9euGeVtQCbAM+Dzyj kJcc+wIvAKfu6TeOHz2MO359HIUFbvLkG8u2UTO/kQXLmli9voWGrSl/mvo08HVgs65XERGRbhkO 3A58IpX/yOCBhRy8fwnHHTGI0ScO5YQPDOaIkQOwwDd+uZCqGd1qljEb+BC72bBBesYD/oBb5LDb V0k/z1aMGWbDJ5fafYcV22AwL52vjuBrLdFhExER2aN+wO+D+2fa7tfGYMuGFtkzThhqI2OG2ZJ+ Xnf/7B/I/BZ0WScCxNMc2Pb21Qj8P7JnpFRERKQvGOCLwX0zG+7v8SCPSJKFgKlZchJYYDlQrsMm IiKyS+W4PrPZcm+fGuQRSYFrsuhEsLhNiw/RYRMREXmfg4HKLLuvX6PDljphYFMWnQwJ4Db2sCpY REQkzwwCbg3uk9lyT9+EntCl1GDcZsDZlPq343bD0CRNkb41ADg2+FFE+o4X3Be3Z9n9/OUgh0gK XQn4WXZirAUu0KET6RMFuPZLdwIrgXuAM4KfF5H0Ow+ozbL7uB/kD0mxk4PQZLPsNQs4RodPJG0M cBhwXRDudrwe1+BaNhyJVsGLpNPRwMwsvIevDfKHpFh/4MksPEEs8B+0KkckHfYBvgXMYddzfnxg Ae6x0b4qmUjKlQIPZen9+8kgf0gafJM0N01M0qsduBYo0iEUSYmBwMVAFGjrwXU5BbgEzbcRSZUi 3MrU7l6XmfTqCHKHpMkxwNtZ+mmgDviMDqFI0m8gY4NRgq17eW02AY8C5wDFKqlIUn0S2JKl9+23 0XSrtOoH3J+lJ4sFFgKn6TCK9JqHm+PzJ5I3V3cDcBNwHFoVL5IMpwJvZPE9+3598Eu/y4DWLD5p ngP212EU2Wv7AT8MPjQlu9eWDywBfgwciBZniOyt/YP7Xbbeq1uDvCFpdiiwKItPnE7gRjSRU6Sn BgOfxc2jS/X8nnagGvgCMESlF+mREtwoe2cW36sXB3lD0qwQ+GcWnzgWtyHz19AjIZHuKAbOBR7H zZ9Ld1Pzp4EK3HQREdk9A3w1uM9l8336n0HekD7wCWBblp9AK3ATvUVk5zzgBOAfwMY+vl63ALcD p+jDmchunUX2LpDsem0Lcob0kf2B2Vl+EllgKnC4DqfI+xwM/BxYnmHX7Erg17jHOJqvJ/Juh+Gm U2T7vXk2mjvf55/wb8iBE8kCd6MeXSJdyoCv4HaKydT5PIngJvBNYLgOmQgE97E7c+S+fAMase9z 5wHxHDiZWnEr+bSfpuSzEuBC4HmgOYuu3ZeBjwEDdAgljxUAPwJacuCeHA/yhfSxYcD0HPnUsAH4 qA6p5KFCXO/IO3ENw7P1pnAPMBrtaiP56cPBfSwX7sfTg3whfczgtgqzOfKajWvCKpIv1+9huPlt K3H96bL9Gl4D/A44Cj3qkfwxCng9h+7F1+qQZo4zgU05dHI9iub4SO7bB/g2MJfs7qO1q/l6C4Ar gBE61JLjhgGP5ND1uynIFZIhBgMTc+gEaweuQ9uoSG4agGtLUEl271rT3fl6k3H7VQ/SoZccVAT8 Krhv5cp1OxEthMw4V+bYzaEe+JwOq+SQQmAs8BDZ3yC1p68m3Aj9OWi+nuSWS8neebS7el2pw5p5 TgVqc+xEW4qbxC2SzQxwDPBnYH2ehbv3vjYCf8PNu1V/Pcl2Z+D2eM6la7Q2yBOSYfrjth3KtZvC RGCkDq9kqf2BH+L2mfbJ74DX9fKBN4GfAAfqFJEsdRCudVCuXZ9Poz3lM9Y3cROec20C9z9Q/y3J LkOAz+J2c2lHwW5Xc2+rgS8ApTplJIsMAP6eo/fbb+rwZq5RZP9eebvaP++7qB2DZL5+QAR4DDcP TWFuz6/twejBBbhm0CKZzOBWxefi9f12kCMkQxXhJnXn4o1gNVChQywZqgA4EbiF3GpnlM7XFuB2 4GS0841krkhwP8rFa/AhtDAq410GdOToCRjDNVgVySQjgZ8By9G8u2TM11sB/BI4VKeWZJgjcFMM cvHa6wjyg2TBSbg4h28C9wNDdZglA4SALwMzyb1mxn396sTtfvMNtLWSZIahwL05fM0tDvKDZLgC 4I4cPhFbgZ/ieo6J9IUS4ELgeaBZgSylrxbcCsaPoRV/0rf31Z+Q283L70DTJLLGJ4I3x1w9GTcH 36NIut/oTwPuwjXrVghL36sBuA/XN1Mf8CTdPo7r8ZjLH6Z0T80iB+IedeTym/584CQdakkDAxwJ /JbcnXCdTY1abwCORs2UJT1OBObl+HU1G/WszLqb0l/z4A3/aWA/HW5JoX1w7XvmkXs9sbJ5ccZC 4Ae6/iXF9gWezINr6q/60JR9zge2kvuTs29AvbUk+QYBFwOV5PY8nGx+tQGTgc+gzdQl+foBfyR3 u1V0vbYGeUGyzAhgOvkxV+fL+hQiSVIEjAUeBBoVpLLmJvUIcA5QrFNYkuRLwf0l16+f6UFekCx0 XZ68yb8V3JhF9pYHHAP8GVin4JSVrw3A34Dj0O440jvlwLI8uW6u0+HOXmcDdXlyok4CDtYhl72w H25+1yI07y4X5ustBa5GE8ll74wEqvLkeqkDztIhz16luDlF+fLm/i/cXCqR7hgKXApMAdoVkHKu e3818IXgfVCkOwYC/yR/dq6ZqOsj+12dRydsM/B99KhGdq8Ytw/yk8B2BaKcf094DrgALdCS3fOA y8mfBud+kA8ky51Ofs0xWofbjUDkvQpwPa9uxTXUVgjKn1cdcCdwKmqmLDt3PrA2z+6Vp+uw58bw 89N59oY+EzeJXqTLwcDPcYt0fBR68nW+3krgV8ChuiRkB8cAM/Lseng6yAeSA75D/m2g/h+0sblA CNdiZ2YeXgN67bq/5mzgm8BwXSJ5rwx4KM+ugUSQCyRHHBd8gs2nk7gduBbX90zyT3/gQ8DzaN6d Xrver/Nl4GPAAF0yeakIuAbXWDufzv2VQS6QHNEPeDgP38S34LrhS/4owM0zuZP8aR+kV+9eceBe YAyar5dvPkV+zs99OMgFkkO+SO5vz7Kz12LgNB3+nGeAI4DrgVUKLnrtxasWt03iUWgHnXxwKm4P 5Hw7z9uDPCA55ghgSZ6+eb8AHKBTIGftg5tfMh81M9ar93OVFuJaMe2rSytn7Y+bypGP5/iSIA9I jinAPcLK1zfum3DztCR3DAQuBqLk35wavVI/2jEZuAQYrEstp/QHbszjD4R3BnlActDFuMnG+Xhi NwHfQI9hckEhcCZuRdxWBRK9Uvy+8QhwDq6JtmQ3A3w9j983WoMcIDlqJDA3j9+wVwHn6jTIWh6u n9VfgPUKIHql8bURuBk4XqMgWe1s8q/TxI6vuUEOkBz+FPO3PH+zngIcplMh6xwA/Ai3kEbz7vTq q2kfbwI/AQ7SJZl1DsM9gs/nc/hv6GlWzrsA2JbnJ/q/cZvTS+YbAnwuCOftChp6ZcCrA4gBX0Kb u2fT+8ideX7ebgvu/5Lj9gVq8vxkbwGuQo9dMlk/oAJ4AjcvSuFCr0x7bQeexe15WqJLNmMVAFeS v/PRu141aMV43vid3qBZD3xEp0LG8YATgVvIzyalemVn0/U7cH3XPF3CGefDaA6vDe77eZnw81EH 8Ik8//Q5CDgBt8qqPRgtSuj9sE+NxPUn+z1wHtpqSrLDgCDgnY97LLgKaFBZ+lQRbg7eBcCvUF+4 BuC3wbmZV/J1AmIZ8BgwTu8FdACrcY10p+Dm2iwD6lWatAkBH8c1ND4FPUaX7OUD84B/4qYa1Kkk aTMUOBIYjVtFe3IQ9NT6BibhtnDLu/taPq8y+RlwHXq8sKOufSzfCMLeq7ju9xtxo32SXP2DDxrf BcajeU2SO9qCD43/wDXr3q6SJF0Bbo7Zsbg+hmHc05l9dF973wePa8jTx7X5HPJOx23rMkLXwC4D XwvwFvAaMC0Ifmtwq5Skd2/OpwHfwo3ghVQSyVGNwDO4kb1ZQKdK0isDcO1rPgicFdzHjsbtfqPW IDu3CTcv8TWFvPwyBHgQLT7orvbgYpkNTA9eS3FzHfTG3f3r7XDgq8BlqCmn5I91uB1a7sRNB/FV km5/IByCeww7Nnh9ENgPtwJf9uw5XBuqJoW8/HMFbveAQl0HPZIIPqEvw43wVQef0vVYd9dGAJ8G vgmMQvPuJP/4uM3h7wD+A2xQSXaqCPfI9VSgHLeF4TG4EX/dq3qmE9dE/uZ8HlnIZ8cDL6ARld7a DtQCM3Ed1WfhHvM24x775rOBuFWH3w3erDUJWvJdVzPlW4AXydMRlvfch0uAQ3GjdGcG4e5gYLBO l16pBS7EzTNXyMtDA3C7P1yiayGpn5w24LbfehXXgHIBrpdWPgW+Qtwqt+/g5oNohxGRd2sCXgrC XnUQ/vLp3lsKHAeMwe0pfjxu+8IinRpJ81/gK8GAg0JenvoKblKwRlhSowH3WLcmCH1vACty+A3d 4CZCfw03D2R/nQIiu7UR9/j2DmBRDn8YLMQ9NToe1+JkLHAUMEz34pRoB76NG8jJWzqx3ITWF4Mf JbU6cM0o5+Ae69YAy3Hz+3LB/sClwNeDoKfrS6T7lgN3AQ/gHrPlgkG4xVYfxLVLOjX4fy2aSM/5 dGHwo0JeHisGbsWteJT08XGPcBfg5udMxj3i3Uj2rdYdilul/R3gDDQ5WmRvJYDXg/fkZ3B9O7NJ AW7RxAdwLU7OxG1TuB/qXZdudwXvyXm9GFAhz/k0cC+uOa2kn8XNmViGW7wxJfhxHZndRLUkeBP/ LtqGTCSZWoAqXDPlycH/Z/L7wAG43pfnBB/0jsEtulKw67vz50vAo/leCIU85yDcKtsTVIqM0Ibb UPs13CPd6cCbuPl9mdBfyws+nX8T+GTwyV1Ekq8etz3abcBcMmN/bQ/Xu+4I3CrYMUGwOwj3GFb3 1b73Bu5RbW2+F0Ino1MA3IjrmyeZJYF7ZLMEmIpbhTcb96i3vQ+ul5HAF4Ev4/aF1DUkknqrcE9b 7gFWkv7FGYW4BRIn4RZMnIlbQFGGpmdkopuBKzPkQ4FCXob4EG659SCVIqM1BW/4NbhGzK/jevK1 pviNP4TbguzbwCl6Yxfpkw9883Gjeo8DdSn+90qAQ3CPYcuDcHcYbhRP987MtQ3XFu0FlUIn6o5G 4LY/+aBKkTU6cI91F+Das8wAFuJG/pIV+PrjVsV9BxiP5m2K9LVW3Dy9W4FKktcDzQQB7hhcj8tz cSN3B6LVsNlkFm4h3CaVQiHvvX4H/FRlyFp1uLl7NcFNYAGwmr1brVsQfIL/NnARbiRPRDJHY/DB /FbcQq29vc4PwM3HPjN4HY2bZ6v7Y3b6PfAzlUEhb2fOBZ7EdSKX7NYGvI3ryTcp+HT3NnveQsng JlR/BbgMbXknkunWAQ/iWma8yZ5H8QfgHruehhulPw3XJ1Wj9NmvAfgE7smOKOS9TygIeeeoFDnF x221Np93RvmWAJt598TcEcBncKtmR6H2ByLZwgbX9B3Aw8H13sXDLZro6l1XzjuPYQtUupwyOQh5 cZVCIW9XfgZcrzLk9M1gW3BD6OrJNyd40/8ObnK1trgTyU4dwQe5W3CLskbhntCMxu0TO1gf3nLa z3HTrkQhb5dGA8+i3mf5ogXXjqU0uAGISPZrwj26G4Z7DKt7Xe7bDHwUtwBPAvpE836LcE14JT/0 x827U8ATyR2Dg+t6gAJe3ngtuH+LQt4ePwG+QmbsrCAiIiK75wf37SaVQiGvO6pw/ddEREQks60P 7tuikNcty4CYyiAiIpLxYsF9WxTyuqUFeJn0740qIiIi3dce3K9bVAqFvJ6YDKxRGURERDLWmuB+ LQp5PbIKmKoyiIiIZKypwf1aFPJ6pB23WkdDwCIiIplHU6sU8nplOm6/UxEREcksbwPVKoNC3t5a h9vcXkRERDLLpOA+LQp5e6UTmIgaLIqIiGSSpuD+3KlSKOT1xgzgTZVBREQkY7yJ9qlVyEuCzcGn BREREckME4P7syjk9YofnEz1KoWIiEifqw/uy9pjXiEvKeYAC1UGERGRPrcwuC+LQl5SxHG9eERE RKRvvRzcl0UhL2mqgE0qg4iISJ/ZFNyPRSEvqRYAc1UGERGRPjM3uB+LQl5SbQNeVBlERET6zIvB /VgU8pLuVaBWZRAREUm72uA+LAp5KbEEmKUyiIiIpN2s4D4sCnkp0Qq8ACRUChERkbRJBPffVpVC IS+VpgIrVQYREZG0WQlMUxkU8lLtbSCmMoiIiKRNDHhLZVDIS7UO3OqedpVCREQk5dqD+26HSqGQ l65PFMtVBhERkZRbjp6gKeSl0WpgisogIiKSclOD+64o5KVFAngJaFYpREREUqYZ96hWXS0U8tJq FrBYZRAREUmZxag/rUJeH1iPNkkWERFJpUnB/VYU8tLKAhOBBpVCREQk6RqAl4P7rSjkpd0soEZl EBERSboa4DWVQSGvLz9l3A1sVylERESSZntwf21QKRTy+tJE3PJuERERSY6pwf1VFPL6VByN5omI iCTLduDfwf1VFPL63MtAVGUQERHptSjwisqgkJcpGoF/6VOHiIhIr8SB24L7qijkZYxJwPMqg4iI yF57DnhVZVDIyzQtwO3ABpVCRESkxzYE99EWlUIhLxPFgIdVBhERkR57CPWeVcjLYJ24uXna01ZE RKT7FgN3BPdRSZIClSDp6oBCIKL6ioiI7FEH8Hs0rz3pNJKXGg8DU1QGERGRPZqMpjqlhEaaUmM7 sBk4HxigcoiIiOzUFuAnwFyVQiEvm6wG9gNGA0blEBEReRcL3Imby55QORTyskkCeBs4Kwh7IiIi 8o65wNW4J1+ikJd16oBmoALop3KIiIgA0AT8AjU+VsjLcsuBkcCpKoWIiAgADwA34lbWikJe1uoA 3gLOAUaoHCIikucWAFcC61UKhbxcsBm3TUsFUKxyiIhInmoCfg5EVQqFvFzyJrA/cLpKISIieerf wE1oZwuFvBzTgdu2JQwcqHKIiEiemYF7TKvVtAp5OSkObAAmAANVDhERyRObgR8BM1UKhbxc9jau ncqZqr+IiOSBDuBPwD2Ar3Io5OUyH7ey6ChglMohIiI57kngWtyWn6KQl/NagKW40bx9VQ4REclR 84HvA6tUCoW8fLIxeI1D8/NERCT3bAZ+DExWKRTy8tEywMPtb1uocoiISI5oA34P3I3m4Snk5amu +XkHACcDRiUREZEsZ4H7gd/ipieJQl5ef9qZH4S8Q1UOERHJcpNx/fA2qhQKeQINwCJgLLCPyiEi IllqEfA9YKFKoZAn71gHrAXOBQapHCIikmU2Aj8EqlQKhTx5v+W4+QtnA8Uqh4iIZIltuF54D+Lm 5IlCnryHxc3PKwFG6/iIiEgWaAduAv6G291CFPJkFzqB2bgmySfhWqyIiIhkIh+3XdmvcKN5opAn e9AKvA4cCRyjcoiISIZ6Grga1/hYFPKkm5pwI3rHAYepHCIikmEm4bYsW6lSKORJz9UDc4BTgYNU DhERyRAzge8Ci1UKhTzZe5twu2KcgZunJyIi0pfmBwHvdZVCIU96by2wFLfidrjKISIifWQprtnx NJVCIU+SZyWwDAgDZSqHiIik2VvA5UBUpVDIk9RcYCuDoFeqcoiISJqsxC2yeFGlUMiT1FkGrMI9 ulXQExGRVFsFXAk8q1Io5EnqLQVWBEEvpHKIiEgKA94PgafQdmUKeZI2b+Ie345Gc/RERCT5VuAe 0T6rgKeQJ+m3DFiOa68yTOUQEZEk3l+uAJ5XwFPIk76zHFgInAaMUDlERKSXFuJW0b6igKeQJ31v BTAXOAk4QOUQEZG9NBv4DjBZpVDIk8xRC7yG2+v2YJVDRER6aHoQ8GaqFAp5knk2ADHgcOAIwKgk IiKyBz7wEm6rsgUqh0KeZK4tuO1m9geOBTyVREREdqETeBTXJuUtlUMhTzJfYxD0BgInAEUqiYiI vEcrcAfwM9we6aKQJ1liexD02oBTgRKVREREAg3ADcDvgTqVQyFPsk8bbgLtRuB0YLBKIiKS99bi Ru9uBZpVDoU8yV4JXHuVxcCJwL4qiYhI3loE/AA3D69T5VDIk+xncd3LY7hVt4ehlbciIvl2H6ji nR54anKskCc5ZgPwKhDCrbwtVElERHJeK/AQbgXtEpVDIU9y19bgU1wbboeMASqJiEjOqsctsPgN bn62KORJHnyqiwFv41qsDFdJRERyzpvA1cCduI4LopAnecLHTcCdhZujdyiapycikivv75OA7+N2 skioJAp5kp/WBm8Gxbh9b4tVEhGRrLUduAu4CliocijkiXTN09uAm6c3VCUREck6a4BrgT/jtrgU hTwRADqAOcDrwOHASPT4VkQkG/jAVOBy4EmgXSURhTx5LwusAqK4/W6PBfqpLCIiGasJ+DfwI2A+ 6n8nCnmyB1tx/fTWAKOAYSqJiEjGeRP4BfBX9HhWFPKkBzqBebhWKyNwj3B1voiI9L124Fnc6tkX cdNtRBTypMfWAZVAI25Ub7BKIiLSZzYAfwR+CbylcohCnvRWCzADmAscgluU4aksIiJpkwCmAD/A bVGm5saikCdJ4+N2yJiI2xLtGGCgyiIiknJbgL8DP8VNo/FVElHIk1RoCj5NLsCN6h2EWq2IiKTq w/U0XGPju4AGlUQU8iQdbzzLcaN6rcAHgEEqi4hI0mzGjd79H65/qUbvRCFP0morblRvDrA/cLDO KRGRXukEqnCjd3ej0TtRyJM+1DVX72XcCtyj0LZoIiJ7Yw1uS7Jr0dw7UciTDLId11NvWhDyDsPt miEiIrvXAjwHXAn8Fzf3WaTXNGFeUmEI8CncUv/jULsVEZGd8YGFwM3AY+jRrCSZRvIkFdpwPfWi uM7sh6OFGSIiO9qEWzF7Na7hfKtKIsmmkTxJtWJgNHAF8CFggEoiInmsBTeH+WZgevBBWEQhT7La YODjwOXAqWgUWUTyi4/rRHAL8ARuoZqIQp7klJHAl4Gv4lquiIjkulrgHuBOYJXKIemi0RRJt63A VNwq3H5B0OuvsohIDmrArZb9MfAwEFdJJJ00kid9qT9wLvANIIJ7pCsiku22A68Ct+EWoLWoJKKQ J/lqCHAh8B1gDG6xhohItukAZgTh7nnUEkUU8kT+Z1/gk8DXgBOAQpVERLJAAtfv7i7gEWCDSiIK eSI7PycPBr4IfAm3c4aaKYtIJura1vEh4L7gv63KIgp5IrtXABwNfA74LK6hss5XEckUq3CLKu4D FqN9ZkUhT2Svwt4xwOeDsHeYSiIifRzuHgUeAN7APaoVUcgT6QUPGAV8AfgMcIjOXxFJo9XA48C9 CneikCeSGgVB2LsMuAQ3f0/nsYikgg3C3RPA/cB8hTtRyBNJvULgeNyo3ieBI1BzbxFJDh9YEYS7 h3Ajd50qiyjkiaQ/7B0BXIwb2RsFFKksIrIXOoGluDl3jwJvKtyJQp5I3/OAg4CLgEuBU4ASlUVE uqEd9yj2YeAp3OIKPZYVhTyRDDyn98XtoHEZMBoYqLKIyE4043ao+A9uh4p1qM+dKOSJZIVhwFjc Y9zxwH4qiYgAW4BJQbibDNSpJKKQJ5KdSoCTcAs0PgochRZpiOSbrt0pnsfNt5uDG8kTUcgTyQEe rpnyh4FPA6cCA1QWkZzWAswDHgOeA5aj+XaikCeS04bhHuFegnuku6+uB5GcYXGPZKfiRu0mARtV FlHIE8kv/YETcaN7H8Xtl9tfZRHJSm3AMtwj2eeA2eiRrCjkieQ9D9gfGAd8HDgLGB78vIhkLotb OFENPA1UAmvRI1kRhTyRnRiI203jItwI3wdQzz2RTNOGa1z8Em7Ubg6wTWURUcgT6Y4C4ACgPAh7 Z+MaLmtlrkjf8HG97KYBLwKvolE7EYU8kV4qxrVeqcA1Wv4gENI1JJIWjcDruFG7l3Dz7lpVFhGF PJFkG4JbrHFB8DoOPc4VSbYWYDFQhVtIMQ+IqywiCnki6bp+9gdOD8LeWcCRCnwie60NWIFrffIC bsuxDWirMRGFPJE+5AEH4h7jTgDOwTVeVuAT2XOwWwlMB14BZgKr0Tw7EYU8kQxUGAS+ctwcvrOA kQp8Iv/TilswEQuC3TRgDdCp0ogo5Ilki+Ig4I3B7axxFnAoMEilkTzTjBuhm45bFRsDanEjeSKi kCeS1YqAfYDTgHOD0HcMMBg1XZbcY3F965bhRuqm4B7FblKwE1HIE8llHm5HjVG4PXTPBE4ASnGP e0WyUQKoBxYEga4KeCMIdppjJ6KQJ5KXQriFGh/EPdI9GTgc7aMrma8NWAXMxT2KnQ68jdqdiCjk icj7FOF22jgWN8JXjnusuy96rCt9zwJbcFuKzcA9hl2IWzjRrvKIKOSJSPcNwfXfOwE3j+9U3OKN Ml3DkiYNuNG6ebiRurm4uXYarRNRyBORJPGAYcDRuJ02xgShbyRuPp+uaUmGrbiVr/Nwq2DfAJag uXUiCnkikjZFQegbBZyCW7l7PLBfEPqKVCLZgwRupG49bsHE7CDULQA2o0ewIgp5IpIR13M/XEuW I3D7654AnAQcFYQ+NWSWVqARt8vEPGA+74zUNQShTtuIiSjkiUiGKwxC38gg7J2Ae9T7Ady+u/1x DZslN3XimhBvBpbjFkjMDYJdLdCERupEFPJEJGeu+YG4li0H4VbwnhD8eEQQ/EqAApUq6yRw7Uw2 A2/hRuYW4kbpVuMWSTQBvkolopAnIvnzPjAY15z5kCDwHYNbwXtgEAbLguCn94zM0IlbHLEO17pk eRDqFuNG6Opwj14V6EQU8kRE3qcEt6hjBHBwEPxG4Zo2j8Bt0TYUjfqlkh+EtU24Ebq1QZhbghut 2xL8/HaVSkQU8kSkt+8Zg3cIefviRv+OxO3QcSBu1G8oMAg1b+5ukNuGWwxRH4S2lUGIW44bmdsc vJrQoggRUcgTkTS/lxTh5vrtFwTAYbg5fiNxI4Ejg18fDAwIXvnQ4qUDt/ihOQhpW4ENuHlyq3GP WzfiRuU24ObOdaJHrSKikCciGc7DrfItxo3yjQgCYCj4/+FBKNyHd0YI++PawRQHQbAo+P9MCIUJ 3IrUjuDVjlvw0Mo7I3Fdrw24R61x3Dy5rv9uD4KcGguLiEKeiOT0+1DhDmGuCLcCeBiut98Q3OPf suAVCn59IG40sOvHrv8uCYJlcfB3Fwf/X4SbP5gIwpnPOz3h2oP/b8XNb+saedu+w4/bcSNxXY9V twavBtwo3Nbgz3eFP43GiUif+v+k83pKYv5dYQAAACV0RVh0ZGF0ZTpjcmVhdGUAMjAxOC0xMS0w NFQwNjowNjoyMiswMDowMN3PN5gAAAAldEVYdGRhdGU6bW9kaWZ5ADIwMTgtMTEtMDRUMDY6MDY6 MjIrMDA6MDCsko8kAAAAGXRFWHRTb2Z0d2FyZQB3d3cuaW5rc2NhcGUub3Jnm+48GgAAAABJRU5E rkJggg== "
       id="image179"
       x="205.23473"
       y="196.56262" />
    <text
       xml:space="preserve"
       id="text201"
       style="fill:black;fill-opacity:1;line-height:1.25;stroke:none;font-family:sans-serif;font-style:normal;font-weight:normal;font-size:10.58333333px;white-space:pre;shape-inside:url(#rect203);" />
  </g>
  <style
     type="text/css"
     id="style1951">
	.st0{fill:#7289DA;}
</style>
</svg>
