<?xml version="1.0" encoding="UTF-8" standalone="no"?>
<!-- Created with Inkscape (http://www.inkscape.org/) -->

<svg
   xmlns:dc="http://purl.org/dc/elements/1.1/"
   xmlns:cc="http://creativecommons.org/ns#"
   xmlns:rdf="http://www.w3.org/1999/02/22-rdf-syntax-ns#"
   xmlns:svg="http://www.w3.org/2000/svg"
   xmlns="http://www.w3.org/2000/svg"
   xmlns:xlink="http://www.w3.org/1999/xlink"
   xmlns:sodipodi="http://sodipodi.sourceforge.net/DTD/sodipodi-0.dtd"
   xmlns:inkscape="http://www.inkscape.org/namespaces/inkscape"
   width="1280pt"
   height="720pt"
   viewBox="0 0 451.55557 254"
   version="1.1"
   id="svg8"
   inkscape:version="0.92.2 (5c3e80d, 2017-08-06)"
   sodipodi:docname="thumbnail_02.svg"
   inkscape:export-filename="/home/nokomprendo/depots/github/tuto_fonctionnel/tuto_fonctionnel_02/thumbnail_02.png"
   inkscape:export-xdpi="72"
   inkscape:export-ydpi="72">
  <defs
     id="defs2">
    <linearGradient
       id="linearGradient5562"
       inkscape:collect="always">
      <stop
         id="stop5564"
         offset="0"
         style="stop-color:#699ad7;stop-opacity:1" />
      <stop
         style="stop-color:#7eb1dd;stop-opacity:1"
         offset="0.24345198"
         id="stop5566" />
      <stop
         id="stop5568"
         offset="1"
         style="stop-color:#7ebae4;stop-opacity:1" />
    </linearGradient>
    <linearGradient
       id="linearGradient5053"
       inkscape:collect="always">
      <stop
         id="stop5055"
         offset="0"
         style="stop-color:#415e9a;stop-opacity:1" />
      <stop
         style="stop-color:#4a6baf;stop-opacity:1"
         offset="0.23168644"
         id="stop5057" />
      <stop
         id="stop5059"
         offset="1"
         style="stop-color:#5277c3;stop-opacity:1" />
    </linearGradient>
    <linearGradient
       inkscape:collect="always"
       id="linearGradient5960">
      <stop
         style="stop-color:#637ddf;stop-opacity:1"
         offset="0"
         id="stop5962" />
      <stop
         id="stop5964"
         offset="0.23168644"
         style="stop-color:#649afa;stop-opacity:1" />
      <stop
         style="stop-color:#719efa;stop-opacity:1"
         offset="1"
         id="stop5966" />
    </linearGradient>
    <linearGradient
       inkscape:collect="always"
       xlink:href="#linearGradient5960"
       id="linearGradient5855-7"
       gradientUnits="userSpaceOnUse"
       gradientTransform="translate(983.36076,601.38885)"
       x1="213.95642"
       y1="338.62445"
       x2="282.26105"
       y2="515.97058" />
    <path
       sodipodi:nodetypes="czzc"
       inkscape:connector-curvature="0"
       id="path5167-5-3-6"
       d="m 165.68141,140.85891 c 8.75775,2.20625 -7.63349,52.69351 2.40542,59.60111 10.03891,6.9076 10.02941,-24.36935 19.24342,-17.6398 9.21401,6.72955 15.82865,43.17979 14.69981,64.9465"
       style="fill:none;stroke:#000000;stroke-width:1;stroke-linecap:butt;stroke-linejoin:miter;stroke-miterlimit:4;stroke-dasharray:none;stroke-opacity:1" />
    <linearGradient
       inkscape:collect="always"
       xlink:href="#linearGradient5562"
       id="linearGradient900"
       gradientUnits="userSpaceOnUse"
       gradientTransform="translate(70.650339,-1055.1511)"
       x1="200.59668"
       y1="351.41116"
       x2="290.08701"
       y2="506.18814" />
    <linearGradient
       inkscape:collect="always"
       xlink:href="#linearGradient5053"
       id="linearGradient902"
       gradientUnits="userSpaceOnUse"
       gradientTransform="translate(864.69589,-1491.3405)"
       x1="-584.19934"
       y1="782.33563"
       x2="-496.29703"
       y2="937.71399" />
  </defs>
  <sodipodi:namedview
     id="base"
     pagecolor="#ffffff"
     bordercolor="#666666"
     borderopacity="1.0"
     inkscape:pageopacity="0.0"
     inkscape:pageshadow="2"
     inkscape:zoom="0.5"
     inkscape:cx="984.05033"
     inkscape:cy="349.01826"
     inkscape:document-units="mm"
     inkscape:current-layer="layer1"
     showgrid="false"
     units="pt"
     showguides="true"
     inkscape:guide-bbox="true"
     inkscape:window-width="1920"
     inkscape:window-height="1020"
     inkscape:window-x="0"
     inkscape:window-y="31"
     inkscape:window-maximized="1" />
  <metadata
     id="metadata5">
    <rdf:RDF>
      <cc:Work
         rdf:about="">
        <dc:format>image/svg+xml</dc:format>
        <dc:type
           rdf:resource="http://purl.org/dc/dcmitype/StillImage" />
        <dc:title />
      </cc:Work>
    </rdf:RDF>
  </metadata>
  <g
     inkscape:label="Calque 1"
     inkscape:groupmode="layer"
     id="layer1"
     transform="translate(0,-43.000005)">
    <text
       xml:space="preserve"
       style="font-style:normal;font-weight:normal;font-size:10.58333302px;line-height:1.25;font-family:sans-serif;letter-spacing:0px;word-spacing:0px;fill:#000000;fill-opacity:1;stroke:none;stroke-width:0.26458332"
       x="9.0871811"
       y="70.889969"
       id="text230"><tspan
         sodipodi:role="line"
         id="tspan228"
         x="9.0871811"
         y="70.889969"
         style="font-style:italic;font-variant:normal;font-weight:normal;font-stretch:normal;font-size:22.57777786px;font-family:'DejaVu Sans';-inkscape-font-specification:'DejaVu Sans';stroke-width:0.26458332">tuto fonctionnel 02</tspan></text>
    <text
       xml:space="preserve"
       style="font-style:normal;font-weight:normal;font-size:10.58333302px;line-height:1.25;font-family:sans-serif;text-align:center;letter-spacing:0px;word-spacing:0px;text-anchor:middle;fill:#000000;fill-opacity:1;stroke:none;stroke-width:0.26458332"
       x="313.72653"
       y="126.6655"
       id="text234"><tspan
         sodipodi:role="line"
         x="313.72653"
         y="126.6655"
         style="font-style:normal;font-variant:normal;font-weight:bold;font-stretch:normal;font-size:25.39999962px;font-family:'DejaVu Sans';-inkscape-font-specification:'DejaVu Sans Bold';text-align:center;text-anchor:middle;stroke-width:0.26458332"
         id="tspan1084">Gestion de</tspan><tspan
         sodipodi:role="line"
         x="313.72653"
         y="158.4155"
         style="font-style:normal;font-variant:normal;font-weight:bold;font-stretch:normal;font-size:25.39999962px;font-family:'DejaVu Sans';-inkscape-font-specification:'DejaVu Sans Bold';text-align:center;text-anchor:middle;stroke-width:0.26458332"
         id="tspan892">programmes</tspan><tspan
         sodipodi:role="line"
         x="313.72653"
         y="190.1655"
         style="font-style:normal;font-variant:normal;font-weight:bold;font-stretch:normal;font-size:25.39999962px;font-family:'DejaVu Sans';-inkscape-font-specification:'DejaVu Sans Bold';text-align:center;text-anchor:middle;stroke-width:0.26458332"
         id="tspan894">avec Nix</tspan></text>
    <g
       id="g443"
       transform="matrix(0.14371399,0,0,0.14371399,244.85629,247.97269)">
      <g
         style="display:none"
         inkscape:label="bg"
         id="layer7-9">
        <rect
           y="-957.77832"
           x="132.5822"
           height="483.7439"
           width="1543.4283"
           id="rect5389-3"
           style="color:#000000;clip-rule:nonzero;display:inline;overflow:visible;visibility:visible;opacity:1;isolation:auto;mix-blend-mode:normal;color-interpolation:sRGB;color-interpolation-filters:linearRGB;solid-color:#000000;solid-opacity:1;fill:#ffffff;fill-opacity:1;fill-rule:evenodd;stroke:none;stroke-width:3;stroke-linecap:butt;stroke-linejoin:round;stroke-miterlimit:4;stroke-dasharray:none;stroke-dashoffset:0;stroke-opacity:1;marker:none;color-rendering:auto;image-rendering:auto;shape-rendering:auto;text-rendering:auto;enable-background:accumulate"
           transform="translate(-132.5822,958.04022)" />
      </g>
      <g
         transform="translate(-132.5822,958.04022)"
         style="display:none;opacity:0.51599995"
         inkscape:label="guide"
         id="layer5-6">
        <rect
           style="color:#000000;clip-rule:nonzero;display:inline;overflow:visible;visibility:visible;opacity:1;isolation:auto;mix-blend-mode:normal;color-interpolation:sRGB;color-interpolation-filters:linearRGB;solid-color:#000000;solid-opacity:1;fill:#d4d4d4;fill-opacity:1;fill-rule:evenodd;stroke:none;stroke-width:3;stroke-linecap:butt;stroke-linejoin:round;stroke-miterlimit:4;stroke-dasharray:none;stroke-dashoffset:0;stroke-opacity:1;marker:none;color-rendering:auto;image-rendering:auto;shape-rendering:auto;text-rendering:auto;enable-background:accumulate"
           id="rect5350-0"
           width="1543.4283"
           height="483.7439"
           x="132.5822"
           y="-957.77832" />
        <rect
           inkscape:export-ydpi="17.971878"
           inkscape:export-xdpi="17.971878"
           y="-933.38721"
           x="155.77646"
           height="435.68069"
           width="1496.443"
           id="rect5346-6"
           style="color:#000000;clip-rule:nonzero;display:inline;overflow:visible;visibility:visible;opacity:1;isolation:auto;mix-blend-mode:normal;color-interpolation:sRGB;color-interpolation-filters:linearRGB;solid-color:#000000;solid-opacity:1;fill:#9b9b9b;fill-opacity:1;fill-rule:evenodd;stroke:none;stroke-width:3;stroke-linecap:butt;stroke-linejoin:round;stroke-miterlimit:4;stroke-dasharray:none;stroke-dashoffset:0;stroke-opacity:1;marker:none;color-rendering:auto;image-rendering:auto;shape-rendering:auto;text-rendering:auto;enable-background:accumulate" />
        <rect
           style="color:#000000;clip-rule:nonzero;display:inline;overflow:visible;visibility:visible;opacity:1;isolation:auto;mix-blend-mode:normal;color-interpolation:sRGB;color-interpolation-filters:linearRGB;solid-color:#000000;solid-opacity:1;fill:#848484;fill-opacity:1;fill-rule:evenodd;stroke:none;stroke-width:3;stroke-linecap:butt;stroke-linejoin:round;stroke-miterlimit:4;stroke-dasharray:none;stroke-dashoffset:0;stroke-opacity:1;marker:none;color-rendering:auto;image-rendering:auto;shape-rendering:auto;text-rendering:auto;enable-background:accumulate"
           id="rect5348-2"
           width="1492.5731"
           height="272.58423"
           x="159.02695"
           y="-851.65918" />
      </g>
      <g
         transform="translate(-132.5822,958.04022)"
         style="display:none"
         inkscape:label="logo-guide"
         id="layer6-6">
        <rect
           inkscape:export-ydpi="22.07"
           inkscape:export-xdpi="22.07"
           inkscape:export-filename="/home/tim/dev/nix/homepage/logo/nix-wiki.png"
           style="color:#000000;clip-rule:nonzero;display:inline;overflow:visible;visibility:visible;opacity:1;isolation:auto;mix-blend-mode:normal;color-interpolation:sRGB;color-interpolation-filters:linearRGB;solid-color:#000000;solid-opacity:1;fill:#5c201e;fill-opacity:1;fill-rule:evenodd;stroke:none;stroke-width:3;stroke-linecap:butt;stroke-linejoin:round;stroke-miterlimit:4;stroke-dasharray:none;stroke-dashoffset:0;stroke-opacity:1;marker:none;color-rendering:auto;image-rendering:auto;shape-rendering:auto;text-rendering:auto;enable-background:accumulate"
           id="rect5379-1"
           width="550.41602"
           height="484.30399"
           x="132.65129"
           y="-958.02759" />
        <rect
           inkscape:export-ydpi="212.2"
           inkscape:export-xdpi="212.2"
           inkscape:export-filename="/home/tim/dev/nix/homepage/logo/nixos-logo-only-hires-print.png"
           y="-933.02759"
           x="156.12303"
           height="434.30405"
           width="501.94415"
           id="rect5372-8"
           style="color:#000000;clip-rule:nonzero;display:inline;overflow:visible;visibility:visible;opacity:1;isolation:auto;mix-blend-mode:normal;color-interpolation:sRGB;color-interpolation-filters:linearRGB;solid-color:#000000;solid-opacity:1;fill:#c24a46;fill-opacity:1;fill-rule:evenodd;stroke:none;stroke-width:3;stroke-linecap:butt;stroke-linejoin:round;stroke-miterlimit:4;stroke-dasharray:none;stroke-dashoffset:0;stroke-opacity:1;marker:none;color-rendering:auto;image-rendering:auto;shape-rendering:auto;text-rendering:auto;enable-background:accumulate" />
        <rect
           y="-958.04022"
           x="658.02826"
           height="24.939611"
           width="24.939611"
           id="rect5381-7"
           style="color:#000000;clip-rule:nonzero;display:inline;overflow:visible;visibility:visible;opacity:1;isolation:auto;mix-blend-mode:normal;color-interpolation:sRGB;color-interpolation-filters:linearRGB;solid-color:#000000;solid-opacity:1;fill:#d98d8a;fill-opacity:1;fill-rule:evenodd;stroke:none;stroke-width:3;stroke-linecap:butt;stroke-linejoin:round;stroke-miterlimit:4;stroke-dasharray:none;stroke-dashoffset:0;stroke-opacity:1;marker:none;color-rendering:auto;image-rendering:auto;shape-rendering:auto;text-rendering:auto;enable-background:accumulate" />
      </g>
      <g
         transform="translate(90.650102,686.52413)"
         style="display:inline"
         id="layer1-9"
         inkscape:label="print-logo">
        <path
           sodipodi:nodetypes="cccccccccc"
           inkscape:connector-curvature="0"
           id="path4861-2"
           d="m 309.40365,-710.2521 122.19683,211.6751 -56.15706,0.5268 -32.6236,-56.8692 -32.85645,56.5653 -27.90237,-0.011 -14.29086,-24.6896 46.81047,-80.4902 -33.22946,-57.8256 z"
           style="color:#000000;clip-rule:nonzero;display:inline;overflow:visible;visibility:visible;opacity:1;isolation:auto;mix-blend-mode:normal;color-interpolation:sRGB;color-interpolation-filters:linearRGB;solid-color:#000000;solid-opacity:1;fill:#5277c3;fill-opacity:1;fill-rule:evenodd;stroke:none;stroke-width:3;stroke-linecap:butt;stroke-linejoin:round;stroke-miterlimit:4;stroke-dasharray:none;stroke-dashoffset:0;stroke-opacity:1;color-rendering:auto;image-rendering:auto;shape-rendering:auto;text-rendering:auto;enable-background:accumulate" />
        <path
           sodipodi:nodetypes="cccccccccc"
           inkscape:connector-curvature="0"
           id="use4863-0"
           d="m 353.50926,-797.4433 -122.21756,211.6631 -28.53477,-48.37 32.93839,-56.6875 -65.41521,-0.1719 -13.9414,-24.1698 14.23637,-24.721 93.11177,0.2939 33.46371,-57.6903 z"
           style="color:#000000;clip-rule:nonzero;display:inline;overflow:visible;visibility:visible;opacity:1;isolation:auto;mix-blend-mode:normal;color-interpolation:sRGB;color-interpolation-filters:linearRGB;solid-color:#000000;solid-opacity:1;fill:#7ebae4;fill-opacity:1;fill-rule:evenodd;stroke:none;stroke-width:3;stroke-linecap:butt;stroke-linejoin:round;stroke-miterlimit:4;stroke-dasharray:none;stroke-dashoffset:0;stroke-opacity:1;color-rendering:auto;image-rendering:auto;shape-rendering:auto;text-rendering:auto;enable-background:accumulate" />
        <path
           sodipodi:nodetypes="cccccccccc"
           inkscape:connector-curvature="0"
           id="use4865-2"
           d="m 362.88537,-628.243 244.41439,0.012 -27.62229,48.8968 -65.56199,-0.1817 32.55876,56.7371 -13.96098,24.1585 -28.52722,0.032 -46.3013,-80.7841 -66.69317,-0.1353 z"
           style="color:#000000;clip-rule:nonzero;display:inline;overflow:visible;visibility:visible;opacity:1;isolation:auto;mix-blend-mode:normal;color-interpolation:sRGB;color-interpolation-filters:linearRGB;solid-color:#000000;solid-opacity:1;fill:#7ebae4;fill-opacity:1;fill-rule:evenodd;stroke:none;stroke-width:3;stroke-linecap:butt;stroke-linejoin:round;stroke-miterlimit:4;stroke-dasharray:none;stroke-dashoffset:0;stroke-opacity:1;color-rendering:auto;image-rendering:auto;shape-rendering:auto;text-rendering:auto;enable-background:accumulate" />
        <path
           sodipodi:nodetypes="cccccccccc"
           inkscape:connector-curvature="0"
           id="use4867-3"
           d="m 505.14318,-720.9886 -122.19683,-211.6751 56.15706,-0.5268 32.6236,56.8692 32.85645,-56.5653 27.90237,0.011 14.29086,24.6896 -46.81047,80.4902 33.22946,57.8256 z"
           style="color:#000000;clip-rule:nonzero;display:inline;overflow:visible;visibility:visible;opacity:1;isolation:auto;mix-blend-mode:normal;color-interpolation:sRGB;color-interpolation-filters:linearRGB;solid-color:#000000;solid-opacity:1;fill:#7ebae4;fill-opacity:1;fill-rule:evenodd;stroke:none;stroke-width:3;stroke-linecap:butt;stroke-linejoin:round;stroke-miterlimit:4;stroke-dasharray:none;stroke-dashoffset:0;stroke-opacity:1;color-rendering:auto;image-rendering:auto;shape-rendering:auto;text-rendering:auto;enable-background:accumulate" />
        <path
           style="color:#000000;clip-rule:nonzero;display:inline;overflow:visible;visibility:visible;opacity:1;isolation:auto;mix-blend-mode:normal;color-interpolation:sRGB;color-interpolation-filters:linearRGB;solid-color:#000000;solid-opacity:1;fill:#5277c3;fill-opacity:1;fill-rule:evenodd;stroke:none;stroke-width:3;stroke-linecap:butt;stroke-linejoin:round;stroke-miterlimit:4;stroke-dasharray:none;stroke-dashoffset:0;stroke-opacity:1;color-rendering:auto;image-rendering:auto;shape-rendering:auto;text-rendering:auto;enable-background:accumulate"
           d="m 309.40365,-710.2521 122.19683,211.6751 -56.15706,0.5268 -32.6236,-56.8692 -32.85645,56.5653 -27.90237,-0.011 -14.29086,-24.6896 46.81047,-80.4902 -33.22946,-57.8256 z"
           id="path4873-7"
           inkscape:connector-curvature="0"
           sodipodi:nodetypes="cccccccccc" />
        <path
           style="color:#000000;clip-rule:nonzero;display:inline;overflow:visible;visibility:visible;opacity:1;isolation:auto;mix-blend-mode:normal;color-interpolation:sRGB;color-interpolation-filters:linearRGB;solid-color:#000000;solid-opacity:1;fill:#5277c3;fill-opacity:1;fill-rule:evenodd;stroke:none;stroke-width:3;stroke-linecap:butt;stroke-linejoin:round;stroke-miterlimit:4;stroke-dasharray:none;stroke-dashoffset:0;stroke-opacity:1;color-rendering:auto;image-rendering:auto;shape-rendering:auto;text-rendering:auto;enable-background:accumulate"
           d="m 451.3364,-803.53264 -244.4144,-0.012 27.62229,-48.89685 65.56199,0.18175 -32.55875,-56.73717 13.96097,-24.15851 28.52722,-0.0315 46.3013,80.78414 66.69317,0.13524 z"
           id="use4875-5"
           inkscape:connector-curvature="0"
           sodipodi:nodetypes="cccccccccc" />
        <path
           style="color:#000000;clip-rule:nonzero;display:inline;overflow:visible;visibility:visible;opacity:1;isolation:auto;mix-blend-mode:normal;color-interpolation:sRGB;color-interpolation-filters:linearRGB;solid-color:#000000;solid-opacity:1;fill:#5277c3;fill-opacity:1;fill-rule:evenodd;stroke:none;stroke-width:3;stroke-linecap:butt;stroke-linejoin:round;stroke-miterlimit:4;stroke-dasharray:none;stroke-dashoffset:0;stroke-opacity:1;color-rendering:auto;image-rendering:auto;shape-rendering:auto;text-rendering:auto;enable-background:accumulate"
           d="m 460.87178,-633.8425 122.21757,-211.66304 28.53477,48.37003 -32.93839,56.68751 65.4152,0.1718 13.9414,24.1698 -14.23636,24.7211 -93.11177,-0.294 -33.46371,57.6904 z"
           id="use4877-9"
           inkscape:connector-curvature="0"
           sodipodi:nodetypes="cccccccccc" />
        <g
           transform="translate(72.039038,-1799.4476)"
           style="display:none"
           inkscape:label="guides"
           id="layer2-2">
          <path
             sodipodi:type="star"
             style="color:#000000;display:inline;overflow:visible;visibility:visible;opacity:0.23600003;fill:#4e4d52;fill-opacity:1;fill-rule:nonzero;stroke:none;stroke-width:3;stroke-linecap:butt;stroke-linejoin:round;stroke-miterlimit:4;stroke-dasharray:none;stroke-dashoffset:0;stroke-opacity:1;marker:none;enable-background:accumulate"
             id="path6032-2"
             sodipodi:sides="6"
             sodipodi:cx="335.17407"
             sodipodi:cy="377.47382"
             sodipodi:r1="250.86446"
             sodipodi:r2="217.25499"
             sodipodi:arg1="1.0471976"
             sodipodi:arg2="1.5707963"
             inkscape:flatsided="true"
             inkscape:rounded="0"
             inkscape:randomized="0"
             d="M 460.60629,594.72881 209.74183,594.7288 84.309616,377.4738 209.74185,160.21882 l 250.86446,1e-5 125.43222,217.255 z" />
          <path
             d="m 385.59154,773.06721 -100.83495,0 -50.41747,-87.32564 50.41748,-87.32563 100.83495,10e-6 50.41748,87.32563 z"
             inkscape:randomized="0"
             inkscape:rounded="0"
             inkscape:flatsided="true"
             sodipodi:arg2="1.5707963"
             sodipodi:arg1="1.0471976"
             sodipodi:r2="87.32563"
             sodipodi:r1="100.83495"
             sodipodi:cy="685.74158"
             sodipodi:cx="335.17407"
             sodipodi:sides="6"
             id="path5875-8"
             style="color:#000000;display:inline;overflow:visible;visibility:visible;opacity:1;fill:#4e4d52;fill-opacity:1;fill-rule:nonzero;stroke:none;stroke-width:3;stroke-linecap:butt;stroke-linejoin:round;stroke-miterlimit:4;stroke-dasharray:none;stroke-dashoffset:0;stroke-opacity:1;marker:none;enable-background:accumulate"
             sodipodi:type="star"
             transform="translate(0,-308.26772)" />
          <path
             style="fill:url(#linearGradient5855-7);fill-opacity:1;fill-rule:evenodd;stroke:none;stroke-width:3;stroke-linecap:butt;stroke-linejoin:round;stroke-miterlimit:4;stroke-dasharray:none;stroke-opacity:1"
             d="m 1216.5591,938.53395 123.0545,228.14035 -42.6807,-1.2616 -43.4823,-79.7725 -39.6506,80.3267 -32.6875,-19.7984 53.4737,-100.2848 -37.1157,-73.88955 z"
             id="path5851-9"
             inkscape:connector-curvature="0"
             sodipodi:nodetypes="ccccccccc"
             transform="translate(0,-308.26772)" />
          <rect
             transform="rotate(-30)"
             y="446.17056"
             x="-34.74221"
             height="226.22897"
             width="48.834862"
             id="rect5884-7"
             style="color:#000000;clip-rule:nonzero;display:inline;overflow:visible;visibility:visible;opacity:0.41499999;isolation:auto;mix-blend-mode:normal;color-interpolation:sRGB;color-interpolation-filters:linearRGB;solid-color:#000000;solid-opacity:1;fill:#c53a3a;fill-opacity:1;fill-rule:nonzero;stroke:none;stroke-width:3;stroke-linecap:butt;stroke-linejoin:round;stroke-miterlimit:4;stroke-dasharray:none;stroke-dashoffset:0;stroke-opacity:1;marker:none;color-rendering:auto;image-rendering:auto;shape-rendering:auto;text-rendering:auto;enable-background:accumulate" />
          <path
             d="m 251.98568,878.63831 -14.02447,24.29109 h -28.04894 l -14.02447,-24.29109 14.02447,-24.2911 h 28.04894 z"
             inkscape:randomized="0"
             inkscape:rounded="0"
             inkscape:flatsided="true"
             sodipodi:arg2="0.52359878"
             sodipodi:arg1="0"
             sodipodi:r2="24.291094"
             sodipodi:r1="28.048939"
             sodipodi:cy="878.63831"
             sodipodi:cx="223.93674"
             sodipodi:sides="6"
             id="path3428-3"
             style="color:#000000;clip-rule:nonzero;display:inline;overflow:visible;visibility:visible;opacity:0.50899999;isolation:auto;mix-blend-mode:normal;color-interpolation:sRGB;color-interpolation-filters:linearRGB;solid-color:#000000;solid-opacity:1;fill:#000000;fill-opacity:1;fill-rule:evenodd;stroke:none;stroke-width:3;stroke-linecap:butt;stroke-linejoin:round;stroke-miterlimit:4;stroke-dasharray:none;stroke-dashoffset:0;stroke-opacity:1;marker:none;color-rendering:auto;image-rendering:auto;shape-rendering:auto;text-rendering:auto;enable-background:accumulate"
             sodipodi:type="star"
             transform="translate(0,-308.26772)" />
          <use
             height="100%"
             width="100%"
             transform="rotate(60,268.29786,489.4515)"
             id="use4252-6"
             xlink:href="#rect5884-7"
             y="0"
             x="0" />
          <rect
             transform="rotate(30,575.23539,-154.13386)"
             y="467.07007"
             x="545.71014"
             height="115.12564"
             width="5.3947482"
             id="rect4254-1"
             style="color:#000000;clip-rule:nonzero;display:inline;overflow:visible;visibility:visible;opacity:1;isolation:auto;mix-blend-mode:normal;color-interpolation:sRGB;color-interpolation-filters:linearRGB;solid-color:#000000;solid-opacity:1;fill:#000000;fill-opacity:0.6507937;fill-rule:evenodd;stroke:none;stroke-width:1px;stroke-linecap:butt;stroke-linejoin:miter;stroke-miterlimit:4;stroke-dasharray:none;stroke-dashoffset:0;stroke-opacity:1;marker:none;color-rendering:auto;image-rendering:auto;shape-rendering:auto;text-rendering:auto;enable-background:accumulate" />
        </g>
      </g>
      <g
         transform="translate(-132.5822,958.04022)"
         style="display:none;opacity:1"
         inkscape:label="gradient-logo"
         id="layer3-2">
        <path
           style="opacity:1;fill:url(#linearGradient900);fill-opacity:1;fill-rule:evenodd;stroke:none;stroke-width:3;stroke-linecap:butt;stroke-linejoin:round;stroke-miterlimit:4;stroke-dasharray:none;stroke-opacity:1"
           d="m 309.54892,-710.38827 122.19683,211.67512 -56.15706,0.5268 -32.6236,-56.8692 -32.85645,56.5653 -27.90237,-0.011 -14.29086,-24.6896 46.81047,-80.4901 -33.22946,-57.8257 z"
           id="path3336-6-9"
           inkscape:connector-curvature="0"
           sodipodi:nodetypes="cccccccccc" />
        <use
           x="0"
           y="0"
           xlink:href="#path3336-6-9"
           inkscape:transform-center-x="124.43045"
           inkscape:transform-center-y="151.59082"
           id="use3439-6-3"
           transform="rotate(60,407.11155,-715.78724)"
           width="100%"
           height="100%" />
        <use
           x="0"
           y="0"
           xlink:href="#path3336-6-9"
           inkscape:transform-center-x="-168.20651"
           inkscape:transform-center-y="75.573958"
           id="use3445-0-1"
           transform="rotate(-60,407.31177,-715.70016)"
           width="100%"
           height="100%" />
        <use
           x="0"
           y="0"
           xlink:href="#path3336-6-9"
           inkscape:transform-center-x="59.669705"
           inkscape:transform-center-y="-139.94592"
           id="use3449-5-9"
           transform="rotate(180,407.41868,-715.7565)"
           width="100%"
           height="100%" />
        <path
           sodipodi:nodetypes="cccccccccc"
           inkscape:connector-curvature="0"
           id="path4260-0-4"
           d="m 309.54892,-710.38827 122.19683,211.67512 -56.15706,0.5268 -32.6236,-56.8692 -32.85645,56.5653 -27.90237,-0.011 -14.29086,-24.6896 46.81047,-80.4901 -33.22946,-57.8256 z"
           style="color:#000000;clip-rule:nonzero;display:inline;overflow:visible;visibility:visible;opacity:1;isolation:auto;mix-blend-mode:normal;color-interpolation:sRGB;color-interpolation-filters:linearRGB;solid-color:#000000;solid-opacity:1;fill:url(#linearGradient902);fill-opacity:1;fill-rule:evenodd;stroke:none;stroke-width:3;stroke-linecap:butt;stroke-linejoin:round;stroke-miterlimit:4;stroke-dasharray:none;stroke-dashoffset:0;stroke-opacity:1;color-rendering:auto;image-rendering:auto;shape-rendering:auto;text-rendering:auto;enable-background:accumulate" />
        <use
           style="display:inline"
           x="0"
           y="0"
           xlink:href="#path4260-0-4"
           id="use4354-5-7"
           transform="rotate(120,407.33916,-716.08356)"
           width="100%"
           height="100%" />
        <use
           style="display:inline"
           x="0"
           y="0"
           xlink:href="#path4260-0-4"
           id="use4362-2-8"
           transform="rotate(-120,407.28823,-715.86995)"
           width="100%"
           height="100%" />
      </g>
    </g>
    <g
       transform="translate(3.3265185,22.356119)"
       id="layer1-6"
       inkscape:label="Calque 1">
      <g
         id="g1005"
         transform="rotate(-1.4139041,-2772.7956,-22.807463)">
        <ellipse
           id="path618"
           style="fill:#188a17;fill-opacity:1;stroke:#000000;stroke-width:1.03158987;stroke-miterlimit:4;stroke-dasharray:none;stroke-opacity:1"
           cy="204.13069"
           cx="60.581951"
           rx="44.654301"
           ry="41.961315"
           transform="matrix(0.93969262,-0.34202014,0,1,0,0)" />
        <path
           style="fill:none;stroke:#000000;stroke-width:1;stroke-linecap:butt;stroke-linejoin:miter;stroke-miterlimit:4;stroke-dasharray:none;stroke-opacity:1"
           d="m 83.655359,181.27231 c 8.01809,12.56167 -7.834319,53.36705 2.40543,57.46295 10.239741,4.0959 17.434311,-20.06297 24.856081,-15.76891 7.42176,4.29407 19.73209,31.75136 23.74112,68.36729"
           id="path5167"
           inkscape:connector-curvature="0"
           sodipodi:nodetypes="czzc" />
        <path
           style="fill:#e4b037;fill-opacity:1;stroke:none;stroke-width:0.26458332px;stroke-linecap:butt;stroke-linejoin:miter;stroke-opacity:1"
           d="m 83.655359,181.27231 c 5.329557,10.80172 -2.256648,34.96266 -1.164362,51.45181 2.355187,-3.99293 4.229975,-9.91384 8.543604,-12.27473 l 18.400639,1.52534 c 11.92386,7.83973 20.70982,38.87213 25.22275,69.35891 l -27.46963,-0.3864 c -1.44141,-18.06646 -1.10305,-41.22541 -8.23526,-59.62662 -5.546631,6.50744 -8.635629,7.68954 -11.297355,8.07228 l -12.662203,-0.28348 c -13.536594,-3.57681 3.267304,-40.90184 -4.153828,-60.26716 z"
           id="path5184"
           inkscape:connector-curvature="0"
           sodipodi:nodetypes="ccccccccccc" />
        <path
           style="fill:none;stroke:#000000;stroke-width:1;stroke-linecap:butt;stroke-linejoin:miter;stroke-miterlimit:4;stroke-dasharray:none;stroke-opacity:1"
           d="m 70.839714,178.84226 c 8.018085,12.56167 -7.834325,55.50521 2.405425,59.60111 10.23975,4.0959 11.77188,-20.01319 19.24342,-17.6398 7.471541,2.37339 15.768891,48.22756 14.699801,70.14367"
           id="path5167-5"
           inkscape:connector-curvature="0"
           sodipodi:nodetypes="czzc" />
        <text
           xml:space="preserve"
           style="font-style:normal;font-weight:normal;font-size:10.58333302px;line-height:1.25;font-family:sans-serif;letter-spacing:0px;word-spacing:0px;fill:#000000;fill-opacity:1;stroke:none;stroke-width:0.26458332"
           id="text5228"
           x="-90.336311"
           y="29.104166"
           transform="translate(-128.04817,17.497611)"><textPath
             xlink:href="#path5167-5-3"
             id="textPath5230"
             style="font-style:normal;font-variant:normal;font-weight:normal;font-stretch:normal;font-size:8.46666622px;font-family:'DejaVu Sans Mono';-inkscape-font-specification:'DejaVu Sans Mono'"><tspan
   style="font-style:normal;font-variant:normal;font-weight:normal;font-stretch:normal;font-size:8.46666622px;font-family:'DejaVu Sans Mono';-inkscape-font-specification:'DejaVu Sans Mono';stroke-width:0.26458332"
   id="tspan5224"
   y="149.50342"
   x="22.300737">  = getLine  &gt;&gt;=   print.toUpper</tspan></textPath></text>
        <ellipse
           transform="matrix(0.93969262,-0.34202014,0,1,0,0)"
           ry="41.961315"
           rx="44.654301"
           cx="48.920635"
           cy="194.79691"
           style="fill:#188a17;fill-opacity:1;stroke:#000000;stroke-width:1.03158987;stroke-miterlimit:4;stroke-dasharray:none;stroke-opacity:1"
           id="ellipse5142" />
        <path
           style="fill:#0075be;fill-opacity:1;stroke:#000000;stroke-width:1;stroke-linecap:butt;stroke-linejoin:miter;stroke-miterlimit:4;stroke-dasharray:none;stroke-opacity:1"
           d="m 46.580184,169.20253 c 0,0 3.584168,-16.07383 -1.037477,-16.31343 -4.620296,-0.23951 -11.822284,8.6561 -11.822284,8.6561 0,0 7.181228,-13.61669 14.521908,-13.48354 9.176684,0.16646 4.66429,15.51714 4.269441,22.97196 -0.510268,9.63391 -2.059249,24.30368 2.465125,24.30369 4.524376,-1e-5 10.240251,-4.82745 10.240251,-4.82745 0,0 -5.641599,10.32074 -13.431335,10.48722 -7.789729,0.16646 -5.111095,-24.80308 -5.111095,-24.80308 l -21.46961,24.80306 -7.668561,-0.16645 z"
           id="path5115"
           inkscape:connector-curvature="0"
           sodipodi:nodetypes="cscssscccccc" />
      </g>
      <path
         sodipodi:nodetypes="czcc"
         inkscape:connector-curvature="0"
         id="path5167-5-3"
         d="m 201.09531,164.64129 c 10.64763,20.34911 -5.34664,41.15968 3.09652,54.1149 8.44316,12.95522 26.33325,-16.78101 26.33325,-16.78101 0.35282,8.71659 15.43326,38.10492 14.27598,71.73107"
         style="display:none;fill:none;stroke:#000000;stroke-width:1;stroke-linecap:butt;stroke-linejoin:miter;stroke-miterlimit:4;stroke-dasharray:none;stroke-opacity:1" />
    </g>
    <flowRoot
       xml:space="preserve"
       id="flowRoot1086"
       style="fill:black;fill-opacity:1;stroke:none;font-family:sans-serif;font-style:normal;font-weight:normal;font-size:40px;line-height:1.25;letter-spacing:0px;word-spacing:0px"><flowRegion
         id="flowRegion1088"><rect
           id="rect1090"
           width="29.226282"
           height="44.835529"
           x="1146.4677"
           y="512.46112" /></flowRegion><flowPara
         id="flowPara1092" /></flowRoot>    <flowRoot
       xml:space="preserve"
       id="flowRoot1130"
       style="fill:black;fill-opacity:1;stroke:none;font-family:sans-serif;font-style:normal;font-weight:normal;font-size:40px;line-height:1.25;letter-spacing:0px;word-spacing:0px"><flowRegion
         id="flowRegion1132"><rect
           id="rect1134"
           width="737.41138"
           height="939.44183"
           x="-30.304577"
           y="101.37035" /></flowRegion><flowPara
         id="flowPara1136" /></flowRoot>    <text
       xml:space="preserve"
       style="font-style:normal;font-weight:normal;font-size:10.58333302px;line-height:1.25;font-family:sans-serif;letter-spacing:0px;word-spacing:0px;fill:#000000;fill-opacity:1;stroke:none;stroke-width:0.26458332"
       x="204.19391"
       y="0.86537212"
       id="text1144"><tspan
         sodipodi:role="line"
         id="tspan1142"
         x="204.19391"
         y="0.86537212"
         style="stroke-width:0.26458332" /></text>
  </g>
</svg>
