<?xml version="1.0" encoding="UTF-8"?>
<!DOCTYPE svg PUBLIC "-//W3C//DTD SVG 1.1//EN" "http://www.w3.org/Graphics/SVG/1.1/DTD/svg11.dtd">
<svg version="1.2" width="200mm" height="40mm" viewBox="0 0 20000 4000" preserveAspectRatio="xMidYMid" fill-rule="evenodd" stroke-width="28.222" stroke-linejoin="round" xmlns="http://www.w3.org/2000/svg" xmlns:ooo="http://xml.openoffice.org/svg/export" xmlns:xlink="http://www.w3.org/1999/xlink" xmlns:presentation="http://sun.com/xmlns/staroffice/presentation" xmlns:smil="http://www.w3.org/2001/SMIL20/" xmlns:anim="urn:oasis:names:tc:opendocument:xmlns:animation:1.0" xml:space="preserve">
 <defs class="ClipPathGroup">
  <clipPath id="presentation_clip_path" clipPathUnits="userSpaceOnUse">
   <rect x="0" y="0" width="20000" height="4000"/>
  </clipPath>
  <clipPath id="presentation_clip_path_shrink" clipPathUnits="userSpaceOnUse">
   <rect x="20" y="4" width="19960" height="3992"/>
  </clipPath>
 </defs>
 <defs>
  <font id="EmbeddedFont_1" horiz-adv-x="2048">
   <font-face font-family="Liberation Mono embedded" units-per-em="2048" font-weight="normal" font-style="normal" ascent="1693" descent="609"/>
   <missing-glyph horiz-adv-x="2048" d="M 0,0 L 2047,0 2047,2047 0,2047 0,0 Z"/>
   <glyph unicode="r" horiz-adv-x="821" d="M 1045,918 C 970,931 900,937 833,937 726,937 639,897 573,816 507,735 474,633 474,508 L 474,0 294,0 294,701 C 294,752 290,811 281,880 272,949 259,1016 242,1082 L 413,1082 C 440,990 456,907 461,832 L 466,832 C 499,907 532,962 564,997 596,1032 634,1058 678,1076 722,1093 776,1102 839,1102 908,1102 977,1096 1045,1085 L 1045,918 Z"/>
   <glyph unicode="a" horiz-adv-x="1059" d="M 1101,111 C 1118,111 1138,113 1160,118 L 1160,6 C 1115,-5 1068,-10 1021,-10 954,-10 906,8 876,43 845,78 828,132 824,207 L 818,207 C 775,126 724,68 665,33 606,-2 533,-20 446,-20 341,-20 261,9 208,66 155,123 128,202 128,302 128,535 279,653 582,656 L 818,660 818,719 C 818,806 800,869 765,908 730,946 673,965 596,965 517,965 461,951 426,923 391,895 371,852 364,793 L 176,810 C 207,1005 348,1102 599,1102 732,1102 833,1071 900,1009 967,946 1000,856 1000,738 L 1000,272 C 1000,219 1007,179 1021,152 1035,125 1062,111 1101,111 Z M 492,117 C 556,117 613,132 662,163 711,194 750,235 777,286 804,337 818,390 818,445 L 818,534 628,530 C 549,529 489,520 448,504 407,488 375,464 352,431 329,398 317,354 317,299 317,244 332,200 362,167 391,134 435,117 492,117 Z"/>
  </font>
 </defs>
 <defs>
  <font id="EmbeddedFont_2" horiz-adv-x="2048">
   <font-face font-family="Liberation Sans embedded" units-per-em="2048" font-weight="normal" font-style="normal" ascent="1852" descent="423"/>
   <missing-glyph horiz-adv-x="2048" d="M 0,0 L 2047,0 2047,2047 0,2047 0,0 Z"/>
   <glyph unicode="≜" horiz-adv-x="1297" d="M 217,930 L 1499,930 1499,762 217,762 217,930 Z M 217,522 L 1499,522 1499,352 217,352 217,522 Z M 859,1568 L 693,1134 1027,1134 859,1568 Z M 804,1748 L 916,1748 1205,1011 515,1011 804,1748 Z"/>
   <glyph unicode="p" horiz-adv-x="953" d="M 1053,546 C 1053,169 920,-20 655,-20 488,-20 376,43 319,168 L 314,168 C 317,163 318,106 318,-2 L 318,-425 138,-425 138,861 C 138,972 136,1046 132,1082 L 306,1082 C 307,1079 308,1070 309,1054 310,1037 312,1012 314,978 315,944 316,921 316,908 L 320,908 C 352,975 394,1024 447,1055 500,1086 569,1101 655,1101 788,1101 888,1056 954,967 1020,878 1053,737 1053,546 Z M 864,542 C 864,693 844,800 803,865 762,930 698,962 609,962 538,962 482,947 442,917 401,887 371,840 350,777 329,713 318,630 318,528 318,386 341,281 386,214 431,147 505,113 607,113 696,113 762,146 803,212 844,277 864,387 864,542 Z"/>
   <glyph unicode="c" horiz-adv-x="901" d="M 275,546 C 275,402 298,295 343,226 388,157 457,122 548,122 612,122 666,139 709,174 752,209 778,262 788,334 L 970,322 C 956,218 912,135 837,73 762,11 668,-20 553,-20 402,-20 286,28 207,124 127,219 87,359 87,542 87,724 127,863 207,959 287,1054 402,1102 551,1102 662,1102 754,1073 827,1016 900,959 945,880 964,779 L 779,765 C 770,825 746,873 708,908 670,943 616,961 546,961 451,961 382,929 339,866 296,803 275,696 275,546 Z"/>
   <glyph unicode="b" horiz-adv-x="953" d="M 1053,546 C 1053,169 920,-20 655,-20 573,-20 505,-5 451,25 396,54 352,102 318,168 L 316,168 C 316,147 315,116 312,74 309,31 307,7 306,0 L 132,0 C 136,36 138,110 138,223 L 138,1484 318,1484 318,1061 C 318,1018 317,967 314,908 L 318,908 C 351,977 396,1027 451,1057 506,1087 574,1102 655,1102 792,1102 892,1056 957,964 1021,872 1053,733 1053,546 Z M 864,540 C 864,691 844,800 804,865 764,930 699,963 609,963 508,963 434,928 388,859 341,790 318,680 318,529 318,387 341,282 386,215 431,147 505,113 607,113 698,113 763,147 804,214 844,281 864,389 864,540 Z"/>
   <glyph unicode=" " horiz-adv-x="556"/>
  </font>
 </defs>
 <defs class="TextShapeIndex">
  <g ooo:slide="id1" ooo:id-list="id3 id4 id5 id6 id7 id8 id9"/>
 </defs>
 <defs class="EmbeddedBulletChars">
  <g id="bullet-char-template-57356" transform="scale(0.00048828125,-0.00048828125)">
   <path d="M 580,1141 L 1163,571 580,0 -4,571 580,1141 Z"/>
  </g>
  <g id="bullet-char-template-57354" transform="scale(0.00048828125,-0.00048828125)">
   <path d="M 8,1128 L 1137,1128 1137,0 8,0 8,1128 Z"/>
  </g>
  <g id="bullet-char-template-10146" transform="scale(0.00048828125,-0.00048828125)">
   <path d="M 174,0 L 602,739 174,1481 1456,739 174,0 Z M 1358,739 L 309,1346 659,739 1358,739 Z"/>
  </g>
  <g id="bullet-char-template-10132" transform="scale(0.00048828125,-0.00048828125)">
   <path d="M 2015,739 L 1276,0 717,0 1260,543 174,543 174,936 1260,936 717,1481 1274,1481 2015,739 Z"/>
  </g>
  <g id="bullet-char-template-10007" transform="scale(0.00048828125,-0.00048828125)">
   <path d="M 0,-2 C -7,14 -16,27 -25,37 L 356,567 C 262,823 215,952 215,954 215,979 228,992 255,992 264,992 276,990 289,987 310,991 331,999 354,1012 L 381,999 492,748 772,1049 836,1024 860,1049 C 881,1039 901,1025 922,1006 886,937 835,863 770,784 769,783 710,716 594,584 L 774,223 C 774,196 753,168 711,139 L 727,119 C 717,90 699,76 672,76 641,76 570,178 457,381 L 164,-76 C 142,-110 111,-127 72,-127 30,-127 9,-110 8,-76 1,-67 -2,-52 -2,-32 -2,-23 -1,-13 0,-2 Z"/>
  </g>
  <g id="bullet-char-template-10004" transform="scale(0.00048828125,-0.00048828125)">
   <path d="M 285,-33 C 182,-33 111,30 74,156 52,228 41,333 41,471 41,549 55,616 82,672 116,743 169,778 240,778 293,778 328,747 346,684 L 369,508 C 377,444 397,411 428,410 L 1163,1116 C 1174,1127 1196,1133 1229,1133 1271,1133 1292,1118 1292,1087 L 1292,965 C 1292,929 1282,901 1262,881 L 442,47 C 390,-6 338,-33 285,-33 Z"/>
  </g>
  <g id="bullet-char-template-9679" transform="scale(0.00048828125,-0.00048828125)">
   <path d="M 813,0 C 632,0 489,54 383,161 276,268 223,411 223,592 223,773 276,916 383,1023 489,1130 632,1184 813,1184 992,1184 1136,1130 1245,1023 1353,916 1407,772 1407,592 1407,412 1353,268 1245,161 1136,54 992,0 813,0 Z"/>
  </g>
  <g id="bullet-char-template-8226" transform="scale(0.00048828125,-0.00048828125)">
   <path d="M 346,457 C 273,457 209,483 155,535 101,586 74,649 74,723 74,796 101,859 155,911 209,963 273,989 346,989 419,989 480,963 531,910 582,859 608,796 608,723 608,648 583,586 532,535 482,483 420,457 346,457 Z"/>
  </g>
  <g id="bullet-char-template-8211" transform="scale(0.00048828125,-0.00048828125)">
   <path d="M -4,459 L 1135,459 1135,606 -4,606 -4,459 Z"/>
  </g>
  <g id="bullet-char-template-61548" transform="scale(0.00048828125,-0.00048828125)">
   <path d="M 173,740 C 173,903 231,1043 346,1159 462,1274 601,1332 765,1332 928,1332 1067,1274 1183,1159 1299,1043 1357,903 1357,740 1357,577 1299,437 1183,322 1067,206 928,148 765,148 601,148 462,206 346,322 231,437 173,577 173,740 Z"/>
  </g>
 </defs>
 <g>
  <g id="id2" class="Master_Slide">
   <g id="bg-id2" class="Background"/>
   <g id="bo-id2" class="BackgroundObjects"/>
  </g>
 </g>
 <g class="SlideGroup">
  <g>
   <g id="container-id1">
    <g id="id1" class="Slide" clip-path="url(#presentation_clip_path)">
     <g class="Page">
      <g class="com.sun.star.drawing.CustomShape">
       <g id="id3">
        <rect class="BoundingBox" stroke="none" fill="none" x="8533" y="982" width="1914" height="1971"/>
        <path fill="rgb(129,212,26)" stroke="none" d="M 9490,2934 L 8551,2934 8551,1000 10428,1000 10428,2934 9490,2934 Z"/>
        <path fill="none" stroke="rgb(0,0,0)" stroke-width="35" stroke-linejoin="round" d="M 9490,2934 L 8551,2934 8551,1000 10428,1000 10428,2934 9490,2934 Z"/>
       </g>
      </g>
      <g class="com.sun.star.drawing.CustomShape">
       <g id="id4">
        <rect class="BoundingBox" stroke="none" fill="none" x="2369" y="1257" width="1379" height="1419"/>
        <path fill="rgb(114,159,207)" stroke="none" d="M 3729,1966 C 3729,2087 3698,2206 3639,2312 3580,2417 3496,2504 3394,2564 3291,2625 3176,2657 3058,2657 2940,2657 2825,2625 2723,2564 2620,2504 2536,2417 2477,2312 2418,2206 2387,2087 2387,1966 2387,1845 2418,1726 2477,1621 2536,1515 2620,1428 2722,1368 2825,1307 2940,1275 3058,1275 3176,1275 3291,1307 3393,1368 3496,1428 3580,1515 3639,1620 3698,1726 3729,1845 3729,1966 L 3729,1966 Z"/>
        <path fill="none" stroke="rgb(0,0,0)" stroke-width="35" stroke-linejoin="round" d="M 3729,1966 C 3729,2087 3698,2206 3639,2312 3580,2417 3496,2504 3394,2564 3291,2625 3176,2657 3058,2657 2940,2657 2825,2625 2723,2564 2620,2504 2536,2417 2477,2312 2418,2206 2387,2087 2387,1966 2387,1845 2418,1726 2477,1621 2536,1515 2620,1428 2722,1368 2825,1307 2940,1275 3058,1275 3176,1275 3291,1307 3393,1368 3496,1428 3580,1515 3639,1620 3698,1726 3729,1845 3729,1966 L 3729,1966 Z"/>
        <text class="SVGTextShape"><tspan class="TextParagraph" font-family="Liberation Sans, sans-serif" font-size="702px" font-weight="400"><tspan class="TextPosition" x="2863" y="2209"><tspan fill="rgb(0,0,0)" stroke="none" style="white-space: pre">p</tspan></tspan></tspan></text>
       </g>
      </g>
      <g class="com.sun.star.drawing.CustomShape">
       <g id="id5">
        <rect class="BoundingBox" stroke="none" fill="none" x="5067" y="1551" width="1073" height="1106"/>
        <text class="SVGTextShape"><tspan class="TextParagraph" font-family="Liberation Sans, sans-serif" font-size="702px" font-weight="400"><tspan class="TextPosition" x="5317" y="2347"><tspan fill="rgb(0,0,0)" stroke="none" style="white-space: pre">≜</tspan></tspan></tspan></text>
       </g>
      </g>
      <g class="com.sun.star.drawing.CustomShape">
       <g id="id6">
        <rect class="BoundingBox" stroke="none" fill="none" x="500" y="1551" width="2001" height="1106"/>
        <text class="SVGTextShape"><tspan class="TextParagraph" font-family="Liberation Mono, monospace" font-size="702px" font-weight="400"><tspan class="TextPosition" x="865" y="2290"><tspan fill="rgb(0,0,0)" stroke="none" style="white-space: pre">arr</tspan></tspan></tspan></text>
       </g>
      </g>
      <g class="com.sun.star.drawing.CustomShape">
       <g id="id7">
        <rect class="BoundingBox" stroke="none" fill="none" x="8802" y="1257" width="1379" height="1419"/>
        <path fill="rgb(114,159,207)" stroke="none" d="M 10162,1966 C 10162,2087 10131,2206 10072,2312 10013,2417 9929,2504 9827,2564 9724,2625 9609,2657 9491,2657 9373,2657 9258,2625 9156,2564 9053,2504 8969,2417 8910,2312 8851,2206 8820,2087 8820,1966 8820,1845 8851,1726 8910,1621 8969,1515 9053,1428 9156,1368 9258,1307 9373,1275 9491,1275 9609,1275 9724,1307 9827,1368 9929,1428 10013,1515 10072,1620 10131,1726 10162,1845 10162,1966 L 10162,1966 Z"/>
        <path fill="none" stroke="rgb(0,0,0)" stroke-width="35" stroke-linejoin="round" d="M 10162,1966 C 10162,2087 10131,2206 10072,2312 10013,2417 9929,2504 9827,2564 9724,2625 9609,2657 9491,2657 9373,2657 9258,2625 9156,2564 9053,2504 8969,2417 8910,2312 8851,2206 8820,2087 8820,1966 8820,1845 8851,1726 8910,1621 8969,1515 9053,1428 9156,1368 9258,1307 9373,1275 9491,1275 9609,1275 9724,1307 9827,1368 9929,1428 10013,1515 10072,1620 10131,1726 10162,1845 10162,1966 L 10162,1966 Z"/>
        <text class="SVGTextShape"><tspan class="TextParagraph" font-family="Liberation Sans, sans-serif" font-size="702px" font-weight="400"><tspan class="TextPosition" x="9296" y="2209"><tspan fill="rgb(0,0,0)" stroke="none" style="white-space: pre">p</tspan></tspan></tspan></text>
       </g>
      </g>
      <g class="com.sun.star.drawing.LineShape">
       <g id="id8">
        <rect class="BoundingBox" stroke="none" fill="none" x="7463" y="1448" width="1091" height="834"/>
        <path fill="none" stroke="rgb(0,0,0)" stroke-width="35" stroke-linejoin="miter" d="M 7481,2105 L 8342,2105"/>
        <path fill="rgb(0,0,0)" stroke="none" d="M 8553,2105 L 8318,1929 8345,1964 8366,2007 8380,2053 8386,2103 8382,2153 8367,2201 8346,2244 8318,2281 8553,2105 Z"/>
        <text class="SVGTextShape"><tspan class="TextParagraph" font-family="Liberation Sans, sans-serif" font-size="702px" font-weight="400"><tspan class="TextPosition" x="7725" y="1957"><tspan fill="rgb(0,0,0)" stroke="none" style="white-space: pre">b </tspan></tspan></tspan></text>
       </g>
      </g>
      <g class="com.sun.star.drawing.LineShape">
       <g id="id9">
        <rect class="BoundingBox" stroke="none" fill="none" x="10410" y="1580" width="1091" height="703"/>
        <path fill="none" stroke="rgb(0,0,0)" stroke-width="35" stroke-linejoin="miter" d="M 10428,2106 L 11289,2106"/>
        <path fill="rgb(0,0,0)" stroke="none" d="M 11500,2106 L 11265,1930 11292,1965 11313,2008 11327,2054 11333,2104 11329,2154 11314,2202 11293,2245 11265,2282 11500,2106 Z"/>
        <text class="SVGTextShape"><tspan class="TextParagraph" font-family="Liberation Sans, sans-serif" font-size="702px" font-weight="400"><tspan class="TextPosition" x="10691" y="1958"><tspan fill="rgb(0,0,0)" stroke="none" style="white-space: pre">c </tspan></tspan></tspan></text>
       </g>
      </g>
     </g>
    </g>
   </g>
  </g>
 </g>
</svg>