<?xml version="1.0" encoding="UTF-8" standalone="no"?>
<svg
   width="1280pt"
   height="720pt"
   viewBox="0 0 451.55557 254"
   version="1.1"
   id="svg8"
   inkscape:version="1.3.2 (091e20ef0f, 2023-11-25)"
   sodipodi:docname="thumbnail_116.svg"
   inkscape:export-filename="thumbnail_116.png"
   inkscape:export-xdpi="57.593498"
   inkscape:export-ydpi="57.593498"
   xmlns:inkscape="http://www.inkscape.org/namespaces/inkscape"
   xmlns:sodipodi="http://sodipodi.sourceforge.net/DTD/sodipodi-0.dtd"
   xmlns:xlink="http://www.w3.org/1999/xlink"
   xmlns="http://www.w3.org/2000/svg"
   xmlns:svg="http://www.w3.org/2000/svg"
   xmlns:rdf="http://www.w3.org/1999/02/22-rdf-syntax-ns#"
   xmlns:cc="http://creativecommons.org/ns#"
   xmlns:dc="http://purl.org/dc/elements/1.1/">
  <defs
     id="defs2">
    <path
       sodipodi:nodetypes="czzc"
       inkscape:connector-curvature="0"
       id="path5167-5-3-6"
       d="m 165.68141,140.85891 c 8.75775,2.20625 -7.63349,52.69351 2.40542,59.60111 10.03891,6.9076 10.02941,-24.36935 19.24342,-17.6398 9.21401,6.72955 15.82865,43.17979 14.69981,64.9465"
       style="fill:none;stroke:#000000;stroke-width:1;stroke-linecap:butt;stroke-linejoin:miter;stroke-miterlimit:4;stroke-dasharray:none;stroke-opacity:1" />
    <clipPath
       id="clip1-3">
      <path
         inkscape:connector-curvature="0"
         id="path1008"
         d="M 0,340.15625 H 481.89062 V 0 H 0 Z m 0,0" />
    </clipPath>
    <clipPath
       id="clipPath8">
      <path
         inkscape:connector-curvature="0"
         d="M 76,2 V 48 H 54 V 71 H 35.580737 c -0.07818,0.665694 -0.141485,1.332869 -0.205737,2 -1.151162,12.530963 1.036422,24.087546 6.0625,33.96875 L 43.125,110 c 1.011403,1.81678 2.191241,3.52297 3.4375,5.1875 1.244725,1.66248 1.685716,2.58262 2.46875,3.6875 C 62.319911,133.81083 82.129473,141 105,141 155.64836,141 198.63299,118.56201 217.65625,68.15625 231.15302,69.54122 244.09968,66.080358 250,54.5625 240.60137,49.138835 228.52163,50.877226 221.5625,54.375 L 240,2 168,48 H 145 V 2 Z"
         id="path10" />
    </clipPath>
    <clipPath
       id="clipPath4558">
      <path
         inkscape:connector-curvature="0"
         d="M 76,2 V 48 H 54 V 71 H 35.580737 c -0.07818,0.665694 -0.141485,1.332869 -0.205737,2 -1.151162,12.530963 1.036422,24.087546 6.0625,33.96875 L 43.125,110 c 1.011403,1.81678 2.191241,3.52297 3.4375,5.1875 1.244725,1.66248 1.685716,2.58262 2.46875,3.6875 C 62.319911,133.81083 82.129473,141 105,141 155.64836,141 198.63299,118.56201 217.65625,68.15625 231.15302,69.54122 244.09968,66.080358 250,54.5625 240.60137,49.138835 228.52163,50.877226 221.5625,54.375 L 240,2 168,48 H 145 V 2 Z"
         id="path4556" />
    </clipPath>
    <clipPath
       id="clipPath4562">
      <path
         inkscape:connector-curvature="0"
         d="M 76,2 V 48 H 54 V 71 H 35.580737 c -0.07818,0.665694 -0.141485,1.332869 -0.205737,2 -1.151162,12.530963 1.036422,24.087546 6.0625,33.96875 L 43.125,110 c 1.011403,1.81678 2.191241,3.52297 3.4375,5.1875 1.244725,1.66248 1.685716,2.58262 2.46875,3.6875 C 62.319911,133.81083 82.129473,141 105,141 155.64836,141 198.63299,118.56201 217.65625,68.15625 231.15302,69.54122 244.09968,66.080358 250,54.5625 240.60137,49.138835 228.52163,50.877226 221.5625,54.375 L 240,2 168,48 H 145 V 2 Z"
         id="path4560" />
    </clipPath>
    <clipPath
       id="clipPath4566">
      <path
         inkscape:connector-curvature="0"
         d="M 76,2 V 48 H 54 V 71 H 35.580737 c -0.07818,0.665694 -0.141485,1.332869 -0.205737,2 -1.151162,12.530963 1.036422,24.087546 6.0625,33.96875 L 43.125,110 c 1.011403,1.81678 2.191241,3.52297 3.4375,5.1875 1.244725,1.66248 1.685716,2.58262 2.46875,3.6875 C 62.319911,133.81083 82.129473,141 105,141 155.64836,141 198.63299,118.56201 217.65625,68.15625 231.15302,69.54122 244.09968,66.080358 250,54.5625 240.60137,49.138835 228.52163,50.877226 221.5625,54.375 L 240,2 168,48 H 145 V 2 Z"
         id="path4564" />
    </clipPath>
    <clipPath
       id="clipPath4570">
      <path
         inkscape:connector-curvature="0"
         d="M 76,2 V 48 H 54 V 71 H 35.580737 c -0.07818,0.665694 -0.141485,1.332869 -0.205737,2 -1.151162,12.530963 1.036422,24.087546 6.0625,33.96875 L 43.125,110 c 1.011403,1.81678 2.191241,3.52297 3.4375,5.1875 1.244725,1.66248 1.685716,2.58262 2.46875,3.6875 C 62.319911,133.81083 82.129473,141 105,141 155.64836,141 198.63299,118.56201 217.65625,68.15625 231.15302,69.54122 244.09968,66.080358 250,54.5625 240.60137,49.138835 228.52163,50.877226 221.5625,54.375 L 240,2 168,48 H 145 V 2 Z"
         id="path4568" />
    </clipPath>
    <linearGradient
       id="linearGradient4702-3">
      <stop
         style="stop-color:#ff0000;stop-opacity:0.58431375;"
         offset="0"
         id="stop4704-1" />
      <stop
         style="stop-color:#ffcc00;stop-opacity:1;"
         offset="1"
         id="stop4706-8" />
    </linearGradient>
    <linearGradient
       id="linearGradient4696-5">
      <stop
         style="stop-color:#ffb638;stop-opacity:1;"
         offset="0"
         id="stop4698-6" />
      <stop
         style="stop-color:#f0ae26;stop-opacity:1;"
         offset="1"
         id="stop4700-2" />
    </linearGradient>
    <clipPath
       id="clip1-3-3">
      <path
         inkscape:connector-curvature="0"
         id="path1008-6"
         d="M 0,340.15625 H 481.89062 V 0 H 0 Z m 0,0" />
    </clipPath>
    <mask
       id="mask0"
       mask-type="alpha"
       maskUnits="userSpaceOnUse"
       x="0"
       y="0"
       width="256"
       height="256">
      <path
         style="clip-rule:evenodd;fill:#ffffff;fill-rule:evenodd"
         inkscape:connector-curvature="0"
         d="m 181.534,254.252 c 4.032,1.571 8.63,1.47 12.7,-0.488 l 52.706,-25.361 c 5.538,-2.665 9.06,-8.271 9.06,-14.42 V 42.0181 c 0,-6.1492 -3.522,-11.7543 -9.06,-14.4193 L 194.234,2.23681 c -5.341,-2.569942 -11.592,-1.940466 -16.279,1.46737 -0.67,0.48682 -1.308,1.03036 -1.906,1.62936 L 75.149,97.3862 31.1992,64.0247 C 27.1079,60.9191 21.3853,61.1735 17.5855,64.63 L 3.48936,77.4525 c -4.64789,4.228 -4.65322,11.5401 -0.01151,15.7749 L 41.5926,128 3.47785,162.773 c -4.64171,4.235 -4.63638,11.547 0.01151,15.775 L 17.5855,191.37 c 3.7998,3.457 9.5224,3.711 13.6137,0.606 l 43.9498,-33.362 100.9,92.053 c 1.596,1.597 3.47,2.8 5.485,3.585 z M 192.039,69.8853 115.479,128 l 76.56,58.115 z"
         id="path994" />
    </mask>
    <filter
       style="color-interpolation-filters:sRGB"
       id="filter0_d"
       x="-21.489599"
       y="40.522499"
       width="298.82199"
       height="236.149"
       filterUnits="userSpaceOnUse">
      <feFlood
         flood-opacity="0"
         result="BackgroundImageFix"
         id="feFlood1013" />
      <feColorMatrix
         in="SourceAlpha"
         type="matrix"
         values="0 0 0 0 0 0 0 0 0 0 0 0 0 0 0 0 0 0 127 0"
         id="feColorMatrix1015" />
      <feOffset
         id="feOffset1017" />
      <feGaussianBlur
         stdDeviation="10.6667"
         id="feGaussianBlur1019" />
      <feColorMatrix
         type="matrix"
         values="0 0 0 0 0 0 0 0 0 0 0 0 0 0 0 0 0 0 0.25 0"
         id="feColorMatrix1021" />
      <feBlend
         mode="overlay"
         in2="BackgroundImageFix"
         result="effect1_dropShadow"
         id="feBlend1023" />
      <feBlend
         mode="normal"
         in="SourceGraphic"
         in2="effect1_dropShadow"
         result="shape"
         id="feBlend1025" />
    </filter>
    <filter
       style="color-interpolation-filters:sRGB"
       id="filter1_d"
       x="154.66701"
       y="-20.6735"
       width="122.667"
       height="297.34698"
       filterUnits="userSpaceOnUse">
      <feFlood
         flood-opacity="0"
         result="BackgroundImageFix"
         id="feFlood1028" />
      <feColorMatrix
         in="SourceAlpha"
         type="matrix"
         values="0 0 0 0 0 0 0 0 0 0 0 0 0 0 0 0 0 0 127 0"
         id="feColorMatrix1030" />
      <feOffset
         id="feOffset1032" />
      <feGaussianBlur
         stdDeviation="10.6667"
         id="feGaussianBlur1034" />
      <feColorMatrix
         type="matrix"
         values="0 0 0 0 0 0 0 0 0 0 0 0 0 0 0 0 0 0 0.25 0"
         id="feColorMatrix1036" />
      <feBlend
         mode="overlay"
         in2="BackgroundImageFix"
         result="effect1_dropShadow"
         id="feBlend1038" />
      <feBlend
         mode="normal"
         in="SourceGraphic"
         in2="effect1_dropShadow"
         result="shape"
         id="feBlend1040" />
    </filter>
    <linearGradient
       id="paint0_linear"
       x1="127.844"
       y1="0.65998799"
       x2="127.844"
       y2="255.34"
       gradientUnits="userSpaceOnUse">
      <stop
         stop-color="white"
         id="stop1043" />
      <stop
         offset="1"
         stop-color="white"
         stop-opacity="0"
         id="stop1045" />
    </linearGradient>
    <clipPath
       id="clip1-3-3-3">
      <path
         inkscape:connector-curvature="0"
         id="path1008-6-6"
         d="M 0,340.15625 H 481.89062 V 0 H 0 Z m 0,0" />
    </clipPath>
    <clipPath
       id="clip1-3-3-3-3">
      <path
         inkscape:connector-curvature="0"
         id="path1008-6-6-6"
         d="M 0,340.15625 H 481.89062 V 0 H 0 Z m 0,0" />
    </clipPath>
  </defs>
  <sodipodi:namedview
     id="base"
     pagecolor="#ffffff"
     bordercolor="#666666"
     borderopacity="1.0"
     inkscape:pageopacity="0.0"
     inkscape:pageshadow="2"
     inkscape:zoom="0.7"
     inkscape:cx="899.28571"
     inkscape:cy="565"
     inkscape:document-units="mm"
     inkscape:current-layer="layer1"
     showgrid="false"
     units="pt"
     showguides="true"
     inkscape:guide-bbox="true"
     inkscape:window-width="1916"
     inkscape:window-height="1029"
     inkscape:window-x="0"
     inkscape:window-y="24"
     inkscape:window-maximized="1"
     inkscape:pagecheckerboard="true"
     inkscape:document-rotation="0"
     inkscape:showpageshadow="0"
     inkscape:deskcolor="#d1d1d1" />
  <metadata
     id="metadata5">
    <rdf:RDF>
      <cc:Work
         rdf:about="">
        <dc:format>image/svg+xml</dc:format>
        <dc:type
           rdf:resource="http://purl.org/dc/dcmitype/StillImage" />
      </cc:Work>
    </rdf:RDF>
  </metadata>
  <g
     inkscape:label="Calque 1"
     inkscape:groupmode="layer"
     id="layer1"
     transform="translate(0,-43.000005)">
    <rect
       style="fill:#ffffff;fill-opacity:1;stroke:none;stroke-width:0.94669914;stroke-miterlimit:4;stroke-dasharray:none;stroke-opacity:1"
       id="rect891"
       width="451.60654"
       height="254.14574"
       x="0.0023248347"
       y="42.995995" />
    <image
       width="52.916668"
       height="52.916668"
       preserveAspectRatio="none"
       xlink:href="data:image/png;base64,iVBORw0KGgoAAAANSUhEUgAAAMgAAADICAYAAACtWK6eAAAABHNCSVQICAgIfAhkiAAAIABJREFU eJzt3Xl4ndV17/HP0WjLs40HwBgDxoCZhxRTAkkYAhkIuSkZ6G3SltLb3iFp0ya9T26fmzZJh9v2 Pm1umqbpkIShTYoJBAijgVg2NtgYY2wmM9hMnrAtWZZsaz7v/WPr9TkWli2dQZKl/X2e8wBi7/cc 6by/d6+19tprEYlEIpFIZIhZQtVQf4ZIZNiSkLmPM3/KxcjkvSJHKfHLKwOLmJdw8z4W38QyZJH0 vCKRUU/lOYy7ja//mIe/w2WoQaX4UIpEVKAWk/43H/gJz/87P/9LLhSFclRROdQfYASTIFlG4xru Pp+5c/jnT3Dhuayvp0k0uYY9USDlIxF8j2wT2YdYN4UVc/nsLL7yUWYcz/rVtIpCGbZEgZSX1DHv Qvcadq3k4XOZPJWbTuS3rqGqg/Ubw5h0TmSYEAVSfvJF0tlC+8OsnspLJ3BZHR87m8+9n4ZHeE2M dg0rokAGjwTd6EDnGra8w5IzmD+esybyyeu54kxeXca7okiGBVEgg0vql3SiYystj7BkAZnpnF/J nBl84VpOns5za9knCmVIiQIZGrKCydWRpbWe56t48SQuqmZCLWefwm9eSeUWntseVh6iWAadKJCh I9/kanuBbS9SfyanjGdOhto6PngxnziX1+vZIvong04UyNCTOvBtDbQ8xLLZ7J/NhRkqK5k+nRuv DX7K6vXR7BpUokCGB+lq0o7WlWxI2HAy76tmPDK1nH4Kv3oJDYt5RS6/K1JGokCGD6kD34G2l9my jqVnc+p4ZkMFdZO47iNcMJ5nnmevKJKyEgUy/DhgcjXR/BjL5jN2BmdnevK3apg3n1+/lM5HWCc6 8WUjCmR4cmA1ydK6jLXHsH02Cyuphgw1E7nyI1wyhdXP0SwKpOREgQxfDjK5nmFjG2vns7Caiemg GuaexI0XsePxsBPfLQqlZESBDH8OmFyvsWMD9WdxzjiOTQdUMGYq113DmW08uTEkQEYnvgREgRwd HIhy7aJlBfUXMXcC8/IH1XLa2XzqVDasYKsokqKJAjl6OLCx2M7+h1l+GlWzwiGsA4evKpk0ixsu pfIRnpUzuaJQCiAK5OgjzeVqW8b6OTQdz6WZcIoRZKicyGVXcd5OVmyJJlfBRIEcnRzwS57i1am8 M4cPVvQqOzSWUy7iE8ez7umQIRxFMkCiQI5eUpG0r+GNWl4+mSsqw1n4A1QyeQ43LGDH0oOjXFEo /SAK5OjmgPP+PFu6WXsaV1ZRlz8oQ/VMPvJL1D7KGkFYcTXpB1EgRz8Hzpi8wrsdrDmdq6oY12tc ZjILP8QZb7N8B23inskRiQIZGaQrSedr7GxnVY9IxvceWMf8C7h8K/VbQ2Zw93uuFjlArM00AB5k Yhuf7OYkTO1mSgVjk/f+HZuxo5udGRo6ebmJl790cHJhOZ7cGSEVZeLHuPBGbq1h5qEG7uO1f+cL j/GynFDiatKLKJAB8iPGVHBNDTdU8LEMU/o5NZvlzQxru1i8l4d/5+BDUKW6OTNCNGviJ1j4WW6v 7uMztrHlXn7jLp4RRNJVws8xIogCGTgVQnXE8ccw9fNcNY9rp3F5BZP6e5EMSRfPd3Dr09z6D+xR uqzcAyL5VT7wMW6pZsKhBnay66d8/mc8jRZRJAcRfZDCqEDlfipXsutBnnuAR7BpPJXjmVVx5L9t poKZ1Vwzl//6UU44mxeXBTOsFCTofJ53Z7Bhbljt3tOeoZK6+Xy4ndWv0SBsQkaB9BAFUhj558nb 0dpF6wtsXcyalSyro2UyU8bkZd4ehtoaLprBTVdiC+tLVKghQdczbD6Z7cdyTeYQVkMV487gmizP vMIuUSQHiAIpjFQgXUK4dJ9gnuzBnhYan2bDz1nWzpuTmTCR6Ye6OfPpKdRwxUKuO46VT7NbCOEW QxZdK3j9IqqncMmhBlUxbj5XNrL8rVA3OIpEFEixpHsQ6WrSKphIzXrE8gpvLWblW6w9lkmTOe5I Qqlkxgl8dh6blvOW4iNMWXQ9xrMf4JRxnHGoQVWMP4OFL1C/OzrtiAIpJYcVy1befYyn32HdbKZN Duc5+hRKhjHHcv0Z7F7KBrmbtdAbNouul1jxy1zZV/i3lmPO47x6lnSG32FUiyQKpDykYukSfJT9 ggnWvIVti3mqizfnMO8IPkrFDK44ge1PsUkwe4pJEck20V7D6tNDmHrMoQbVcfxZTHuc1T2ff9SK JAqk/BzY5RaeyC1o3sBbj1M/l9pZnCYvXb0XFcfzoTG8sj7sm3QqfPc7QfdL7D6NzcfyCX2sYtNY MJ2G1Ww0itNSRpRAEjLfGOoP0Tf5QmnDvk6an+C5dl49hfNqDpEaAhmq5rJwLUuagtnWoXDnPUH3 E2y6grl1nNXHuMxsFu5n3eshVb7dKExLGVECGcbiyCe/gHUb9r3COy+w7GzOHJ931jyfHgf6xEd4 UliJio0ydbey6lz+UyWTDzWggqp5XPAEj7cFM7EYYR6VjCiBHGXk76W07qZ5BUvP5fjJnHqoCRM5 aSzb1/GGIK5ifIPkDdoW8OYsPq0PU6uWyacwrp61csIcNSKJAhl60shXezv7HuXJi5g2pQ/TZxbz FvOLrvBET32Dgt97GW99mDPHcHpfg47hjHY2vBp8oFajyB+JAhkeHFQD6zFWLeTYSZzZe2AtEyey d004HbhP8A2K2iM5lmdP4jcyIcfsPWSomMP8h1mSzb3nqFhFokCGF4lgwrSv4qn3c+5Y5vYeNJ05 D7AkCRGx/YpbRZI17L2KiWP55b4GjWXqVPY9Ewpnp/7IiF9FokCGHwm622l/heWXcGU1x+QPqGV8 N2+/zDuCSIpeRSbz/DxuqmBsX4NmMX8VT+wNqSipqTWiiQIZniTobqS1gqdP59MVvYoxjKfu0bCR t0fxq4j1tH+EsbVc3teYasZMI3mSF4wSU+s96c9HO0uoaua8Nq7E1AqmZKnN9BQy6OP0XzeaEtoz 7MiytZLt7Wx/mnf+PpgTPdMHjSxa72b9BXx9Pn+X/z9P5NyTmPNGqKC4W3EmT4KuF/n+Jfyhw6wi 5/CxSdy9h0Y5YY5YU2vEHphaRM0uLqjj/dVcUs3FOL6AS3VmeT3DS128kOG5t1j6tfDkLufxWcL3 U4kJ/8ztk/lY/v98hNt/wO14CTsE/6UYqm/hR3X858MNque27/EveFUQStfhxh/NjFSBpDfWGKG6 Rx3qrmLuBVw0mwun8r4aZhV48a5ununmsb3c/zuhlE6aI1VqsWRQ/Xnmf5wnM3knA99m3Vf4Czwv ZP22Fvn+Fd/jsmOoP9ygPWz+bb6EF7G5BO87bBnpPkj6AKhA9SY6V7DtIdbdzeIt4ZhpQy3VdUw9 Uhp6HhUZZldy+Vhu/hU+dR1jFrDpiWCXl5rselouJTuRK9IfjmfKQ/yiM6xmTYp31pMH2PYpvlDR x+46jGFiAxt6zLvmErzvsGUkC6R3+nl6sGmfkM/U9g6NT/Hagzz1LCsqaRpL7QSmGsDqmmFGNdfM 4r9/lFkn89zK8FQt6e/zCusu51NVTCOkgjSwcWN4iu8WfIJinebkek6qCiZpn9ShnueUKEgwXBnJ AuHQItnb80qfurvRtJvGZ3jlIZ58kVW1tB8Tbvw+HdZDUF3D+2bzW9eEe2jdqzm/oOgnbBPdl7Fz Ir+S/mw/O1eF8yKNPb9X0f7A9VRXc+PhxtQx8d5gijULoeaOw40/WhnpAsknXyzpOY38Q00HxLKT nSt54WGW1LDjGGaOHVjFkjFjuPxMPnkyzz3JTqUJhyaPsPE6rq7qCTgktD8ayvbsFkRfrKPuYnZM C9GsvlLw1TD2DdZvDcGBdF9kxJlZo0kgvckXTKeDDzbtQVMXTevYeD/1FWyZycy6YH71iwqmHc+N F9D8eIg0laJwdPYDbJ/Q84QfQ83PWCIn8qL9gcfp+BU+l2H64cZ10rg67KzvNkKrNI5mgfQmvxBD b7HseZE3HuCJsTTMZl51rwLRh6FqGldfwsRHwsZe0YWjH+at6/loJcdWMXYVy3v2JRqFG7Xo1erT XJU5TAIjdLP/8dCkp1EQaNGr13AjCuTQ5B9uahduumY0r+P1J6ifTdUMTs3072+Ymcj7FjJlcRBJ eiqw4I29K2gaxw2wmedfDxGlBkHURT/Jb+CCDJcebkwVFffxhNJF0YYdUSBHJt/J34+9rTQ9wbpd PD+fs8b00z+ZxAVnktSHVI0ORYhkPRuv5DMVTGtkw5pwZj19khftqN/A+RmuPtyYWsbex+Pd4T0b 5TpZjRj6dMIiB3GgD4dwM2zHxnoe/Qo3beDnmX7e6Av4vZv5uJCAWKuw7yDZTEcL/wrHhtq7FT3X q1KCDeBMWBGOROWJIeQ8VkiVH3Ebz1EgA+NA6zPhBtqyh5e/zteX8lfd/bPBKy/nm+ewQLixqxV2 Y2XXckuWfceEwEG251olEUjSz1XouCCQWkEgI+5+GnG/0CCRCqVVKNX51nf50X38flewxw/LGKb+ Gl8Rzp9PUJipm3yfxnYWjQsmXrsSCkQfh6d6MzkEK6p7XiPufhpxv9AgkxZfaMHWn3D/7dzcFuzx w3ISV1zPhwRTa6zCvotsI9+tCbW19srloJXCxOpXlK6ncWilIJCSvPdwIgqkeNLVZD92PsSKe7i5 6wgiSchcw004TrjBCzG1sl/m+WzYi0g3CUtyg1aEz3VEaoJAKgRxjLj7acT9QkNIVjBzGu9m+b38 9pHMrWM445PhgNJ0ha8i3R38ZE4w99qULsx6Yn8GdYSHQ0XeK64gkT5JCy/suYNlS/lS9giO+2Wh uuEswY8oaBWp5655uQrzJdmsSzinP+OagygZYcJIiQIpPWnhheZ/4qGN/PXhBp/AOQtCHaw0GjTg G+122n4RggV7hBu2qL2IRaHC4yFrc/Vmdy4Hq1znYYaUKJDykIpkzx/znZ387DBjKz/MBwVnvdCI VlYuU7noc+IZLtPPe+ONXA+T9DWiiAIpHwdE8l2+3B6qIR6S+Vwo7GVMUtiGW35qTNG76AnX9Gdc O/sac4JMc8xGFFEg5SVB58vseInf10eO1HTmzAtRoykKd9bT9yuKhEyG6/oztinkfqXiKDa/bFgS BVJ+suj4S5bs5IeHGpCQWRic4snC/sOQ5cjdycKEk/sz9t1wkjENTIzIwtZRIINDFq0/5E86ePtQ A04NPUImCA5yqXbDB0wFv9nfsZty/UrajNCehkdNXawfM7MqJPldmwmmCIzPhtBoPnsytCfsy7K3 Ipzm29oV6l1taeLVL4Zkw3KX7MknQfcaGrfxzRN7kgzzmR5OCI4VBFKjtHsa/eLHzMzy+f6OX8Wb cmdnRuQKctQI5FdDE5cf/hd+chFX1PLxGq6t7GNDK825SElVNBOLaMzyYjbsQi95myX/KyQfpl9w OW7MBJ1f5Y5buXksC/P/5xRmVDA2GwRSULi3WGr5cncfbdl608zOjSGClZ6XGZG1eo+2zZ0K4ek6 Xo85ciPnns+1x3FFTR/NZ45ET52rte3c+S63/1HYUyhHXD+Dym9xxek83LvK4zf45ovhfPk6bDOI J/QWhQjaW/p5tuU5nvoL7hHqA68TVpP9ZfuAQ8TReGAq/6aqfIGWR3n5bh5r4cUxdE5gSlX/j8QS 6lwdX83VU/jidZz1ft5eHAoSlJpkCVs/zoXVvTbjtrFxQwgH71Sik4H95XP8QdKrcuPhuIeH3wim 6g7BWd8jnkkfFryn11/Pa//rvFvP+geob2HTZGomMSMzsGBEVRVnTuSmjzJ3OmufDU/GUq4kycVs ncqv5/+whe0rQ3GHBoN4xvvHzMzwH/ppXu1jz3d4MAmfcauw2u0zAk2so1EgvFckB9oso6mbPa/x zqOsXs2KiXRN57iqXhXSD0eGTA3nnsxvXMz2R0PDmqKKLeTzONs+yZWVnJD+rIWG+lCMrVHwiQal 1tRn+Uf8Un/Hr2f18pBB3ChE5XYqT0XJIedoFUg+vdssp0l7TWjaQ8NTvFDP0gnsn8HsgRSDyzBm CtddSt1antkX3qsUQkk+HCo5fib9QQsNj4UqIbt7XmWPZN0VCjN8Wz/90QzJv3D3ziCOd+WqOo7I AtYjQSD55DfGTM2vFuxpY/dqXl7GspkkMzip8r0h4r7ITGDhxZzxJEvbco0si7p597Lpgp7CC9DK nodDveAmIVBQ1mJsi6hMuNcAinhvZdPtrBB8js3hRyPTvGLkCSSfQ5UcbW6l6UnWv8CTJzNjMnP6 e8E65l/ACT2tmIuqSgJvklxL3Riugk723x+unQqkFLV2++Rz/HFyhBKjvbmHB14NPscuIeq10wgt O8rIFkhKfkG4A6tKAw2PsnIMW+dwVn/NroksOJn2FaEebrsiRXIhm6bzReFp3n4PywSB7BREXRaB LOLCJPQW6fc90Mj2b4fwdIuwi76l57OOuOhVymgQSEp6ZiG/cuLe9Wx8jifOZf64fu6jzOKiXax+ M0SbUpEURD2t13NhJadlSO7iMSHYsEOZBHIb46p4BDMGMu8B7n8hmFTp6vGuEVqTN2U05mLlVyRp wDtvsvar/LeX+I/+1LeqoPbT/E/FnSdPybZwi3CBKkFs6fHVslAbnPLTBjKnhZ0/DQ1z9suVOR1x heJ6MxoFkpJWJNmLHa1s+lO+tZxv6UdEZjrn3RDOTcxQXIp69hfBbNkuV5wuo0znu+/gMxluHui8 JSztOT6crm4lqSQ/3BnNAklJiy00YfP/49ZlwXk9ouP5QT4rmGWFnicHd9LRHqozptVRyvJUvo8z M/xgoPP2sGsR6+VW3QYjuGlOPlEggdTs2od3v8tPlvKHRxLJTE6/IFRIPEbYhS7YzNrP3XJP6JKn ji9nQht3CnlsA+I+HuoIf4tmIXgwKlYPokDySaNdrdj1Pe5+lj85nE+SkLmaDwtleyYoPDs6WUl9 9uBmNCXbtU/IbAt+zhkDnfsOr/487JrvF5zzncocfh5ORIG8lwP1rf6KW9/k+4cbfAaX1ISNvsmK KOB8Cx1d3CcIpKTmy918PeFTBUztvo2HhdWiSfCT0hSYERu5yicK5NCkx0h3f5VvNYSQ6CGpY/L7 g5k1Nfxn4efJW4MJ1CLX86/om/AOPpPlTwqZ+xxPrwuh3L3CP3caoZ2k+iIKpG9SkTT9gN9rD5ti h2RBEMhkueOyhZD8TnCE0wajRde3upPLKrit97mT/tDOvn/hF3pWU7nVY1T4HilRIIcni/Zn2Pw8 v5/0ccOewDzBB5mguD4Z3YJ51axIgfyMUxLuSgaQwZzPQzy4M9dZa7tBSH0ZjkSBHJks2v6aRxr4 0aEGHMtcB58nL1QgaS2tVkU8qe9mWicPOkITzr7Ywms/DqcEU8d8u7CqjciM3cMRBdI/smi9h29k gx1+EGOYcEbIiB0f/rOov2t+Gc8Bs4iaruDLzC9kfjft/xCCBZ1CGnva+3DE9R/sD1Eg/SNB92J2 vMv/OdSAE0M9iHEKb6tWNAmZirAR+KFCr/E4i1/P9TrcLjjnLUbh6kEUyEBI0Pmn/KAz5CQdxPRc 8ekxhigJdBF/nuXXCp2/g7d+GLrwpqbVVkEsIzad/UhEgQyMZDf7t4d8rYOYEQRSo4SNNAfCHdyU 4WuFzs/S8X3uyebSbrYaZZuChyIKZGAk6PpDft4VzoMcYFII81YJIhlUgSzi6swRNjSPxMM8+ELY yW8RTKttStRS+mgmCmTgJGhv5nv5P5wY0t6rDPIKsogFGRbp//Hh9/A2G24J9bhS02qLYFqNyEIM AyEKpDCyK7k9yYtoVeWaWKadZsvOXRybCeV3Jhd6jXb2fSdErTqEqNVmYSUZ1aZVShRIYSS3sHdf 3r5IRRBHKpCy9+p7hrpu7kn62UvwUGRI7uRnbwefI61xtdUoytY9ElEghZNt5Edptm91LnJV1tOA hGokb3CHAdSyOhTP8/R9wZfaJ6waqWk1aqNWvYkCKZzsV9jYGepYpQJJ5FaPsq0gCX+XhEr3BdPE jm+zWPAzGuRMqxF/jHYgRIEUR3dXcJDzz5OXVRyL+INMqIJSMF10/gN3NAc/o0lYObYbxRuCfREF UhzZ5mDqdFflsn8TZRLInWHVOGzX3P6wmAfW5QSxTTSt+iQKpEj+B1u6eDobnsZlK4FzLxclocB0 Ubv0m3jpllxIN63MvssQNOw5GogCKZ7uLI9nwjmOvYKJUtIb7QFO7OABIderYPaz+29CT48OYcXY LKwke42iQ1ADIQqkeJIsj2VKeNApn0WM3c9PkwEWeetNluwt3NXQU6tYrm3BoLVZOBqJAikBm1gl 3Gx7BDOrJO2QEzIJP0y4qNhrLefx+tAFaq+wamyWS2OP9EEUSAn4Uzo6QnGDZmFPoSSRoEV8LcPn ir3ONt78Psv1VGwRxDHqExH7w1HTxHOYkzRxv1zvkKLrWv2Ua7J8s9gP1s6+v+XOrmD6pakkaQQr +h1H4Ghr4jmcqRTOgtQKN2PBEa37ObmVNcXkWBFSSX7E7Q+G3fLdQv/DV42CotOlIq4gpSOtp9Wl CB/kn6jez78pUhzwLE8+GASxTxDFO4LfEUO6/SQKpHSk5UuLctCn8De4pNgPs4utf8ejDk4liX7H AIlOeukpWBx38vEMXyr2A3TT8T3ubMv5HVvEA1AFEQUyTPhJ6HZ7SyFF3nrzAPflnQ7cJtdoM6aS DJAokGFAQkUV/570NPMshld59t9CK+k0hT1NJYlOeQFEH2QYcGfIzr2s2OvspeH/hoJx+akk7wpi iX5HAcQVZIhZxEn4s2KvkyV7K3c1BTGkKezxdGCRRIEMIUn4+9+igKY2vXmapUt528GpJDGFvUii QIaQHtPq8mKv08DW77JUiFqlqSSp3xFNqyKIAhkiHgjFFv682Ot00fl9ftqRC+lulevpEVNJiiQK ZIjYG2r8FnW+A+pZvC5XP3e74HuMuj4e5SIKZAhYxCUVoUNuUezinX8Nqfb5WboxlaSERIEMMj0b gd8udkMwoesHoZZuh1zUaocY0i0pUSCDzCK+oMh6VrCSZWtyaevbxZBuWYgCGURuY1ymBI55Ezv+ kWWCKdUgiGO3eDqw5ESBDCLj+F0cX8w1MiQ/5r6eRMS0TUGspVsmokAGiQep7ebLxV7nBVbXh7Pl aa5VehY+mlZlIApkkGgJvkdRq0cXrb1aM6cdoEZl/8DBIApkEFhEZQVfLfY6y1m6NZzpSPsH7hA3 BMtKFMjgcEPCqcVcoIXGH7JSzjHfLm4Ilp0okMHhj4q9wH081BZMqT2COOKG4CAQBVJm7uFiXFDM Nbax8V5elmuRlqaWRNOqzESBlJl2bi72GvcEx7xT2OvYJrfnEVePMhMFUkZuY1yxOVdb2bSEt4Sw 7s6eV3TMB4kokDIynusSJhRzjfupF1aPPULUKjrmg0gUSBnp5tPFzN/J5sfYJKweuwTHPB6CGkSi QMrEIsYnfKSYazySWz2ahdUjtioYZKJAyscVGFvo5Ea2388rQuSqIfwo5lsNNlEg5ePaYiavYlU2 t3rsFPOthoQokDKR4ZpC53bS9jPWC/5Go+h7DBlRIGXgAU5MOLnQ+a+yvikIYq8gjuh7DBFRIGVg L79czPxfsE44Stss+h5DShRIGahkYaFz97F7RW5jsFEQSdp/PTLIRIGUgSzvK3TuBl7MhhYF+4SU kv3irvmQEQVSHhYUOnF1SEpMzatmMWN3SIkCKTF3MRuTCpnbSevyUF+3VQjrlqxjbqQwokBKTLaI 1WMLGztCtGq/IJDonA8xUSAlpju0MyiI14Nznvofe0XnfMiJAikxlUUUZlgfBNIuHIbaL5pXQ04U SOkpSCAJXc+Gw1BtwurRJppXQ04USIlJmFnIvN3s6ggrRrtgYkXzahgQBVJiMkwsZF5jSGfvFlaO NsFZjwIZYqJASky2QIHsDAeiugRxtIubg8OCKJASU+gK0pxLSGwTzathQxRIiUkKbK29KyeQdmEl iQIZBkSBlJhMgTf27lxYt0MUyLAhCmSY0BGE0S2Io1sUyLAgCqTEZArc3OsM87KCOOL+xzAhCqT0 7C1kUnsQRSKuHsOKKJASkwRne8BMoDpMP/CKDAOiQEpMoQIZR22pP0ukeKJASkwSiiwMmLFBIJm8 V2QYEAVSYhI2FzJvRthgzKBSFMiwIQqkxGQKFMhUpgjiqBS/l2FD/CJKTAfvFDIvTyDV4ioybIgC KTEdvFHIvGkhTb4KNT3/jAIZBkSBlJh1vCbsig+IycwcF4pdjxEFMmyIAikxf09nlo0FTK28kDmC QGrE72ZYEL+E0pNkeKmQiecwTxBIrfjdDAvil1B6kiRUZh8wp3KaIJA6wVmPZtYQEwVSBrpZVci8 WZw0LfQ0HC8IJQpkiIkCKQNv87QCjsxmqLqScwSRjBHCvZEhJAqkDHyNPd1sKGTuhfySIJBxYjRr yIkCKQ9JwlOFTJzDguM4Rkg9iWbWEBMFUh6STh4rZGIl1R8PDXimCM56NLOGkCiQMrGTxxVYuudi rqhhsrCK1IiryJARBVImvsLubtYWMncCsz4amvBMEXbX4yoyRESBlI9slsWFTv5AaCM9TVhForM+ RESBlI+khfsLnTybBVdzPqYKq0j8roaA+EcvI7/L6u7Q0mDAJGSu47NyEa24igwBUSDlJZvl3kIn z2LBp7hMMLXqxO9r0Il/8PKStHBXMRe4lhsrw1mRiWJ+1qAToyNlZhtbz2F8N8fUBH9iQDf4GKbM on1VyBCObdkGmSiQMrMN9/HkPSxeyzNdNFeTGcekyn4Wup7Faa/wZE+LhDaxNdugEQUyOCTINtK6 ljcfZfVi6lt4s4LWOsbVhNyrQ1JJ9VxmPMpKoftUu7iKDApRIINDIrQ22IcmNHaw+xXeXsq6e1m6 gTWdNFTSPYEpFb2+mynMqWPHOl4X+qjHCvCDQHT4Bo+MEBSpFEyrMcJ9PpvAAAAAwUlEQVT+xjgh e3diz2v8FCZezpnnc+5czqoLaSfaaflbblob0ul3iCtJ2YkCGRrS6okVglhq5U4SjpcTzASMO585 l3LeGSzoZveX+KJQPWWP6I+UlSiQ4UH+6lItt7rUCSKZpCf9fS5jd7J5XygMkbaNjqtImYgCGX6k q0tqitXIiWVcz79n0SiYWfvFfiJlIwpk+JO/utTIFZbrFMQR90XKSBTI0UW+75LINd2JRCKRSCQS iUQikUgkEolEIqOW/w9tGDVScuSwbQAAAABJRU5ErkJggg== "
       id="image6378"
       x="257.39108"
       y="204.68965" />
    <text
       xml:space="preserve"
       style="font-style:normal;font-weight:normal;font-size:10.5833px;line-height:1.25;font-family:sans-serif;letter-spacing:0px;word-spacing:0px;fill:#000000;fill-opacity:1;stroke:none;stroke-width:0.264583"
       x="9.0871811"
       y="70.889969"
       id="text230"><tspan
         sodipodi:role="line"
         id="tspan228"
         x="9.0871811"
         y="70.889969"
         style="font-style:italic;font-variant:normal;font-weight:normal;font-stretch:normal;font-size:22.5778px;font-family:'DejaVu Sans';-inkscape-font-specification:'DejaVu Sans';stroke-width:0.264583">tuto fonctionnel 116</tspan></text>
    <text
       xml:space="preserve"
       style="font-style:normal;font-weight:normal;font-size:10.5833px;line-height:1.25;font-family:sans-serif;text-align:center;letter-spacing:0px;word-spacing:0px;text-anchor:middle;fill:#000000;fill-opacity:1;stroke:none;stroke-width:0.264583"
       x="283.78653"
       y="117.73281"
       id="text234"
       inkscape:export-filename="thumbnail_41.png"
       inkscape:export-xdpi="72"
       inkscape:export-ydpi="72"><tspan
         sodipodi:role="line"
         x="283.78653"
         y="117.73281"
         style="font-style:normal;font-variant:normal;font-weight:bold;font-stretch:normal;font-size:22.5778px;font-family:'DejaVu Sans';-inkscape-font-specification:'DejaVu Sans Bold';text-align:center;text-anchor:middle;stroke-width:0.264583"
         id="tspan2">AOC 2024 en Idris 2</tspan><tspan
         sodipodi:role="line"
         x="283.78653"
         y="145.95506"
         style="font-style:normal;font-variant:normal;font-weight:bold;font-stretch:normal;font-size:22.5778px;font-family:'DejaVu Sans';-inkscape-font-specification:'DejaVu Sans Bold';text-align:center;text-anchor:middle;stroke-width:0.264583"
         id="tspan4">Premiers exemples</tspan><tspan
         sodipodi:role="line"
         x="283.78653"
         y="174.17731"
         style="font-style:normal;font-variant:normal;font-weight:bold;font-stretch:normal;font-size:22.5778px;font-family:'DejaVu Sans';-inkscape-font-specification:'DejaVu Sans Bold';text-align:center;text-anchor:middle;stroke-width:0.264583"
         id="tspan5">(2/5)</tspan></text>
    <g
       transform="translate(3.3265185,22.356119)"
       id="layer1-6"
       inkscape:label="Calque 1">
      <g
         id="g1005"
         transform="rotate(-1.4139041,-2772.7956,-22.807463)">
        <ellipse
           id="path618"
           style="fill:#188a17;fill-opacity:1;stroke:#000000;stroke-width:1.03158987;stroke-miterlimit:4;stroke-dasharray:none;stroke-opacity:1"
           cy="204.13069"
           cx="60.581951"
           rx="44.654301"
           ry="41.961315"
           transform="matrix(0.93969262,-0.34202014,0,1,0,0)" />
        <path
           style="fill:none;stroke:#000000;stroke-width:1;stroke-linecap:butt;stroke-linejoin:miter;stroke-miterlimit:4;stroke-dasharray:none;stroke-opacity:1"
           d="m 83.655359,181.27231 c 8.01809,12.56167 -7.834319,53.36705 2.40543,57.46295 10.239741,4.0959 17.434311,-20.06297 24.856081,-15.76891 7.42176,4.29407 19.73209,31.75136 23.74112,68.36729"
           id="path5167"
           inkscape:connector-curvature="0"
           sodipodi:nodetypes="czzc" />
        <path
           style="fill:#e4b037;fill-opacity:1;stroke:none;stroke-width:0.26458332px;stroke-linecap:butt;stroke-linejoin:miter;stroke-opacity:1"
           d="m 83.655359,181.27231 c 5.329557,10.80172 -2.256648,34.96266 -1.164362,51.45181 2.355187,-3.99293 4.229975,-9.91384 8.543604,-12.27473 l 18.400639,1.52534 c 11.92386,7.83973 20.70982,38.87213 25.22275,69.35891 l -27.46963,-0.3864 c -1.44141,-18.06646 -1.10305,-41.22541 -8.23526,-59.62662 -5.546631,6.50744 -8.635629,7.68954 -11.297355,8.07228 l -12.662203,-0.28348 c -13.536594,-3.57681 3.267304,-40.90184 -4.153828,-60.26716 z"
           id="path5184"
           inkscape:connector-curvature="0"
           sodipodi:nodetypes="ccccccccccc" />
        <path
           style="fill:none;stroke:#000000;stroke-width:1;stroke-linecap:butt;stroke-linejoin:miter;stroke-miterlimit:4;stroke-dasharray:none;stroke-opacity:1"
           d="m 70.839714,178.84226 c 8.018085,12.56167 -7.834325,55.50521 2.405425,59.60111 10.23975,4.0959 11.77188,-20.01319 19.24342,-17.6398 7.471541,2.37339 15.768891,48.22756 14.699801,70.14367"
           id="path5167-5"
           inkscape:connector-curvature="0"
           sodipodi:nodetypes="czzc" />
        <text
           xml:space="preserve"
           style="font-style:normal;font-weight:normal;font-size:10.5833px;line-height:1.25;font-family:sans-serif;letter-spacing:0px;word-spacing:0px;fill:#000000;fill-opacity:1;stroke:none;stroke-width:0.264583"
           id="text5228"
           x="-90.336311"
           y="29.104166"
           transform="translate(-128.04817,17.497611)"><textPath
             xlink:href="#path5167-5-3"
             id="textPath5230"
             style="font-style:normal;font-variant:normal;font-weight:normal;font-stretch:normal;font-size:8.46667px;font-family:'DejaVu Sans Mono';-inkscape-font-specification:'DejaVu Sans Mono'"><tspan
               style="font-style:normal;font-variant:normal;font-weight:normal;font-stretch:normal;font-size:8.46667px;font-family:'DejaVu Sans Mono';-inkscape-font-specification:'DejaVu Sans Mono';stroke-width:0.264583"
               id="tspan5224"
               y="149.50342"
               x="22.300737">  = getLine  &gt;&gt;=   print.toUpper</tspan></textPath></text>
        <ellipse
           transform="matrix(0.93969262,-0.34202014,0,1,0,0)"
           ry="41.961315"
           rx="44.654301"
           cx="48.920635"
           cy="194.79691"
           style="fill:#188a17;fill-opacity:1;stroke:#000000;stroke-width:1.03158987;stroke-miterlimit:4;stroke-dasharray:none;stroke-opacity:1"
           id="ellipse5142" />
        <path
           style="fill:#55beff;fill-opacity:1;stroke:#000000;stroke-width:1;stroke-linecap:butt;stroke-linejoin:miter;stroke-miterlimit:4;stroke-dasharray:none;stroke-opacity:1"
           d="m 46.580184,169.20253 c 0,0 3.584168,-16.07383 -1.037477,-16.31343 -4.620296,-0.23951 -11.822284,8.6561 -11.822284,8.6561 0,0 7.181228,-13.61669 14.521908,-13.48354 9.176684,0.16646 4.66429,15.51714 4.269441,22.97196 -0.510268,9.63391 -2.059249,24.30368 2.465125,24.30369 4.524376,-1e-5 10.240251,-4.82745 10.240251,-4.82745 0,0 -5.641599,10.32074 -13.431335,10.48722 -7.789729,0.16646 -5.111095,-24.80308 -5.111095,-24.80308 l -21.46961,24.80306 -7.668561,-0.16645 z"
           id="path5115"
           inkscape:connector-curvature="0"
           sodipodi:nodetypes="cscssscccccc" />
      </g>
      <path
         sodipodi:nodetypes="czcc"
         inkscape:connector-curvature="0"
         id="path5167-5-3"
         d="m 201.09531,164.64129 c 10.64763,20.34911 -5.34664,41.15968 3.09652,54.1149 8.44316,12.95522 26.33325,-16.78101 26.33325,-16.78101 0.35282,8.71659 15.43326,38.10492 14.27598,71.73107"
         style="display:none;fill:none;stroke:#000000;stroke-width:1;stroke-linecap:butt;stroke-linejoin:miter;stroke-miterlimit:4;stroke-dasharray:none;stroke-opacity:1" />
    </g>
    <flowRoot
       xml:space="preserve"
       id="flowRoot1086"
       style="font-style:normal;font-weight:normal;font-size:40px;line-height:1.25;font-family:sans-serif;letter-spacing:0px;word-spacing:0px;fill:#000000;fill-opacity:1;stroke:none"><flowRegion
         id="flowRegion1088"><rect
           id="rect1090"
           width="29.226282"
           height="44.835529"
           x="1146.4677"
           y="512.46112" /></flowRegion><flowPara
         id="flowPara1092" /></flowRoot>
    <flowRoot
       xml:space="preserve"
       id="flowRoot1130"
       style="font-style:normal;font-weight:normal;font-size:40px;line-height:1.25;font-family:sans-serif;letter-spacing:0px;word-spacing:0px;fill:#000000;fill-opacity:1;stroke:none"><flowRegion
         id="flowRegion1132"><rect
           id="rect1134"
           width="737.41138"
           height="939.44183"
           x="-30.304577"
           y="101.37035" /></flowRegion><flowPara
         id="flowPara1136" /></flowRoot>
    <text
       xml:space="preserve"
       style="font-style:normal;font-weight:normal;font-size:10.5833px;line-height:1.25;font-family:sans-serif;letter-spacing:0px;word-spacing:0px;fill:#000000;fill-opacity:1;stroke:none;stroke-width:0.264583"
       x="204.19391"
       y="0.86537212"
       id="text1144" />
  </g>
  <style
     type="text/css"
     id="style1951">
	.st0{fill:#7289DA;}
</style>
</svg>
