<?xml version="1.0" encoding="UTF-8" standalone="no"?><svg xmlns="http://www.w3.org/2000/svg" xmlns:xlink="http://www.w3.org/1999/xlink" contentScriptType="application/ecmascript" contentStyleType="text/css" height="233px" preserveAspectRatio="none" style="width:691px;height:233px;" version="1.1" viewBox="0 0 691 233" width="691px" zoomAndPan="magnify"><defs><filter height="300%" id="f1qy8cvjjvqzgo" width="300%" x="-1" y="-1"><feGaussianBlur result="blurOut" stdDeviation="2.0"/><feColorMatrix in="blurOut" result="blurOut2" type="matrix" values="0 0 0 0 0 0 0 0 0 0 0 0 0 0 0 0 0 0 .4 0"/><feOffset dx="4.0" dy="4.0" in="blurOut2" result="blurOut3"/><feBlend in="SourceGraphic" in2="blurOut3" mode="normal"/></filter></defs><g><!--MD5=[5f7a1d5056c7d80958fde22b7188240f]
class Bot--><rect codeLine="6" fill="#F0FFFF" filter="url(#f1qy8cvjjvqzgo)" height="60.8047" id="Bot" style="stroke: #A80036; stroke-width: 1.5;" width="141" x="268.75" y="7"/><ellipse cx="324.5" cy="23" fill="#A9DCDF" rx="11" ry="11" style="stroke: #A80036; stroke-width: 1.0;"/><path d="M324.6094,18.3438 L323.4531,23.4219 L325.7813,23.4219 L324.6094,18.3438 Z M323.125,16.1094 L326.1094,16.1094 L329.4688,28.5 L327.0156,28.5 L326.25,25.4375 L322.9688,25.4375 L322.2188,28.5 L319.7813,28.5 L323.125,16.1094 Z "/><text fill="#000000" font-family="sans-serif" font-size="12" font-style="italic" lengthAdjust="spacingAndGlyphs" textLength="21" x="345" y="27.1543">Bot</text><line style="stroke: #A80036; stroke-width: 1.5;" x1="269.75" x2="408.75" y1="39" y2="39"/><line style="stroke: #A80036; stroke-width: 1.5;" x1="269.75" x2="408.75" y1="47" y2="47"/><ellipse cx="279.75" cy="58" fill="#84BE84" rx="3" ry="3" style="stroke: #038048; stroke-width: 1.0;"/><text fill="#000000" font-family="sans-serif" font-size="11" font-style="italic" lengthAdjust="spacingAndGlyphs" textLength="115" x="288.75" y="61.2104">genmove(game): int</text><!--MD5=[37ab01c72150b16f45c81d8342b6c44c]
class BotZero--><rect codeLine="10" fill="#F0FFFF" filter="url(#f1qy8cvjjvqzgo)" height="60.8047" id="BotZero" style="stroke: #A80036; stroke-width: 1.5;" width="140" x="7" y="141"/><ellipse cx="47.65" cy="157" fill="#ADD1B2" rx="11" ry="11" style="stroke: #A80036; stroke-width: 1.0;"/><path d="M50.6188,162.6406 Q50.0406,162.9375 49.4,163.0781 Q48.7594,163.2344 48.0563,163.2344 Q45.5563,163.2344 44.2281,161.5938 Q42.9156,159.9375 42.9156,156.8125 Q42.9156,153.6875 44.2281,152.0313 Q45.5563,150.375 48.0563,150.375 Q48.7594,150.375 49.4,150.5313 Q50.0563,150.6875 50.6188,150.9844 L50.6188,153.7031 Q49.9938,153.125 49.4,152.8594 Q48.8063,152.5781 48.1813,152.5781 Q46.8375,152.5781 46.15,153.6563 Q45.4625,154.7188 45.4625,156.8125 Q45.4625,158.9063 46.15,159.9844 Q46.8375,161.0469 48.1813,161.0469 Q48.8063,161.0469 49.4,160.7813 Q49.9938,160.5 50.6188,159.9219 L50.6188,162.6406 Z "/><text fill="#000000" font-family="sans-serif" font-size="12" lengthAdjust="spacingAndGlyphs" textLength="51" x="67.35" y="161.1543">BotZero</text><line style="stroke: #A80036; stroke-width: 1.5;" x1="8" x2="146" y1="173" y2="173"/><line style="stroke: #A80036; stroke-width: 1.5;" x1="8" x2="146" y1="181" y2="181"/><ellipse cx="18" cy="192" fill="#84BE84" rx="3" ry="3" style="stroke: #038048; stroke-width: 1.0;"/><text fill="#000000" font-family="sans-serif" font-size="11" lengthAdjust="spacingAndGlyphs" textLength="114" x="27" y="195.2104">genmove(game): int</text><!--MD5=[a46ac88ee2b2a4e87ded964f996d1305]
class BotHuman--><rect codeLine="15" fill="#F0FFFF" filter="url(#f1qy8cvjjvqzgo)" height="60.8047" id="BotHuman" style="stroke: #A80036; stroke-width: 1.5;" width="140" x="182" y="141"/><ellipse cx="216.35" cy="157" fill="#ADD1B2" rx="11" ry="11" style="stroke: #A80036; stroke-width: 1.0;"/><path d="M219.3188,162.6406 Q218.7406,162.9375 218.1,163.0781 Q217.4594,163.2344 216.7563,163.2344 Q214.2563,163.2344 212.9281,161.5938 Q211.6156,159.9375 211.6156,156.8125 Q211.6156,153.6875 212.9281,152.0313 Q214.2563,150.375 216.7563,150.375 Q217.4594,150.375 218.1,150.5313 Q218.7563,150.6875 219.3188,150.9844 L219.3188,153.7031 Q218.6938,153.125 218.1,152.8594 Q217.5063,152.5781 216.8813,152.5781 Q215.5375,152.5781 214.85,153.6563 Q214.1625,154.7188 214.1625,156.8125 Q214.1625,158.9063 214.85,159.9844 Q215.5375,161.0469 216.8813,161.0469 Q217.5063,161.0469 218.1,160.7813 Q218.6938,160.5 219.3188,159.9219 L219.3188,162.6406 Z "/><text fill="#000000" font-family="sans-serif" font-size="12" lengthAdjust="spacingAndGlyphs" textLength="65" x="234.65" y="161.1543">BotHuman</text><line style="stroke: #A80036; stroke-width: 1.5;" x1="183" x2="321" y1="173" y2="173"/><line style="stroke: #A80036; stroke-width: 1.5;" x1="183" x2="321" y1="181" y2="181"/><ellipse cx="193" cy="192" fill="#84BE84" rx="3" ry="3" style="stroke: #038048; stroke-width: 1.0;"/><text fill="#000000" font-family="sans-serif" font-size="11" lengthAdjust="spacingAndGlyphs" textLength="114" x="202" y="195.2104">genmove(game): int</text><!--MD5=[ad5b07728267df4f157a8fe2b84e4b5e]
class BotRandom--><rect codeLine="20" fill="#F0FFFF" filter="url(#f1qy8cvjjvqzgo)" height="73.6094" id="BotRandom" style="stroke: #A80036; stroke-width: 1.5;" width="140" x="357" y="134.5"/><ellipse cx="388.2" cy="150.5" fill="#ADD1B2" rx="11" ry="11" style="stroke: #A80036; stroke-width: 1.0;"/><path d="M391.1688,156.1406 Q390.5906,156.4375 389.95,156.5781 Q389.3094,156.7344 388.6063,156.7344 Q386.1063,156.7344 384.7781,155.0938 Q383.4656,153.4375 383.4656,150.3125 Q383.4656,147.1875 384.7781,145.5313 Q386.1063,143.875 388.6063,143.875 Q389.3094,143.875 389.95,144.0313 Q390.6063,144.1875 391.1688,144.4844 L391.1688,147.2031 Q390.5438,146.625 389.95,146.3594 Q389.3563,146.0781 388.7313,146.0781 Q387.3875,146.0781 386.7,147.1563 Q386.0125,148.2188 386.0125,150.3125 Q386.0125,152.4063 386.7,153.4844 Q387.3875,154.5469 388.7313,154.5469 Q389.3563,154.5469 389.95,154.2813 Q390.5438,154 391.1688,153.4219 L391.1688,156.1406 Z "/><text fill="#000000" font-family="sans-serif" font-size="12" lengthAdjust="spacingAndGlyphs" textLength="72" x="405.8" y="154.6543">BotRandom</text><line style="stroke: #A80036; stroke-width: 1.5;" x1="358" x2="496" y1="166.5" y2="166.5"/><rect fill="none" height="6" style="stroke: #C82930; stroke-width: 1.0;" width="6" x="365" y="174.5"/><text fill="#000000" font-family="sans-serif" font-size="11" lengthAdjust="spacingAndGlyphs" textLength="87" x="377" y="180.7104">_rng: random_t</text><line style="stroke: #A80036; stroke-width: 1.5;" x1="358" x2="496" y1="187.3047" y2="187.3047"/><ellipse cx="368" cy="198.3047" fill="#84BE84" rx="3" ry="3" style="stroke: #038048; stroke-width: 1.0;"/><text fill="#000000" font-family="sans-serif" font-size="11" lengthAdjust="spacingAndGlyphs" textLength="114" x="377" y="201.5151">genmove(game): int</text><!--MD5=[1adb99eb46d7fc3bd5dd7a763f38fd1e]
class BotMc--><rect codeLine="26" fill="#F0FFFF" filter="url(#f1qy8cvjjvqzgo)" height="86.4141" id="BotMc" style="stroke: #A80036; stroke-width: 1.5;" width="140" x="532" y="128.5"/><ellipse cx="578.75" cy="144.5" fill="#ADD1B2" rx="11" ry="11" style="stroke: #A80036; stroke-width: 1.0;"/><path d="M581.7188,150.1406 Q581.1406,150.4375 580.5,150.5781 Q579.8594,150.7344 579.1563,150.7344 Q576.6563,150.7344 575.3281,149.0938 Q574.0156,147.4375 574.0156,144.3125 Q574.0156,141.1875 575.3281,139.5313 Q576.6563,137.875 579.1563,137.875 Q579.8594,137.875 580.5,138.0313 Q581.1563,138.1875 581.7188,138.4844 L581.7188,141.2031 Q581.0938,140.625 580.5,140.3594 Q579.9063,140.0781 579.2813,140.0781 Q577.9375,140.0781 577.25,141.1563 Q576.5625,142.2188 576.5625,144.3125 Q576.5625,146.4063 577.25,147.4844 Q577.9375,148.5469 579.2813,148.5469 Q579.9063,148.5469 580.5,148.2813 Q581.0938,148 581.7188,147.4219 L581.7188,150.1406 Z "/><text fill="#000000" font-family="sans-serif" font-size="12" lengthAdjust="spacingAndGlyphs" textLength="38" x="599.25" y="148.6543">BotMc</text><line style="stroke: #A80036; stroke-width: 1.5;" x1="533" x2="671" y1="160.5" y2="160.5"/><rect fill="none" height="6" style="stroke: #C82930; stroke-width: 1.0;" width="6" x="540" y="168.5"/><text fill="#000000" font-family="sans-serif" font-size="11" lengthAdjust="spacingAndGlyphs" textLength="87" x="552" y="174.7104">_rng: random_t</text><rect fill="none" height="6" style="stroke: #C82930; stroke-width: 1.0;" width="6" x="540" y="181.3047"/><text fill="#000000" font-family="sans-serif" font-size="11" lengthAdjust="spacingAndGlyphs" textLength="112" x="552" y="187.5151">_nSimsPerMove: int</text><line style="stroke: #A80036; stroke-width: 1.5;" x1="533" x2="671" y1="194.1094" y2="194.1094"/><ellipse cx="543" cy="205.1094" fill="#84BE84" rx="3" ry="3" style="stroke: #038048; stroke-width: 1.0;"/><text fill="#000000" font-family="sans-serif" font-size="11" lengthAdjust="spacingAndGlyphs" textLength="114" x="552" y="208.3198">genmove(game): int</text><!--MD5=[16c4c723247a01591e030a561117d16a]
reverse link Bot to BotZero--><path codeLine="13" d="M262.277,77.154 C221.823,97.536 172.98,122.1436 135.602,140.9755 " fill="none" id="Bot-backto-BotZero" style="stroke: #A80036; stroke-width: 1.0;"/><polygon fill="none" points="259.191,70.871,280.202,68.123,265.49,83.374,259.191,70.871" style="stroke: #A80036; stroke-width: 1.0;"/><!--MD5=[5559b45cf74ec300787f2b426585303a]
reverse link Bot to BotHuman--><path codeLine="18" d="M308.321,85.048 C296.059,103.651 282.306,124.5188 271.459,140.9755 " fill="none" id="Bot-backto-BotHuman" style="stroke: #A80036; stroke-width: 1.0;"/><polygon fill="none" points="302.624,80.97,319.476,68.123,314.314,88.675,302.624,80.97" style="stroke: #A80036; stroke-width: 1.0;"/><!--MD5=[4c17d1efbc8abcb47c03144d72ea5264]
reverse link Bot to BotRandom--><path codeLine="24" d="M369.906,84.859 C380.739,101.108 392.737,119.1055 402.927,134.3909 " fill="none" id="Bot-backto-BotRandom" style="stroke: #A80036; stroke-width: 1.0;"/><polygon fill="none" points="364.019,88.647,358.749,68.123,375.667,80.881,364.019,88.647" style="stroke: #A80036; stroke-width: 1.0;"/><!--MD5=[75caf144558fea7f9d278913606b7060]
reverse link Bot to BotMc--><path codeLine="31" d="M415.958,77.126 C452.649,95.541 496.225,117.4113 531.977,135.3553 " fill="none" id="Bot-backto-BotMc" style="stroke: #A80036; stroke-width: 1.0;"/><polygon fill="none" points="412.757,83.351,398.022,68.123,419.037,70.839,412.757,83.351" style="stroke: #A80036; stroke-width: 1.0;"/><!--MD5=[ca3a534f92da26e38c2ba423b0cfd75c]
@startuml

skinparam class {
    BackgroundColor Azure
}

abstract class Bot {
    {abstract} + genmove(game): int
}

class BotZero {
    + genmove(game): int
}
Bot <|- - BotZero

class BotHuman {
    + genmove(game): int
}
Bot <|- - BotHuman

class BotRandom {
    - _rng: random_t
    + genmove(game): int
}
Bot <|- - BotRandom

class BotMc {
    - _rng: random_t
    - _nSimsPerMove: int
    + genmove(game): int
}
Bot <|- - BotMc

@enduml

PlantUML version 1.2020.16(Sun Aug 23 22:20:43 CEST 2020)
(GPL source distribution)
Java Runtime: OpenJDK Runtime Environment
JVM: OpenJDK 64-Bit Server VM
Default Encoding: UTF-8
Language: en
Country: US
--></g></svg>