<?xml version="1.0" encoding="UTF-8"?>
<!DOCTYPE svg PUBLIC "-//W3C//DTD SVG 1.1//EN" "http://www.w3.org/Graphics/SVG/1.1/DTD/svg11.dtd">
<svg version="1.2" width="203.2mm" height="38.1mm" viewBox="0 0 20320 3810" preserveAspectRatio="xMidYMid" fill-rule="evenodd" stroke-width="28.222" stroke-linejoin="round" xmlns="http://www.w3.org/2000/svg" xmlns:ooo="http://xml.openoffice.org/svg/export" xmlns:xlink="http://www.w3.org/1999/xlink" xmlns:presentation="http://sun.com/xmlns/staroffice/presentation" xmlns:smil="http://www.w3.org/2001/SMIL20/" xmlns:anim="urn:oasis:names:tc:opendocument:xmlns:animation:1.0" xml:space="preserve">
 <defs class="ClipPathGroup">
  <clipPath id="presentation_clip_path" clipPathUnits="userSpaceOnUse">
   <rect x="0" y="0" width="20320" height="3810"/>
  </clipPath>
  <clipPath id="presentation_clip_path_shrink" clipPathUnits="userSpaceOnUse">
   <rect x="20" y="3" width="20280" height="3803"/>
  </clipPath>
 </defs>
 <defs>
  <font id="EmbeddedFont_1" horiz-adv-x="2048">
   <font-face font-family="DejaVu Sans Mono embedded" units-per-em="2048" font-weight="normal" font-style="normal" ascent="1879" descent="476"/>
   <missing-glyph horiz-adv-x="2048" d="M 0,0 L 2047,0 2047,2047 0,2047 0,0 Z"/>
   <glyph unicode="t" horiz-adv-x="927" d="M 614,1438 L 614,1120 1032,1120 1032,977 614,977 614,369 C 614,286 630,229 661,196 692,163 747,147 825,147 L 1032,147 1032,0 807,0 C 669,0 572,28 515,83 458,138 430,234 430,369 L 430,977 131,977 131,1120 430,1120 430,1438 614,1438 Z"/>
   <glyph unicode="s" horiz-adv-x="821" d="M 973,1081 L 973,901 C 920,932 867,955 814,970 761,985 706,993 651,993 568,993 506,980 465,953 424,926 403,884 403,829 403,779 418,742 449,717 480,692 556,668 678,645 L 752,631 C 843,614 913,579 960,527 1007,475 1030,407 1030,324 1030,213 991,127 912,65 833,2 724,-29 584,-29 529,-29 471,-23 410,-12 349,0 284,18 213,41 L 213,231 C 282,196 347,169 410,152 473,134 532,125 588,125 669,125 732,142 777,175 822,208 844,254 844,313 844,398 762,457 599,490 L 591,492 522,506 C 416,527 339,562 290,611 241,660 217,726 217,811 217,918 253,1001 326,1060 399,1118 502,1147 637,1147 697,1147 755,1142 810,1131 865,1120 920,1103 973,1081 Z"/>
   <glyph unicode="r" horiz-adv-x="821" d="M 1155,889 C 1116,920 1076,942 1035,956 994,970 950,977 901,977 786,977 699,941 638,869 577,797 547,693 547,557 L 547,0 362,0 362,1120 547,1120 547,901 C 578,980 625,1041 689,1084 752,1126 828,1147 915,1147 960,1147 1003,1141 1042,1130 1081,1119 1119,1101 1155,1077 L 1155,889 Z"/>
   <glyph unicode="p" horiz-adv-x="927" d="M 375,141 L 375,-426 190,-426 190,1120 375,1120 375,977 C 406,1032 447,1075 498,1104 549,1133 607,1147 674,1147 809,1147 916,1095 993,990 1070,885 1108,740 1108,555 1108,373 1069,230 992,127 915,23 809,-29 674,-29 606,-29 547,-14 496,15 445,44 404,86 375,141 Z M 915,559 C 915,702 893,809 848,882 803,955 736,991 647,991 558,991 490,955 444,882 398,809 375,701 375,559 375,418 398,310 444,237 490,164 558,127 647,127 736,127 803,163 848,236 893,309 915,416 915,559 Z"/>
   <glyph unicode="o" horiz-adv-x="980" d="M 616,991 C 523,991 452,955 404,882 356,809 332,702 332,559 332,417 356,310 404,237 452,164 523,127 616,127 710,127 781,164 829,237 877,310 901,417 901,559 901,702 877,809 829,882 781,955 710,991 616,991 Z M 616,1147 C 771,1147 890,1097 973,996 1055,895 1096,750 1096,559 1096,368 1055,222 973,122 891,21 772,-29 616,-29 461,-29 342,21 260,122 178,222 137,368 137,559 137,750 178,895 260,996 342,1097 461,1147 616,1147 Z"/>
   <glyph unicode="m" horiz-adv-x="1033" d="M 676,1006 C 699,1054 728,1090 763,1113 798,1136 840,1147 889,1147 979,1147 1043,1112 1080,1043 1117,973 1135,842 1135,649 L 1135,0 967,0 967,641 C 967,799 958,897 941,936 923,974 891,993 844,993 791,993 754,973 735,932 715,891 705,794 705,641 L 705,0 537,0 537,641 C 537,801 528,900 509,937 490,974 455,993 406,993 357,993 324,973 305,932 286,891 276,794 276,641 L 276,0 109,0 109,1120 276,1120 276,1024 C 298,1064 326,1095 359,1116 392,1137 429,1147 471,1147 522,1147 564,1135 598,1112 631,1089 657,1053 676,1006 Z"/>
   <glyph unicode="i" horiz-adv-x="953" d="M 256,1120 L 727,1120 727,143 1092,143 1092,0 178,0 178,143 543,143 543,977 256,977 256,1120 Z M 543,1556 L 727,1556 727,1323 543,1323 543,1556 Z"/>
   <glyph unicode="f" horiz-adv-x="874" d="M 1063,1556 L 1063,1403 854,1403 C 788,1403 742,1390 717,1363 691,1336 678,1288 678,1219 L 678,1120 1063,1120 1063,977 678,977 678,0 494,0 494,977 195,977 195,1120 494,1120 494,1198 C 494,1321 522,1411 579,1469 635,1527 723,1556 842,1556 L 1063,1556 Z"/>
   <glyph unicode="a" horiz-adv-x="927" d="M 702,563 L 641,563 C 534,563 453,544 399,507 344,469 317,413 317,338 317,271 337,218 378,181 419,144 475,125 547,125 648,125 728,160 786,231 844,301 873,398 874,522 L 874,563 702,563 Z M 1059,639 L 1059,0 874,0 874,166 C 835,99 785,50 726,19 666,-13 593,-29 508,-29 394,-29 303,3 235,68 167,132 133,218 133,326 133,451 175,545 259,610 342,675 465,707 627,707 L 874,707 874,736 C 873,825 851,890 806,931 761,971 690,991 592,991 529,991 466,982 402,964 338,946 276,920 215,885 L 215,1069 C 283,1095 348,1115 411,1128 473,1141 533,1147 592,1147 685,1147 764,1133 830,1106 895,1079 948,1038 989,983 1014,950 1032,909 1043,860 1054,811 1059,737 1059,639 Z"/>
   <glyph unicode="L" horiz-adv-x="927" d="M 215,1493 L 418,1493 418,170 1139,170 1139,0 215,0 215,1493 Z"/>
   <glyph unicode="G" horiz-adv-x="1033" d="M 1104,123 C 1050,73 989,35 922,10 854,-16 781,-29 702,-29 513,-29 365,39 260,175 155,310 102,500 102,745 102,989 155,1179 262,1316 369,1452 517,1520 707,1520 770,1520 830,1511 887,1494 944,1476 1000,1449 1053,1413 L 1053,1206 C 999,1257 944,1295 887,1320 830,1344 770,1356 707,1356 576,1356 477,1305 412,1204 346,1102 313,949 313,745 313,538 345,384 409,285 472,185 570,135 702,135 747,135 786,140 820,151 853,161 884,177 911,199 L 911,600 694,600 694,766 1104,766 1104,123 Z"/>
   <glyph unicode="C" horiz-adv-x="954" d="M 1073,53 C 1022,26 969,5 915,-9 861,-22 804,-29 743,-29 552,-29 403,39 298,174 192,309 139,500 139,745 139,989 192,1179 299,1316 405,1452 553,1520 743,1520 804,1520 861,1513 915,1500 969,1486 1022,1465 1073,1438 L 1073,1231 C 1024,1272 971,1303 914,1324 857,1345 800,1356 743,1356 612,1356 513,1305 448,1204 383,1103 350,950 350,745 350,541 383,388 448,287 513,186 612,135 743,135 802,135 859,146 916,167 972,188 1024,219 1073,260 L 1073,53 Z"/>
  </font>
 </defs>
 <defs>
  <font id="EmbeddedFont_2" horiz-adv-x="2048">
   <font-face font-family="Liberation Sans embedded" units-per-em="2048" font-weight="normal" font-style="normal" ascent="1852" descent="423"/>
   <missing-glyph horiz-adv-x="2048" d="M 0,0 L 2047,0 2047,2047 0,2047 0,0 Z"/>
   <glyph unicode="6" horiz-adv-x="980" d="M 1049,461 C 1049,312 1009,195 928,109 847,23 736,-20 594,-20 435,-20 314,39 230,157 146,275 104,447 104,672 104,916 148,1103 235,1234 322,1365 447,1430 608,1430 821,1430 955,1334 1010,1143 L 838,1112 C 803,1227 725,1284 606,1284 503,1284 424,1236 368,1141 311,1045 283,906 283,725 316,786 362,832 421,864 480,895 548,911 625,911 755,911 858,870 935,789 1011,708 1049,598 1049,461 Z M 866,453 C 866,555 841,634 791,689 741,744 671,772 582,772 498,772 430,748 379,699 327,650 301,582 301,496 301,387 328,298 382,229 435,160 504,125 588,125 675,125 743,154 792,213 841,271 866,351 866,453 Z"/>
   <glyph unicode="4" horiz-adv-x="1060" d="M 881,319 L 881,0 711,0 711,319 47,319 47,459 692,1409 881,1409 881,461 1079,461 1079,319 881,319 Z M 711,1206 C 710,1202 700,1184 683,1153 666,1122 653,1100 644,1087 L 283,555 229,481 213,461 711,461 711,1206 Z"/>
   <glyph unicode="3" horiz-adv-x="1006" d="M 1049,389 C 1049,259 1008,158 925,87 842,16 724,-20 571,-20 428,-20 315,12 230,77 145,141 94,236 78,362 L 264,379 C 288,212 390,129 571,129 662,129 733,151 785,196 836,241 862,307 862,395 862,472 833,532 774,575 715,618 629,639 518,639 L 416,639 416,795 514,795 C 613,795 689,817 744,860 798,903 825,962 825,1038 825,1113 803,1173 759,1217 714,1260 648,1282 561,1282 482,1282 418,1262 369,1221 320,1180 291,1123 283,1049 L 102,1063 C 115,1178 163,1268 246,1333 328,1398 434,1430 563,1430 704,1430 814,1397 893,1332 971,1266 1010,1174 1010,1057 1010,967 985,894 935,838 884,781 811,743 715,723 L 715,719 C 820,708 902,672 961,613 1020,554 1049,479 1049,389 Z"/>
   <glyph unicode="2" horiz-adv-x="954" d="M 103,0 L 103,127 C 137,205 179,274 228,334 277,393 328,447 382,496 436,544 490,589 543,630 596,671 643,713 686,754 729,795 763,839 790,884 816,929 829,981 829,1038 829,1115 806,1175 761,1218 716,1261 653,1282 572,1282 495,1282 432,1261 383,1220 333,1178 304,1119 295,1044 L 111,1061 C 124,1174 172,1263 255,1330 337,1397 443,1430 572,1430 714,1430 823,1397 900,1330 976,1263 1014,1167 1014,1044 1014,989 1002,935 977,881 952,827 914,773 865,719 816,665 721,581 582,468 505,405 444,349 399,299 354,248 321,200 301,153 L 1036,153 1036,0 103,0 Z"/>
  </font>
 </defs>
 <defs class="TextShapeIndex">
  <g ooo:slide="id1" ooo:id-list="id3 id4 id5 id6 id7 id8 id9 id10 id11 id12 id13 id14 id15 id16 id17 id18 id19 id20 id21 id22 id23 id24 id25 id26 id27 id28 id29 id30 id31 id32 id33 id34 id35 id36"/>
 </defs>
 <defs class="EmbeddedBulletChars">
  <g id="bullet-char-template-57356" transform="scale(0.00048828125,-0.00048828125)">
   <path d="M 580,1141 L 1163,571 580,0 -4,571 580,1141 Z"/>
  </g>
  <g id="bullet-char-template-57354" transform="scale(0.00048828125,-0.00048828125)">
   <path d="M 8,1128 L 1137,1128 1137,0 8,0 8,1128 Z"/>
  </g>
  <g id="bullet-char-template-10146" transform="scale(0.00048828125,-0.00048828125)">
   <path d="M 174,0 L 602,739 174,1481 1456,739 174,0 Z M 1358,739 L 309,1346 659,739 1358,739 Z"/>
  </g>
  <g id="bullet-char-template-10132" transform="scale(0.00048828125,-0.00048828125)">
   <path d="M 2015,739 L 1276,0 717,0 1260,543 174,543 174,936 1260,936 717,1481 1274,1481 2015,739 Z"/>
  </g>
  <g id="bullet-char-template-10007" transform="scale(0.00048828125,-0.00048828125)">
   <path d="M 0,-2 C -7,14 -16,27 -25,37 L 356,567 C 262,823 215,952 215,954 215,979 228,992 255,992 264,992 276,990 289,987 310,991 331,999 354,1012 L 381,999 492,748 772,1049 836,1024 860,1049 C 881,1039 901,1025 922,1006 886,937 835,863 770,784 769,783 710,716 594,584 L 774,223 C 774,196 753,168 711,139 L 727,119 C 717,90 699,76 672,76 641,76 570,178 457,381 L 164,-76 C 142,-110 111,-127 72,-127 30,-127 9,-110 8,-76 1,-67 -2,-52 -2,-32 -2,-23 -1,-13 0,-2 Z"/>
  </g>
  <g id="bullet-char-template-10004" transform="scale(0.00048828125,-0.00048828125)">
   <path d="M 285,-33 C 182,-33 111,30 74,156 52,228 41,333 41,471 41,549 55,616 82,672 116,743 169,778 240,778 293,778 328,747 346,684 L 369,508 C 377,444 397,411 428,410 L 1163,1116 C 1174,1127 1196,1133 1229,1133 1271,1133 1292,1118 1292,1087 L 1292,965 C 1292,929 1282,901 1262,881 L 442,47 C 390,-6 338,-33 285,-33 Z"/>
  </g>
  <g id="bullet-char-template-9679" transform="scale(0.00048828125,-0.00048828125)">
   <path d="M 813,0 C 632,0 489,54 383,161 276,268 223,411 223,592 223,773 276,916 383,1023 489,1130 632,1184 813,1184 992,1184 1136,1130 1245,1023 1353,916 1407,772 1407,592 1407,412 1353,268 1245,161 1136,54 992,0 813,0 Z"/>
  </g>
  <g id="bullet-char-template-8226" transform="scale(0.00048828125,-0.00048828125)">
   <path d="M 346,457 C 273,457 209,483 155,535 101,586 74,649 74,723 74,796 101,859 155,911 209,963 273,989 346,989 419,989 480,963 531,910 582,859 608,796 608,723 608,648 583,586 532,535 482,483 420,457 346,457 Z"/>
  </g>
  <g id="bullet-char-template-8211" transform="scale(0.00048828125,-0.00048828125)">
   <path d="M -4,459 L 1135,459 1135,606 -4,606 -4,459 Z"/>
  </g>
  <g id="bullet-char-template-61548" transform="scale(0.00048828125,-0.00048828125)">
   <path d="M 173,740 C 173,903 231,1043 346,1159 462,1274 601,1332 765,1332 928,1332 1067,1274 1183,1159 1299,1043 1357,903 1357,740 1357,577 1299,437 1183,322 1067,206 928,148 765,148 601,148 462,206 346,322 231,437 173,577 173,740 Z"/>
  </g>
 </defs>
 <g>
  <g id="id2" class="Master_Slide">
   <g id="bg-id2" class="Background"/>
   <g id="bo-id2" class="BackgroundObjects"/>
  </g>
 </g>
 <g class="SlideGroup">
  <g>
   <g id="container-id1">
    <g id="id1" class="Slide" clip-path="url(#presentation_clip_path)">
     <g class="Page">
      <g class="com.sun.star.drawing.CustomShape">
       <g id="id3">
        <rect class="BoundingBox" stroke="none" fill="none" x="347" y="346" width="2271" height="3228"/>
        <path fill="rgb(180,199,220)" stroke="none" d="M 1482,3555 L 365,3555 365,364 2599,364 2599,3555 1482,3555 Z"/>
        <path fill="none" stroke="rgb(0,0,0)" stroke-width="35" stroke-linejoin="round" d="M 1482,3555 L 365,3555 365,364 2599,364 2599,3555 1482,3555 Z"/>
       </g>
      </g>
      <g class="com.sun.star.drawing.CustomShape">
       <g id="id4">
        <rect class="BoundingBox" stroke="none" fill="none" x="2699" y="1329" width="1809" height="533"/>
        <text class="TextShape"><tspan class="TextParagraph" font-family="DejaVu Sans Mono, monospace" font-size="388px" font-weight="400"><tspan class="TextPosition" x="2671" y="1729"><tspan fill="rgb(0,0,0)" stroke="none">fromList</tspan></tspan></tspan></text>
       </g>
      </g>
      <g class="com.sun.star.drawing.CustomShape">
       <g id="id5">
        <rect class="BoundingBox" stroke="none" fill="none" x="4708" y="346" width="2271" height="3228"/>
        <path fill="rgb(180,199,220)" stroke="none" d="M 5843,3555 L 4726,3555 4726,364 6960,364 6960,3555 5843,3555 Z"/>
        <path fill="none" stroke="rgb(0,0,0)" stroke-width="35" stroke-linejoin="round" d="M 5843,3555 L 4726,3555 4726,364 6960,364 6960,3555 5843,3555 Z"/>
       </g>
      </g>
      <g class="com.sun.star.drawing.CustomShape">
       <g id="id6">
        <rect class="BoundingBox" stroke="none" fill="none" x="4921" y="666" width="569" height="569"/>
        <path fill="rgb(180,199,220)" stroke="none" d="M 5205,1216 L 4939,1216 4939,684 5471,684 5471,1216 5205,1216 Z"/>
        <path fill="none" stroke="rgb(0,0,0)" stroke-width="35" stroke-linejoin="round" d="M 5205,1216 L 4939,1216 4939,684 5471,684 5471,1216 5205,1216 Z"/>
       </g>
      </g>
      <g class="com.sun.star.drawing.CustomShape">
       <g id="id7">
        <rect class="BoundingBox" stroke="none" fill="none" x="4921" y="1198" width="569" height="569"/>
        <path fill="rgb(180,199,220)" stroke="none" d="M 5205,1748 L 4939,1748 4939,1216 5471,1216 5471,1748 5205,1748 Z"/>
        <path fill="none" stroke="rgb(0,0,0)" stroke-width="35" stroke-linejoin="round" d="M 5205,1748 L 4939,1748 4939,1216 5471,1216 5471,1748 5205,1748 Z"/>
       </g>
      </g>
      <g class="com.sun.star.drawing.CustomShape">
       <g id="id8">
        <rect class="BoundingBox" stroke="none" fill="none" x="6197" y="560" width="569" height="569"/>
        <path fill="rgb(180,199,220)" stroke="none" d="M 6481,1110 L 6215,1110 6215,578 6747,578 6747,1110 6481,1110 Z"/>
        <path fill="none" stroke="rgb(0,0,0)" stroke-width="35" stroke-linejoin="round" d="M 6481,1110 L 6215,1110 6215,578 6747,578 6747,1110 6481,1110 Z"/>
        <text class="TextShape"><tspan class="TextParagraph" font-family="Liberation Sans, sans-serif" font-size="388px" font-weight="400"><tspan class="TextPosition" x="6373" y="979"><tspan fill="rgb(0,0,0)" stroke="none">2</tspan></tspan></tspan></text>
       </g>
      </g>
      <g class="com.sun.star.drawing.CustomShape">
       <g id="id9">
        <rect class="BoundingBox" stroke="none" fill="none" x="6197" y="1304" width="569" height="569"/>
        <path fill="rgb(180,199,220)" stroke="none" d="M 6481,1854 L 6215,1854 6215,1322 6747,1322 6747,1854 6481,1854 Z"/>
        <path fill="none" stroke="rgb(0,0,0)" stroke-width="35" stroke-linejoin="round" d="M 6481,1854 L 6215,1854 6215,1322 6747,1322 6747,1854 6481,1854 Z"/>
        <text class="TextShape"><tspan class="TextParagraph" font-family="Liberation Sans, sans-serif" font-size="388px" font-weight="400"><tspan class="TextPosition" x="6373" y="1723"><tspan fill="rgb(0,0,0)" stroke="none">3</tspan></tspan></tspan></text>
       </g>
      </g>
      <g class="com.sun.star.drawing.LineShape">
       <g id="id10">
        <rect class="BoundingBox" stroke="none" fill="none" x="5240" y="743" width="977" height="279"/>
        <path fill="none" stroke="rgb(0,0,0)" stroke-width="35" stroke-linejoin="round" d="M 5258,1003 L 5885,864"/>
        <path fill="rgb(0,0,0)" stroke="none" d="M 5910,961 L 5896,991 6215,790 5841,743 5865,764 5887,791 5904,821 5916,855 5921,891 5918,927 5910,961 Z"/>
       </g>
      </g>
      <g class="com.sun.star.drawing.LineShape">
       <g id="id11">
        <rect class="BoundingBox" stroke="none" fill="none" x="5240" y="1475" width="977" height="255"/>
        <path fill="none" stroke="rgb(0,0,0)" stroke-width="35" stroke-linejoin="round" d="M 5258,1535 L 5879,1604"/>
        <path fill="rgb(0,0,0)" stroke="none" d="M 5871,1704 L 5848,1728 6215,1641 5877,1476 5893,1504 5904,1536 5911,1570 5911,1606 5904,1642 5890,1675 5871,1704 Z"/>
       </g>
      </g>
      <g class="com.sun.star.drawing.LineShape">
       <g id="id12">
        <rect class="BoundingBox" stroke="none" fill="none" x="2581" y="1833" width="2147" height="256"/>
        <path fill="none" stroke="rgb(0,0,0)" stroke-width="35" stroke-linejoin="round" d="M 2599,1961 L 4388,1961"/>
        <path fill="rgb(0,0,0)" stroke="none" d="M 4391,2061 L 4371,2088 4726,1960 4371,1834 4390,1859 4406,1890 4416,1923 4420,1959 4417,1995 4406,2030 4391,2061 Z"/>
       </g>
      </g>
      <g class="com.sun.star.drawing.CustomShape">
       <g id="id13">
        <rect class="BoundingBox" stroke="none" fill="none" x="7060" y="1329" width="1809" height="533"/>
        <text class="TextShape"><tspan class="TextParagraph" font-family="DejaVu Sans Mono, monospace" font-size="388px" font-weight="400"><tspan class="TextPosition" x="7615" y="1729"><tspan fill="rgb(0,0,0)" stroke="none">map</tspan></tspan></tspan></text>
       </g>
      </g>
      <g class="com.sun.star.drawing.CustomShape">
       <g id="id14">
        <rect class="BoundingBox" stroke="none" fill="none" x="9069" y="346" width="2271" height="3228"/>
        <path fill="rgb(180,199,220)" stroke="none" d="M 10204,3555 L 9087,3555 9087,364 11321,364 11321,3555 10204,3555 Z"/>
        <path fill="none" stroke="rgb(0,0,0)" stroke-width="35" stroke-linejoin="round" d="M 10204,3555 L 9087,3555 9087,364 11321,364 11321,3555 10204,3555 Z"/>
       </g>
      </g>
      <g class="com.sun.star.drawing.CustomShape">
       <g id="id15">
        <rect class="BoundingBox" stroke="none" fill="none" x="9282" y="666" width="569" height="569"/>
        <path fill="rgb(180,199,220)" stroke="none" d="M 9566,1216 L 9300,1216 9300,684 9832,684 9832,1216 9566,1216 Z"/>
        <path fill="none" stroke="rgb(0,0,0)" stroke-width="35" stroke-linejoin="round" d="M 9566,1216 L 9300,1216 9300,684 9832,684 9832,1216 9566,1216 Z"/>
       </g>
      </g>
      <g class="com.sun.star.drawing.CustomShape">
       <g id="id16">
        <rect class="BoundingBox" stroke="none" fill="none" x="9282" y="1198" width="569" height="569"/>
        <path fill="rgb(180,199,220)" stroke="none" d="M 9566,1748 L 9300,1748 9300,1216 9832,1216 9832,1748 9566,1748 Z"/>
        <path fill="none" stroke="rgb(0,0,0)" stroke-width="35" stroke-linejoin="round" d="M 9566,1748 L 9300,1748 9300,1216 9832,1216 9832,1748 9566,1748 Z"/>
       </g>
      </g>
      <g class="com.sun.star.drawing.CustomShape">
       <g id="id17">
        <rect class="BoundingBox" stroke="none" fill="none" x="10558" y="560" width="569" height="569"/>
        <path fill="rgb(180,199,220)" stroke="none" d="M 10842,1110 L 10576,1110 10576,578 11108,578 11108,1110 10842,1110 Z"/>
        <path fill="none" stroke="rgb(0,0,0)" stroke-width="35" stroke-linejoin="round" d="M 10842,1110 L 10576,1110 10576,578 11108,578 11108,1110 10842,1110 Z"/>
        <text class="TextShape"><tspan class="TextParagraph" font-family="Liberation Sans, sans-serif" font-size="388px" font-weight="400"><tspan class="TextPosition" x="10734" y="979"><tspan fill="rgb(0,0,0)" stroke="none">2</tspan></tspan></tspan></text>
       </g>
      </g>
      <g class="com.sun.star.drawing.CustomShape">
       <g id="id18">
        <rect class="BoundingBox" stroke="none" fill="none" x="10558" y="1304" width="569" height="569"/>
        <path fill="rgb(180,199,220)" stroke="none" d="M 10842,1854 L 10576,1854 10576,1322 11108,1322 11108,1854 10842,1854 Z"/>
        <path fill="none" stroke="rgb(0,0,0)" stroke-width="35" stroke-linejoin="round" d="M 10842,1854 L 10576,1854 10576,1322 11108,1322 11108,1854 10842,1854 Z"/>
        <text class="TextShape"><tspan class="TextParagraph" font-family="Liberation Sans, sans-serif" font-size="388px" font-weight="400"><tspan class="TextPosition" x="10734" y="1723"><tspan fill="rgb(0,0,0)" stroke="none">3</tspan></tspan></tspan></text>
       </g>
      </g>
      <g class="com.sun.star.drawing.LineShape">
       <g id="id19">
        <rect class="BoundingBox" stroke="none" fill="none" x="9601" y="743" width="977" height="279"/>
        <path fill="none" stroke="rgb(0,0,0)" stroke-width="35" stroke-linejoin="round" d="M 9619,1003 L 10246,864"/>
        <path fill="rgb(0,0,0)" stroke="none" d="M 10271,961 L 10257,991 10576,790 10202,743 10226,764 10248,791 10265,821 10277,855 10282,891 10279,927 10271,961 Z"/>
       </g>
      </g>
      <g class="com.sun.star.drawing.LineShape">
       <g id="id20">
        <rect class="BoundingBox" stroke="none" fill="none" x="9601" y="1475" width="977" height="255"/>
        <path fill="none" stroke="rgb(0,0,0)" stroke-width="35" stroke-linejoin="round" d="M 9619,1535 L 10240,1604"/>
        <path fill="rgb(0,0,0)" stroke="none" d="M 10232,1704 L 10210,1728 10576,1641 10238,1476 10254,1504 10266,1536 10272,1570 10272,1606 10265,1642 10251,1675 10232,1704 Z"/>
       </g>
      </g>
      <g class="com.sun.star.drawing.CustomShape">
       <g id="id21">
        <rect class="BoundingBox" stroke="none" fill="none" x="9282" y="2155" width="569" height="569"/>
        <path fill="rgb(180,199,220)" stroke="none" d="M 9566,2705 L 9300,2705 9300,2173 9832,2173 9832,2705 9566,2705 Z"/>
        <path fill="none" stroke="rgb(0,0,0)" stroke-width="35" stroke-linejoin="round" d="M 9566,2705 L 9300,2705 9300,2173 9832,2173 9832,2705 9566,2705 Z"/>
       </g>
      </g>
      <g class="com.sun.star.drawing.CustomShape">
       <g id="id22">
        <rect class="BoundingBox" stroke="none" fill="none" x="9282" y="2687" width="569" height="569"/>
        <path fill="rgb(180,199,220)" stroke="none" d="M 9566,3237 L 9300,3237 9300,2705 9832,2705 9832,3237 9566,3237 Z"/>
        <path fill="none" stroke="rgb(0,0,0)" stroke-width="35" stroke-linejoin="round" d="M 9566,3237 L 9300,3237 9300,2705 9832,2705 9832,3237 9566,3237 Z"/>
       </g>
      </g>
      <g class="com.sun.star.drawing.CustomShape">
       <g id="id23">
        <rect class="BoundingBox" stroke="none" fill="none" x="10558" y="2049" width="569" height="569"/>
        <path fill="rgb(180,199,220)" stroke="none" d="M 10842,2599 L 10576,2599 10576,2067 11108,2067 11108,2599 10842,2599 Z"/>
        <path fill="none" stroke="rgb(0,0,0)" stroke-width="35" stroke-linejoin="round" d="M 10842,2599 L 10576,2599 10576,2067 11108,2067 11108,2599 10842,2599 Z"/>
        <text class="TextShape"><tspan class="TextParagraph" font-family="Liberation Sans, sans-serif" font-size="388px" font-weight="400"><tspan class="TextPosition" x="10734" y="2468"><tspan fill="rgb(0,0,0)" stroke="none">4</tspan></tspan></tspan></text>
       </g>
      </g>
      <g class="com.sun.star.drawing.CustomShape">
       <g id="id24">
        <rect class="BoundingBox" stroke="none" fill="none" x="10558" y="2793" width="569" height="569"/>
        <path fill="rgb(180,199,220)" stroke="none" d="M 10842,3343 L 10576,3343 10576,2811 11108,2811 11108,3343 10842,3343 Z"/>
        <path fill="none" stroke="rgb(0,0,0)" stroke-width="35" stroke-linejoin="round" d="M 10842,3343 L 10576,3343 10576,2811 11108,2811 11108,3343 10842,3343 Z"/>
        <text class="TextShape"><tspan class="TextParagraph" font-family="Liberation Sans, sans-serif" font-size="388px" font-weight="400"><tspan class="TextPosition" x="10734" y="3212"><tspan fill="rgb(0,0,0)" stroke="none">6</tspan></tspan></tspan></text>
       </g>
      </g>
      <g class="com.sun.star.drawing.LineShape">
       <g id="id25">
        <rect class="BoundingBox" stroke="none" fill="none" x="9601" y="2232" width="977" height="279"/>
        <path fill="none" stroke="rgb(0,0,0)" stroke-width="35" stroke-linejoin="round" d="M 9619,2492 L 10246,2353"/>
        <path fill="rgb(0,0,0)" stroke="none" d="M 10271,2450 L 10257,2481 10576,2279 10202,2233 10226,2253 10248,2280 10265,2310 10277,2345 10282,2381 10279,2416 10271,2450 Z"/>
       </g>
      </g>
      <g class="com.sun.star.drawing.LineShape">
       <g id="id26">
        <rect class="BoundingBox" stroke="none" fill="none" x="9601" y="2965" width="977" height="254"/>
        <path fill="none" stroke="rgb(0,0,0)" stroke-width="35" stroke-linejoin="round" d="M 9619,3024 L 10240,3093"/>
        <path fill="rgb(0,0,0)" stroke="none" d="M 10232,3193 L 10210,3218 10576,3130 10238,2965 10254,2993 10266,3025 10272,3059 10272,3095 10265,3131 10251,3164 10232,3193 Z"/>
       </g>
      </g>
      <g class="com.sun.star.drawing.LineShape">
       <g id="id27">
        <rect class="BoundingBox" stroke="none" fill="none" x="6942" y="1833" width="2147" height="256"/>
        <path fill="none" stroke="rgb(0,0,0)" stroke-width="35" stroke-linejoin="round" d="M 6960,1961 L 8749,1961"/>
        <path fill="rgb(0,0,0)" stroke="none" d="M 8752,2061 L 8732,2088 9087,1960 8732,1834 8751,1859 8767,1890 8777,1923 8781,1959 8778,1995 8767,2030 8752,2061 Z"/>
       </g>
      </g>
      <g class="com.sun.star.drawing.CustomShape">
       <g id="id28">
        <rect class="BoundingBox" stroke="none" fill="none" x="11421" y="1329" width="1809" height="533"/>
        <text class="TextShape"><tspan class="TextParagraph" font-family="DejaVu Sans Mono, monospace" font-size="388px" font-weight="400"><tspan class="TextPosition" x="12092" y="1729"><tspan fill="rgb(0,0,0)" stroke="none">GC</tspan></tspan></tspan></text>
       </g>
      </g>
      <g class="com.sun.star.drawing.CustomShape">
       <g id="id29">
        <rect class="BoundingBox" stroke="none" fill="none" x="13430" y="346" width="2271" height="3228"/>
        <path fill="rgb(180,199,220)" stroke="none" d="M 14565,3555 L 13448,3555 13448,364 15682,364 15682,3555 14565,3555 Z"/>
        <path fill="none" stroke="rgb(0,0,0)" stroke-width="35" stroke-linejoin="round" d="M 14565,3555 L 13448,3555 13448,364 15682,364 15682,3555 14565,3555 Z"/>
       </g>
      </g>
      <g class="com.sun.star.drawing.CustomShape">
       <g id="id30">
        <rect class="BoundingBox" stroke="none" fill="none" x="13643" y="2155" width="569" height="569"/>
        <path fill="rgb(180,199,220)" stroke="none" d="M 13927,2705 L 13661,2705 13661,2173 14193,2173 14193,2705 13927,2705 Z"/>
        <path fill="none" stroke="rgb(0,0,0)" stroke-width="35" stroke-linejoin="round" d="M 13927,2705 L 13661,2705 13661,2173 14193,2173 14193,2705 13927,2705 Z"/>
       </g>
      </g>
      <g class="com.sun.star.drawing.CustomShape">
       <g id="id31">
        <rect class="BoundingBox" stroke="none" fill="none" x="13643" y="2687" width="569" height="569"/>
        <path fill="rgb(180,199,220)" stroke="none" d="M 13927,3237 L 13661,3237 13661,2705 14193,2705 14193,3237 13927,3237 Z"/>
        <path fill="none" stroke="rgb(0,0,0)" stroke-width="35" stroke-linejoin="round" d="M 13927,3237 L 13661,3237 13661,2705 14193,2705 14193,3237 13927,3237 Z"/>
       </g>
      </g>
      <g class="com.sun.star.drawing.CustomShape">
       <g id="id32">
        <rect class="BoundingBox" stroke="none" fill="none" x="14919" y="2049" width="569" height="569"/>
        <path fill="rgb(180,199,220)" stroke="none" d="M 15203,2599 L 14937,2599 14937,2067 15469,2067 15469,2599 15203,2599 Z"/>
        <path fill="none" stroke="rgb(0,0,0)" stroke-width="35" stroke-linejoin="round" d="M 15203,2599 L 14937,2599 14937,2067 15469,2067 15469,2599 15203,2599 Z"/>
        <text class="TextShape"><tspan class="TextParagraph" font-family="Liberation Sans, sans-serif" font-size="388px" font-weight="400"><tspan class="TextPosition" x="15095" y="2468"><tspan fill="rgb(0,0,0)" stroke="none">4</tspan></tspan></tspan></text>
       </g>
      </g>
      <g class="com.sun.star.drawing.CustomShape">
       <g id="id33">
        <rect class="BoundingBox" stroke="none" fill="none" x="14919" y="2793" width="569" height="569"/>
        <path fill="rgb(180,199,220)" stroke="none" d="M 15203,3343 L 14937,3343 14937,2811 15469,2811 15469,3343 15203,3343 Z"/>
        <path fill="none" stroke="rgb(0,0,0)" stroke-width="35" stroke-linejoin="round" d="M 15203,3343 L 14937,3343 14937,2811 15469,2811 15469,3343 15203,3343 Z"/>
        <text class="TextShape"><tspan class="TextParagraph" font-family="Liberation Sans, sans-serif" font-size="388px" font-weight="400"><tspan class="TextPosition" x="15095" y="3212"><tspan fill="rgb(0,0,0)" stroke="none">6</tspan></tspan></tspan></text>
       </g>
      </g>
      <g class="com.sun.star.drawing.LineShape">
       <g id="id34">
        <rect class="BoundingBox" stroke="none" fill="none" x="13962" y="2232" width="977" height="279"/>
        <path fill="none" stroke="rgb(0,0,0)" stroke-width="35" stroke-linejoin="round" d="M 13980,2492 L 14607,2353"/>
        <path fill="rgb(0,0,0)" stroke="none" d="M 14632,2450 L 14618,2481 14937,2279 14563,2233 14587,2253 14609,2280 14626,2310 14638,2345 14643,2381 14640,2416 14632,2450 Z"/>
       </g>
      </g>
      <g class="com.sun.star.drawing.LineShape">
       <g id="id35">
        <rect class="BoundingBox" stroke="none" fill="none" x="13962" y="2965" width="977" height="254"/>
        <path fill="none" stroke="rgb(0,0,0)" stroke-width="35" stroke-linejoin="round" d="M 13980,3024 L 14601,3093"/>
        <path fill="rgb(0,0,0)" stroke="none" d="M 14593,3193 L 14571,3218 14937,3130 14599,2965 14615,2993 14627,3025 14633,3059 14633,3095 14626,3131 14612,3164 14593,3193 Z"/>
       </g>
      </g>
      <g class="com.sun.star.drawing.LineShape">
       <g id="id36">
        <rect class="BoundingBox" stroke="none" fill="none" x="11303" y="1833" width="2147" height="256"/>
        <path fill="none" stroke="rgb(0,0,0)" stroke-width="35" stroke-linejoin="round" d="M 11321,1961 L 13110,1961"/>
        <path fill="rgb(0,0,0)" stroke="none" d="M 13113,2061 L 13093,2088 13448,1960 13093,1834 13112,1859 13128,1890 13138,1923 13142,1959 13139,1995 13129,2030 13113,2061 Z"/>
       </g>
      </g>
     </g>
    </g>
   </g>
  </g>
 </g>
</svg>